Brain name,Time to update policy,Time since start of training,Time for last experience collection,Number of experiences used for training,Mean return
HVRBrain,1.099,17.957,14.593,10400,nan
HVRBrain,1.040,33.202,13.067,10380,-4.852
HVRBrain,1.057,48.770,13.217,10400,nan
HVRBrain,1.192,65.123,13.923,10380,-4.372
HVRBrain,1.196,81.859,13.967,10400,nan
HVRBrain,1.222,98.421,14.040,10380,-3.565
HVRBrain,1.244,115.481,14.007,10400,nan
HVRBrain,1.235,132.059,13.982,10380,-3.465
HVRBrain,1.268,148.539,14.007,10400,nan
HVRBrain,1.224,165.196,14.016,10380,-3.723
HVRBrain,1.197,181.912,14.094,10400,nan
HVRBrain,1.257,198.726,14.088,10380,-5.479
HVRBrain,1.234,215.603,14.005,10400,nan
HVRBrain,1.208,232.513,14.275,10380,-3.910
HVRBrain,1.267,249.270,14.331,10400,nan
HVRBrain,1.212,266.357,14.270,10380,-4.510
HVRBrain,1.185,282.920,14.101,10400,nan
HVRBrain,1.105,299.883,14.220,10380,-4.371
HVRBrain,1.038,315.285,12.984,10400,nan
HVRBrain,1.037,330.619,12.663,10380,-3.341
HVRBrain,1.060,345.371,12.640,10400,nan
HVRBrain,1.032,360.615,12.646,10380,-3.571
HVRBrain,1.037,375.278,12.577,10400,nan
HVRBrain,1.020,390.565,12.609,10380,-3.326
HVRBrain,1.010,405.376,12.593,10400,nan
HVRBrain,1.010,420.445,12.735,10380,-4.139
HVRBrain,1.010,435.199,12.640,10380,-4.396
HVRBrain,1.020,450.475,12.716,10400,nan
HVRBrain,1.030,465.294,12.658,10380,-5.226
HVRBrain,1.033,480.627,12.575,10400,nan
HVRBrain,0.997,495.510,12.675,10380,-5.285
HVRBrain,1.004,510.441,12.751,10400,nan
HVRBrain,1.026,525.493,12.772,10380,-5.255
HVRBrain,0.995,540.736,12.847,10400,nan
HVRBrain,1.030,555.565,12.540,10380,-3.788
HVRBrain,1.024,570.829,12.644,10400,nan
HVRBrain,1.010,585.792,12.640,10380,-5.624
HVRBrain,1.011,600.644,12.779,10400,nan
HVRBrain,1.050,616.141,12.903,10380,-4.528
HVRBrain,1.055,647.791,29.388,10400,nan
HVRBrain,1.034,678.825,28.552,10380,-4.769
HVRBrain,1.011,709.891,28.618,10400,nan
HVRBrain,1.006,740.960,28.745,10380,-3.680
HVRBrain,1.031,772.051,29.021,10400,nan
HVRBrain,1.027,803.153,28.518,10380,-5.380
HVRBrain,1.023,834.776,29.517,10400,nan
HVRBrain,1.036,865.859,28.476,10380,-3.907
HVRBrain,1.021,896.917,28.768,10400,nan
HVRBrain,1.021,927.982,28.732,10380,-3.779
HVRBrain,1.023,959.077,29.020,10400,nan
HVRBrain,1.012,990.138,28.488,10380,-4.827
HVRBrain,1.031,1021.790,29.552,10380,-4.831
HVRBrain,1.028,1052.891,28.364,10400,nan
HVRBrain,1.026,1083.944,28.820,10380,-3.276
HVRBrain,1.024,1115.029,28.814,10400,nan
HVRBrain,1.034,1146.113,28.875,10380,-3.132
HVRBrain,1.008,1177.734,29.188,10400,nan
HVRBrain,1.033,1208.814,28.694,10380,-4.180
HVRBrain,1.045,1239.921,28.420,10400,nan
HVRBrain,1.031,1270.967,28.771,10380,-3.354
HVRBrain,1.028,1302.049,28.974,10400,nan
HVRBrain,1.036,1333.147,28.747,10380,-3.418
HVRBrain,1.020,1364.766,29.310,10400,nan
HVRBrain,1.035,1395.843,28.676,10380,-3.338
HVRBrain,1.035,1426.929,28.556,10400,nan
HVRBrain,1.019,1457.956,28.703,10380,-3.350
HVRBrain,1.028,1489.083,29.045,10400,nan
HVRBrain,1.036,1520.155,28.570,10380,-4.981
HVRBrain,1.038,1551.802,29.478,10400,nan
HVRBrain,1.032,1582.857,28.499,10380,-3.218
HVRBrain,1.046,1613.965,28.708,10400,nan
HVRBrain,1.041,1645.023,28.709,10380,-4.621
HVRBrain,1.041,1676.117,28.999,10400,nan
HVRBrain,1.008,1707.150,28.466,10380,-4.319
HVRBrain,1.007,1738.794,29.598,10400,nan
HVRBrain,1.021,1769.879,28.399,10380,-4.919
HVRBrain,1.039,1800.951,28.696,10380,-5.561
HVRBrain,1.034,1832.033,28.737,10400,nan
HVRBrain,1.008,1863.128,28.978,10380,-5.247
HVRBrain,1.006,1894.738,29.103,10400,nan
HVRBrain,1.004,1925.799,28.908,10380,-5.024
HVRBrain,1.013,1956.899,28.376,10400,nan
HVRBrain,0.999,1987.943,28.841,10380,-3.439
HVRBrain,1.005,2019.035,28.929,10400,nan
HVRBrain,0.995,2050.144,28.846,10380,-3.308
HVRBrain,1.021,2081.774,29.250,10400,nan
HVRBrain,1.012,2112.829,28.736,10380,-3.605
HVRBrain,1.041,2143.938,28.510,10400,nan
HVRBrain,1.048,2175.034,28.735,10380,-4.559
HVRBrain,1.035,2206.101,28.977,10400,nan
HVRBrain,1.021,2237.126,28.596,10380,-4.490
HVRBrain,1.040,2268.814,29.451,10400,nan
HVRBrain,1.010,2299.844,28.562,10380,-4.105
HVRBrain,1.005,2330.926,28.657,10400,nan
HVRBrain,1.015,2362.003,28.769,10380,-2.795
HVRBrain,1.019,2393.100,29.038,10400,nan
HVRBrain,1.047,2424.204,28.370,10380,-4.681
HVRBrain,1.000,2455.797,29.542,10400,nan
HVRBrain,1.018,2486.890,28.467,10380,-4.144
HVRBrain,1.041,2517.992,28.794,10400,nan
HVRBrain,1.014,2549.037,28.744,10380,-5.110
HVRBrain,1.005,2580.107,29.017,10400,nan
HVRBrain,1.012,2611.753,29.079,10380,-3.539
HVRBrain,0.995,2642.811,28.982,10380,-3.113
HVRBrain,1.005,2673.886,28.336,10400,nan
HVRBrain,1.016,2704.987,28.874,10380,-3.632
HVRBrain,1.028,2736.061,28.832,10400,nan
HVRBrain,1.026,2767.146,28.885,10380,-3.195
HVRBrain,1.034,2798.795,29.182,10400,nan
HVRBrain,1.004,2829.839,28.795,10380,-4.176
HVRBrain,1.029,2860.921,28.413,10400,nan
HVRBrain,1.027,2892.029,28.790,10380,-3.798
HVRBrain,1.039,2923.135,28.998,10400,nan
HVRBrain,1.056,2954.219,28.681,10380,-4.161
HVRBrain,1.053,2985.835,29.289,10400,nan
HVRBrain,1.020,3016.885,28.344,10380,-3.195
HVRBrain,0.997,3047.934,28.591,10400,nan
HVRBrain,1.027,3079.042,28.780,10380,-3.165
HVRBrain,1.039,3110.127,28.979,10400,nan
HVRBrain,1.055,3141.785,29.125,10380,-2.893
HVRBrain,1.029,3172.835,28.885,10400,nan
HVRBrain,1.028,3203.912,28.497,10380,-3.437
HVRBrain,1.016,3234.974,28.721,10400,nan
HVRBrain,0.998,3266.055,28.774,10380,-2.901
HVRBrain,0.993,3297.123,29.015,10400,nan
HVRBrain,1.001,3328.750,29.063,10380,-2.929
HVRBrain,1.010,3359.833,29.025,10400,nan
HVRBrain,1.029,3390.920,28.351,10380,-2.756
HVRBrain,1.018,3421.992,28.867,10380,-2.999
HVRBrain,1.002,3453.052,28.773,10400,nan
HVRBrain,0.998,3484.151,28.974,10380,-2.680
HVRBrain,0.993,3515.763,29.154,10400,nan
HVRBrain,0.986,3546.821,28.894,10380,-2.472
HVRBrain,1.040,3577.949,28.378,10400,nan
HVRBrain,1.022,3609.013,28.669,10380,-2.450
HVRBrain,1.045,3640.135,28.950,10400,nan
HVRBrain,1.031,3671.184,28.739,10380,-3.331
HVRBrain,1.020,3702.807,29.260,10400,nan
HVRBrain,1.008,3733.866,28.714,10380,-6.402
HVRBrain,1.032,3764.999,28.549,10400,nan
HVRBrain,1.021,3796.047,28.726,10380,-2.568
HVRBrain,1.017,3827.113,28.985,10400,nan
HVRBrain,1.034,3858.774,29.198,10380,-2.924
HVRBrain,1.014,3889.831,28.849,10400,nan
HVRBrain,1.014,3920.922,28.596,10380,-3.393
HVRBrain,1.037,3951.997,28.633,10400,nan
HVRBrain,1.031,3983.060,28.720,10380,-2.669
HVRBrain,1.051,4014.173,29.003,10400,nan
HVRBrain,1.038,4045.800,29.044,10380,-2.955
HVRBrain,1.048,4076.876,28.970,10400,nan
HVRBrain,1.047,4107.985,28.435,10380,-3.919
HVRBrain,1.049,4139.024,28.755,10400,nan
HVRBrain,1.035,4170.111,28.757,10380,-2.713
HVRBrain,1.015,4201.123,28.664,10380,-3.191
HVRBrain,1.037,4232.822,29.093,10400,nan
HVRBrain,1.036,4263.873,28.914,10380,-2.887
HVRBrain,1.037,4294.976,28.333,10400,nan
HVRBrain,1.063,4326.067,28.838,10380,-2.873
HVRBrain,1.016,4357.102,28.822,10400,nan
HVRBrain,1.015,4388.744,29.414,10380,-3.786
HVRBrain,0.995,4419.797,28.640,10400,nan
HVRBrain,1.030,4450.916,28.834,10380,-2.862
HVRBrain,1.019,4481.964,28.418,10400,nan
HVRBrain,1.011,4513.038,28.770,10380,-2.891
HVRBrain,1.017,4544.135,29.019,10400,nan
HVRBrain,1.042,4575.791,29.254,10380,-3.413
HVRBrain,1.030,4606.861,28.791,10400,nan
HVRBrain,1.043,4637.942,28.632,10380,-2.386
HVRBrain,1.052,4669.020,28.561,10400,nan
HVRBrain,1.027,4700.062,28.727,10380,-2.578
HVRBrain,1.011,4731.153,29.022,10400,nan
HVRBrain,1.032,4762.805,29.099,10380,-2.277
HVRBrain,1.040,4793.886,28.933,10400,nan
HVRBrain,1.039,4824.980,28.369,10380,-1.988
HVRBrain,1.011,4856.010,28.718,10400,nan
HVRBrain,1.022,4887.090,28.759,10380,-2.863
HVRBrain,1.043,4918.779,29.579,10400,nan
HVRBrain,1.032,4949.827,28.469,10380,-2.535
HVRBrain,1.005,4980.882,28.992,10400,nan
HVRBrain,1.005,5011.966,28.350,10380,-3.015
HVRBrain,1.000,5043.011,28.865,10380,-1.825
HVRBrain,1.012,5074.109,28.820,10400,nan
HVRBrain,1.006,5105.742,29.477,10380,-1.239
HVRBrain,1.015,5136.826,28.616,10400,nan
HVRBrain,1.012,5167.903,28.873,10380,-1.240
HVRBrain,1.015,5198.973,28.355,10400,nan
HVRBrain,1.021,5230.069,28.816,10380,-0.766
HVRBrain,1.033,5261.144,28.935,10400,nan
HVRBrain,1.012,5292.762,29.309,10380,-1.185
HVRBrain,1.012,5323.859,28.765,10400,nan
HVRBrain,1.006,5354.916,28.714,10380,-1.187
HVRBrain,1.013,5386.007,28.569,10400,nan
HVRBrain,0.994,5417.076,28.668,10380,-0.758
HVRBrain,1.008,5448.167,29.027,10400,nan
HVRBrain,1.010,5479.793,29.156,10380,-1.510
HVRBrain,1.006,5510.862,28.895,10400,nan
HVRBrain,1.003,5541.919,28.560,10380,-1.016
HVRBrain,1.020,5573.064,28.767,10400,nan
HVRBrain,1.008,5604.097,28.719,10380,-1.181
HVRBrain,1.038,5635.778,29.581,10400,nan
HVRBrain,1.040,5666.848,28.484,10380,-0.698
HVRBrain,1.064,5697.945,28.978,10400,nan
HVRBrain,1.071,5729.030,28.363,10380,-0.839
HVRBrain,1.051,5760.079,28.765,10400,nan
HVRBrain,1.080,5791.188,28.732,10380,-0.611
HVRBrain,1.070,5822.822,29.476,10380,-0.563
HVRBrain,1.051,5853.872,28.453,10400,nan
HVRBrain,1.038,5884.951,28.908,10380,-0.851
HVRBrain,1.043,5916.050,28.320,10400,nan
HVRBrain,1.042,5947.117,28.843,10380,-0.488
HVRBrain,1.107,5978.249,28.843,10400,nan
HVRBrain,1.069,6009.832,29.149,10380,-0.486
HVRBrain,1.070,6040.920,28.620,10400,nan
HVRBrain,1.073,6072.018,28.739,10380,-0.247
HVRBrain,1.060,6103.047,28.357,10400,nan
HVRBrain,1.060,6134.123,28.720,10380,-0.506
HVRBrain,1.068,6165.795,29.541,10400,nan
HVRBrain,1.054,6196.846,28.622,10380,-0.174
HVRBrain,1.040,6227.926,28.801,10400,nan
HVRBrain,1.029,6258.986,28.611,10380,-0.203
HVRBrain,1.045,6290.086,28.619,10400,nan
HVRBrain,1.026,6321.140,28.729,10380,-0.312
HVRBrain,1.045,6352.795,29.546,10400,nan
HVRBrain,1.059,6383.879,28.479,10380,-0.803
HVRBrain,1.030,6414.914,28.917,10400,nan
HVRBrain,1.040,6446.008,28.483,10380,-0.236
HVRBrain,1.049,6477.121,28.781,10400,nan
HVRBrain,1.031,6508.163,28.717,10380,-0.240
HVRBrain,1.030,6539.802,29.563,10400,nan
HVRBrain,1.016,6570.855,28.484,10380,-0.238
HVRBrain,0.999,6601.879,28.845,10380,-0.173
HVRBrain,1.013,6633.011,28.390,10400,nan
HVRBrain,1.033,6664.095,28.870,10380,-0.144
HVRBrain,1.027,6695.152,28.790,10400,nan
HVRBrain,1.034,6726.803,29.455,10380,-0.151
HVRBrain,1.006,6757.866,28.596,10400,nan
HVRBrain,1.024,6788.981,28.887,10380,-0.158
HVRBrain,1.032,6820.053,28.385,10400,nan
HVRBrain,1.032,6851.140,28.792,10380,-0.395
HVRBrain,1.035,6882.774,29.518,10400,nan
HVRBrain,1.010,6913.806,28.723,10380,-0.167
HVRBrain,1.029,6944.918,28.733,10400,nan
HVRBrain,1.053,6976.002,28.651,10380,-0.985
HVRBrain,1.039,7007.046,28.491,10400,nan
HVRBrain,1.068,7038.177,28.769,10380,-0.782
HVRBrain,1.054,7069.809,29.514,10400,nan
HVRBrain,1.038,7100.871,28.560,10380,-0.071
HVRBrain,1.055,7131.953,28.894,10400,nan
HVRBrain,1.025,7163.013,28.519,10380,-0.132
HVRBrain,1.051,7194.121,28.692,10400,nan
HVRBrain,1.055,7225.196,28.593,10380,-0.360
HVRBrain,1.071,7256.858,29.539,10400,nan
HVRBrain,1.053,7287.899,28.443,10380,-0.835
HVRBrain,1.035,7318.955,28.952,10400,nan
HVRBrain,1.059,7350.081,28.387,10380,-0.100
HVRBrain,1.045,7381.153,28.821,10400,nan
HVRBrain,1.037,7412.767,29.285,10380,-0.105
HVRBrain,1.031,7443.818,28.928,10380,-0.091
HVRBrain,1.018,7474.885,28.555,10400,nan
HVRBrain,1.021,7505.974,28.917,10380,-0.061
HVRBrain,1.033,7537.064,28.338,10400,nan
HVRBrain,1.033,7568.148,28.860,10380,-0.871
HVRBrain,1.052,7599.799,29.445,10400,nan
HVRBrain,1.031,7630.843,28.765,10380,-0.736
HVRBrain,1.018,7661.913,28.692,10400,nan
HVRBrain,1.024,7692.971,28.742,10380,-0.746
HVRBrain,1.043,7724.113,28.530,10400,nan
HVRBrain,1.030,7755.138,28.728,10380,-0.012
HVRBrain,1.018,7786.789,29.576,10400,nan
HVRBrain,1.037,7817.874,28.526,10380,-0.001
HVRBrain,1.037,7848.955,28.849,10400,nan
HVRBrain,1.069,7880.067,28.580,10380,-1.074
HVRBrain,1.062,7911.130,28.572,10400,nan
HVRBrain,1.062,7942.204,28.720,10380,-1.307
HVRBrain,1.059,7973.852,29.527,10400,nan
HVRBrain,1.039,8004.895,28.471,10380,0.064
HVRBrain,1.072,8036.010,28.978,10400,nan
HVRBrain,1.058,8067.087,28.414,10380,0.047
HVRBrain,1.063,8098.142,28.715,10400,nan
HVRBrain,1.064,8129.808,29.331,10380,-0.636
HVRBrain,1.058,8160.880,28.954,10400,nan
HVRBrain,1.038,8191.943,28.475,10380,-4.322
HVRBrain,1.024,8222.978,28.933,10380,-0.597
HVRBrain,1.031,8254.058,28.294,10400,nan
HVRBrain,1.032,8285.171,28.910,10380,-1.377
HVRBrain,1.034,8316.789,29.370,10400,nan
HVRBrain,1.035,8347.865,28.870,10380,-0.653
HVRBrain,1.040,8378.933,28.607,10400,nan
HVRBrain,1.017,8410.004,28.718,10380,-1.091
HVRBrain,1.002,8441.090,28.465,10400,nan
HVRBrain,1.024,8472.170,28.779,10380,-1.128
HVRBrain,1.035,8503.816,29.536,10400,nan
HVRBrain,1.027,8534.863,28.682,10380,-5.016
HVRBrain,1.023,8565.953,28.796,10400,nan
HVRBrain,1.027,8597.056,28.689,10380,-0.601
HVRBrain,1.040,8628.138,28.566,10400,nan
HVRBrain,1.035,8659.760,29.304,10380,-1.709
HVRBrain,1.009,8690.802,28.985,10400,nan
HVRBrain,1.025,8721.908,28.625,10380,-1.945
HVRBrain,1.019,8752.982,28.931,10400,nan
HVRBrain,1.005,8784.019,28.500,10380,-1.244
HVRBrain,1.052,8815.141,28.748,10400,nan
HVRBrain,1.032,8846.779,29.333,10380,-2.547
HVRBrain,1.031,8877.860,29.001,10400,nan
HVRBrain,1.022,8908.921,28.512,10380,-0.396
HVRBrain,1.031,8940.017,29.002,10400,nan
HVRBrain,1.036,8971.098,28.363,10380,-0.081
HVRBrain,1.020,9002.143,28.724,10380,-1.378
HVRBrain,1.002,9033.762,29.348,10400,nan
HVRBrain,1.008,9064.848,28.969,10380,-0.036
HVRBrain,1.023,9095.936,28.568,10400,nan
HVRBrain,1.012,9127.000,28.870,10380,-0.924
HVRBrain,1.046,9158.124,28.366,10400,nan
HVRBrain,0.993,9189.152,28.819,10380,-0.548
HVRBrain,1.012,9220.802,29.508,10400,nan
HVRBrain,1.002,9251.872,28.806,10380,-1.113
HVRBrain,1.009,9282.947,28.725,10400,nan
HVRBrain,1.016,9314.035,28.757,10380,-0.527
HVRBrain,1.004,9345.119,28.522,10400,nan
HVRBrain,1.030,9376.764,29.318,10380,0.019
HVRBrain,1.019,9407.823,28.972,10400,nan
HVRBrain,1.018,9438.888,28.651,10380,-0.286
HVRBrain,1.020,9469.993,28.902,10400,nan
HVRBrain,1.020,9501.064,28.608,10380,-0.035
HVRBrain,1.024,9532.143,28.659,10400,nan
HVRBrain,1.024,9563.783,29.328,10380,-0.051
HVRBrain,1.028,9594.871,29.008,10400,nan
HVRBrain,1.017,9625.920,28.359,10380,-0.092
HVRBrain,1.010,9657.002,29.009,10400,nan
HVRBrain,0.989,9688.066,28.462,10380,-2.004
HVRBrain,0.996,9719.102,28.793,10400,nan
HVRBrain,0.992,9750.766,29.400,10380,-1.052
HVRBrain,1.002,9781.833,28.997,10400,nan
HVRBrain,1.010,9812.939,28.557,10380,0.072
HVRBrain,1.008,9844.028,28.980,10380,-0.068
HVRBrain,1.019,9875.133,28.361,10400,nan
HVRBrain,1.008,9906.190,28.867,10380,-0.149
HVRBrain,1.028,9937.826,29.430,10400,nan
HVRBrain,1.042,9968.932,28.870,10380,-0.057
HVRBrain,1.031,9999.989,28.623,10400,nan
HVRBrain,1.040,10031.049,28.780,10380,-0.064
HVRBrain,1.017,10062.110,28.413,10400,nan
HVRBrain,1.017,10093.754,29.346,10380,-2.286
HVRBrain,1.033,10124.860,29.007,10400,nan
HVRBrain,1.060,10155.978,28.689,10380,-3.866
HVRBrain,1.023,10186.997,28.743,10400,nan
HVRBrain,1.032,10218.063,28.510,10380,-0.038
HVRBrain,0.994,10249.120,28.608,10400,nan
HVRBrain,1.026,10280.787,29.374,10380,-0.069
HVRBrain,1.018,10311.871,29.010,10400,nan
HVRBrain,1.017,10342.936,28.535,10380,-0.965
HVRBrain,0.999,10373.974,28.924,10400,nan
HVRBrain,1.019,10405.135,28.580,10380,-0.447
HVRBrain,1.024,10436.755,29.309,10400,nan
HVRBrain,1.026,10467.812,28.760,10380,-1.444
HVRBrain,1.048,10498.909,29.000,10400,nan
HVRBrain,1.029,10529.970,28.512,10380,-11.833
HVRBrain,1.008,10561.030,28.992,10400,nan
HVRBrain,1.030,10592.116,28.345,10380,-0.086
HVRBrain,1.029,10623.761,29.443,10380,-0.732
HVRBrain,1.010,10654.812,28.774,10400,nan
HVRBrain,1.028,10685.916,28.931,10380,-1.232
HVRBrain,1.030,10716.972,28.579,10400,nan
HVRBrain,1.036,10748.074,28.879,10380,-0.082
HVRBrain,1.061,10779.187,28.379,10400,nan
HVRBrain,1.039,10810.787,29.226,10380,-0.639
HVRBrain,1.051,10841.898,28.966,10400,nan
HVRBrain,1.043,10872.952,28.746,10380,-3.911
HVRBrain,1.041,10904.005,28.687,10400,nan
HVRBrain,1.028,10935.083,28.719,10380,-0.516
HVRBrain,1.043,10966.175,28.520,10400,nan
HVRBrain,1.032,10997.807,29.322,10380,-0.543
HVRBrain,1.021,11028.888,29.004,10400,nan
HVRBrain,1.011,11059.930,28.611,10380,-1.087
HVRBrain,1.029,11091.062,28.949,10400,nan
HVRBrain,1.018,11122.122,28.581,10380,-0.580
HVRBrain,1.015,11153.752,29.250,10400,nan
HVRBrain,0.999,11184.795,28.767,10380,0.265
HVRBrain,1.010,11215.870,29.006,10400,nan
HVRBrain,1.013,11246.963,28.556,10380,-0.534
HVRBrain,0.997,11278.045,29.022,10400,nan
HVRBrain,1.021,11309.155,28.472,10380,-0.295
HVRBrain,1.019,11340.773,29.384,10400,nan
HVRBrain,1.048,11371.855,28.771,10380,-5.038
HVRBrain,1.054,11402.939,28.850,10380,-0.533
HVRBrain,1.059,11434.037,28.510,10400,nan
HVRBrain,1.030,11465.073,28.897,10380,-0.388
HVRBrain,1.048,11496.207,28.335,10400,nan
HVRBrain,1.058,11527.811,29.382,10380,-0.380
HVRBrain,1.069,11558.919,28.866,10400,nan
HVRBrain,1.060,11589.993,28.801,10380,-0.138
HVRBrain,1.060,11621.054,28.618,10400,nan
HVRBrain,1.040,11652.140,28.779,10380,-0.254
HVRBrain,1.058,11683.785,29.008,10400,nan
HVRBrain,1.021,11714.800,28.743,10380,-0.332
HVRBrain,1.058,11745.923,29.001,10400,nan
HVRBrain,1.039,11776.960,28.621,10380,-0.035
HVRBrain,1.040,11808.054,28.828,10400,nan
HVRBrain,1.054,11839.166,28.644,10380,-0.041
HVRBrain,1.033,11870.779,29.161,10400,nan
HVRBrain,1.036,11901.843,28.765,10380,-0.030
HVRBrain,1.048,11932.932,28.984,10400,nan
HVRBrain,1.018,11963.976,28.525,10380,-0.244
HVRBrain,1.037,11995.086,29.006,10400,nan
HVRBrain,1.049,12026.173,28.323,10380,-0.524
HVRBrain,1.042,12057.805,29.306,10400,nan
HVRBrain,1.058,12088.878,28.752,10380,-0.313
HVRBrain,1.031,12119.959,28.992,10400,nan
HVRBrain,1.036,12151.043,28.512,10380,0.244
HVRBrain,1.038,12182.133,28.990,10400,nan
HVRBrain,1.042,12213.200,28.313,10380,0.206
HVRBrain,1.043,12244.822,29.423,10380,-1.253
HVRBrain,1.054,12275.912,28.813,10400,nan
HVRBrain,1.053,12306.995,28.876,10380,-0.497
HVRBrain,1.050,12338.043,28.553,10400,nan
HVRBrain,1.050,12369.128,28.829,10380,-0.194
HVRBrain,1.061,12400.790,28.940,10400,nan
HVRBrain,1.064,12431.867,28.785,10380,0.545
HVRBrain,1.060,12462.939,28.943,10400,nan
HVRBrain,1.067,12494.015,28.728,10380,-1.893
HVRBrain,1.079,12525.098,28.723,10400,nan
HVRBrain,1.067,12556.179,28.677,10380,0.251
HVRBrain,1.071,12587.826,29.093,10400,nan
HVRBrain,1.050,12618.869,28.611,10380,0.180
HVRBrain,1.050,12649.952,28.971,10400,nan
HVRBrain,1.070,12681.033,28.554,10380,-1.051
HVRBrain,1.076,12712.152,28.915,10400,nan
HVRBrain,1.081,12743.239,28.507,10380,-0.321
HVRBrain,1.064,12774.837,29.189,10400,nan
HVRBrain,1.060,12805.898,28.737,10380,0.056
HVRBrain,1.065,12837.003,28.983,10400,nan
HVRBrain,1.065,12868.070,28.490,10380,0.348
HVRBrain,1.035,12899.139,28.979,10400,nan
HVRBrain,1.016,12930.184,28.356,10380,-3.390
HVRBrain,1.006,12961.808,29.427,10400,nan
HVRBrain,1.023,12992.863,28.757,10380,0.093
HVRBrain,1.020,13023.982,29.018,10380,-7.288
HVRBrain,1.081,13055.110,28.541,10400,nan
HVRBrain,1.082,13086.197,28.874,10380,-0.031
HVRBrain,1.064,13117.814,28.820,10400,nan
HVRBrain,1.070,13148.874,28.810,10380,0.669
HVRBrain,1.039,13179.923,28.864,10400,nan
HVRBrain,1.046,13211.014,28.686,10380,-6.826
HVRBrain,1.039,13242.052,28.642,10400,nan
HVRBrain,1.032,13273.140,28.781,10380,0.118
HVRBrain,1.011,13304.770,29.038,10400,nan
HVRBrain,1.042,13335.866,28.792,10380,-0.323
HVRBrain,1.024,13366.951,29.002,10400,nan
HVRBrain,1.041,13398.030,28.664,10380,-24.059
HVRBrain,1.046,13429.106,28.847,10400,nan
HVRBrain,1.034,13460.219,28.655,10380,-0.383
HVRBrain,1.040,13491.824,29.160,10400,nan
HVRBrain,1.037,13522.893,28.775,10380,0.718
HVRBrain,1.030,13553.962,28.960,10400,nan
HVRBrain,1.035,13585.031,28.485,10380,-5.129
HVRBrain,1.038,13616.130,29.005,10400,nan
HVRBrain,1.023,13647.754,29.009,10380,-0.516
HVRBrain,1.031,13678.836,28.820,10400,nan
HVRBrain,1.033,13709.909,28.789,10380,-2.641
HVRBrain,1.017,13740.979,29.009,10400,nan
HVRBrain,1.027,13772.082,28.571,10380,-0.623
HVRBrain,1.035,13803.128,28.825,10380,-0.101
HVRBrain,1.037,13834.788,28.885,10400,nan
HVRBrain,1.031,13865.849,28.874,10380,-1.317
HVRBrain,1.054,13896.953,28.844,10400,nan
HVRBrain,1.042,13928.033,28.875,10380,-2.603
HVRBrain,1.046,13959.105,28.613,10400,nan
HVRBrain,1.031,13990.194,28.846,10380,-0.981
HVRBrain,1.039,14021.804,28.956,10400,nan
HVRBrain,1.034,14052.876,28.790,10380,-0.602
HVRBrain,1.024,14083.967,29.024,10400,nan
HVRBrain,1.033,14115.046,28.757,10380,-0.758
HVRBrain,1.035,14146.118,28.775,10400,nan
HVRBrain,1.025,14177.180,28.679,10380,-4.006
HVRBrain,1.025,14208.812,29.150,10400,nan
HVRBrain,1.031,14239.885,28.776,10380,0.713
HVRBrain,1.048,14270.992,29.006,10400,nan
HVRBrain,1.030,14302.068,28.570,10380,-1.840
HVRBrain,1.022,14333.163,28.962,10400,nan
HVRBrain,1.015,14364.755,29.078,10380,0.290
HVRBrain,1.027,14395.854,28.748,10400,nan
HVRBrain,1.030,14426.930,28.655,10380,-2.320
HVRBrain,1.025,14457.976,28.969,10400,nan
HVRBrain,1.036,14489.096,28.587,10380,0.546
HVRBrain,1.025,14520.172,28.993,10400,nan
HVRBrain,1.024,14551.784,28.934,10380,-0.391
HVRBrain,1.041,14582.876,28.887,10400,nan
HVRBrain,1.031,14613.938,28.784,10380,-3.669
HVRBrain,1.026,14645.013,28.973,10380,-0.366
HVRBrain,1.026,14676.094,28.592,10400,nan
HVRBrain,1.020,14707.140,28.890,10380,0.151
HVRBrain,1.046,14738.825,28.957,10400,nan
HVRBrain,1.012,14769.849,28.822,10380,0.296
HVRBrain,1.017,14800.953,28.960,10400,nan
HVRBrain,1.027,14832.070,28.845,10380,0.077
HVRBrain,1.056,14863.139,28.694,10400,nan
HVRBrain,1.036,14894.771,29.284,10380,-22.201
HVRBrain,1.025,14925.822,28.481,10400,nan
HVRBrain,1.086,14956.941,28.781,10380,0.384
HVRBrain,1.039,14988.035,28.990,10400,nan
HVRBrain,1.038,15019.061,28.468,10380,-0.366
HVRBrain,1.025,15050.121,28.845,10400,nan
HVRBrain,1.014,15081.761,29.191,10380,0.291
HVRBrain,1.035,15112.862,28.675,10400,nan
HVRBrain,1.035,15143.937,28.786,10380,-0.100
HVRBrain,1.008,15174.991,28.985,10400,nan
HVRBrain,1.039,15206.073,28.537,10380,-0.397
HVRBrain,1.030,15237.189,29.036,10400,nan
HVRBrain,1.013,15268.782,28.977,10380,-0.015
HVRBrain,1.019,15299.877,28.845,10400,nan
HVRBrain,1.024,15330.948,28.795,10380,0.222
HVRBrain,1.023,15362.003,28.978,10400,nan
HVRBrain,1.029,15393.096,28.556,10380,-0.228
HVRBrain,1.016,15424.188,29.001,10380,-0.506
HVRBrain,1.039,15455.841,28.868,10400,nan
HVRBrain,1.016,15486.883,28.896,10380,0.256
HVRBrain,1.011,15517.955,28.888,10400,nan
HVRBrain,1.019,15549.056,28.898,10380,-13.293
HVRBrain,1.016,15580.115,28.650,10400,nan
HVRBrain,1.016,15611.755,29.263,10380,-3.759
HVRBrain,1.035,15642.857,28.453,10400,nan
HVRBrain,1.045,15673.909,28.755,10380,-2.500
HVRBrain,1.048,15705.042,29.034,10400,nan
HVRBrain,1.041,15736.099,28.691,10380,0.270
HVRBrain,1.034,15767.160,28.794,10400,nan
HVRBrain,1.038,15798.795,29.199,10380,-0.117
HVRBrain,1.026,15829.868,28.601,10400,nan
HVRBrain,1.053,15860.972,28.808,10380,0.844
HVRBrain,1.039,15892.018,28.928,10400,nan
HVRBrain,1.055,15923.110,28.571,10380,-0.093
HVRBrain,1.031,15954.170,28.932,10400,nan
HVRBrain,1.003,15985.780,29.080,10380,0.284
HVRBrain,1.037,16016.907,28.799,10400,nan
HVRBrain,1.066,16047.992,28.771,10380,0.420
HVRBrain,1.031,16079.048,28.965,10400,nan
HVRBrain,1.031,16110.087,28.510,10380,-2.486
HVRBrain,1.037,16141.776,29.601,10400,nan
HVRBrain,1.027,16172.835,28.350,10380,-1.134
HVRBrain,1.054,16203.920,28.780,10380,0.260
HVRBrain,1.061,16235.004,28.777,10400,nan
HVRBrain,1.055,16266.075,28.911,10380,-0.185
HVRBrain,1.053,16297.177,28.600,10400,nan
HVRBrain,1.076,16328.827,29.415,10380,-0.050
HVRBrain,1.044,16359.867,28.360,10400,nan
HVRBrain,1.036,16390.935,28.829,10380,-0.874
HVRBrain,1.039,16422.037,28.977,10400,nan
HVRBrain,1.034,16453.108,28.785,10380,-0.078
HVRBrain,1.034,16484.165,28.709,10400,nan
HVRBrain,1.047,16515.815,29.294,10380,-0.208
HVRBrain,1.049,16546.901,28.512,10400,nan
HVRBrain,1.064,16577.960,28.738,10380,0.187
HVRBrain,1.041,16609.073,29.021,10400,nan
HVRBrain,1.032,16640.133,28.620,10380,-14.101
HVRBrain,1.048,16671.778,29.454,10400,nan
HVRBrain,1.043,16702.842,28.565,10380,0.360
HVRBrain,1.050,16733.932,28.686,10400,nan
HVRBrain,1.053,16765.010,28.794,10380,-0.681
HVRBrain,1.039,16796.058,28.950,10400,nan
HVRBrain,1.049,16827.151,28.240,10380,-0.893
HVRBrain,1.028,16858.778,29.539,10400,nan
HVRBrain,1.019,16889.832,28.414,10380,0.129
HVRBrain,1.055,16920.957,28.866,10400,nan
HVRBrain,1.048,16952.020,28.773,10380,0.223
HVRBrain,1.031,16983.084,28.980,10400,nan
HVRBrain,1.034,17014.138,28.526,10380,-0.797
HVRBrain,1.032,17045.785,29.516,10380,-0.187
HVRBrain,1.014,17076.855,28.327,10400,nan
HVRBrain,1.041,17107.966,28.914,10380,-0.012
HVRBrain,1.054,17139.018,28.834,10400,nan
HVRBrain,1.054,17170.123,28.860,10380,-0.955
HVRBrain,1.034,17201.203,28.669,10400,nan
HVRBrain,1.039,17232.815,29.314,10380,-0.145
HVRBrain,1.031,17263.894,28.478,10400,nan
HVRBrain,1.065,17294.989,28.790,10380,-0.593
HVRBrain,1.042,17326.044,28.963,10400,nan
HVRBrain,1.053,17357.165,28.727,10380,-1.410
HVRBrain,1.034,17388.771,29.367,10400,nan
HVRBrain,1.030,17419.834,28.507,10380,-4.647
HVRBrain,1.015,17450.909,28.634,10400,nan
HVRBrain,1.055,17481.982,28.767,10380,0.344
HVRBrain,1.039,17513.081,28.995,10400,nan
HVRBrain,1.028,17544.168,28.549,10380,-0.161
HVRBrain,1.029,17575.788,29.538,10400,nan
HVRBrain,1.043,17606.860,28.485,10380,-8.364
HVRBrain,1.046,17637.956,28.780,10400,nan
HVRBrain,1.059,17669.058,28.811,10380,0.433
HVRBrain,1.033,17700.126,28.987,10400,nan
HVRBrain,1.031,17731.120,28.479,10380,-7.021
HVRBrain,1.042,17762.831,29.610,10400,nan
HVRBrain,1.032,17793.864,28.299,10380,0.236
HVRBrain,1.035,17824.957,28.921,10380,-1.144
HVRBrain,1.051,17856.074,28.841,10400,nan
HVRBrain,1.061,17887.146,28.886,10380,0.433
HVRBrain,1.038,17918.771,29.151,10400,nan
HVRBrain,1.045,17949.826,28.829,10380,-1.074
HVRBrain,1.039,17980.907,28.398,10400,nan
HVRBrain,1.008,18011.969,28.718,10380,-0.503
HVRBrain,1.058,18043.077,28.968,10400,nan
HVRBrain,1.015,18074.120,28.739,10380,0.702
HVRBrain,1.006,18105.746,29.340,10400,nan
HVRBrain,1.018,18136.839,28.739,10380,0.528
HVRBrain,1.022,18167.947,28.594,10400,nan
HVRBrain,0.994,18198.951,28.775,10380,-0.064
HVRBrain,1.004,18230.039,29.012,10400,nan
HVRBrain,0.993,18261.146,28.690,10380,0.457
HVRBrain,1.015,18292.784,29.503,10400,nan
HVRBrain,1.026,18323.870,28.574,10380,0.504
HVRBrain,1.031,18354.944,28.711,10400,nan
HVRBrain,1.049,18386.006,28.785,10380,0.715
HVRBrain,1.010,18417.138,29.052,10400,nan
HVRBrain,1.027,18448.164,28.509,10380,0.516
HVRBrain,1.048,18479.846,29.578,10400,nan
HVRBrain,1.023,18510.884,28.394,10380,-0.346
HVRBrain,1.022,18541.958,28.879,10400,nan
HVRBrain,1.062,18573.079,28.831,10380,1.006
HVRBrain,1.066,18604.152,28.830,10380,0.316
HVRBrain,1.033,18635.774,29.078,10400,nan
HVRBrain,1.039,18666.834,28.921,10380,0.355
HVRBrain,1.048,18697.914,28.338,10400,nan
HVRBrain,1.077,18729.052,28.895,10380,0.891
HVRBrain,1.065,18760.083,28.839,10400,nan
HVRBrain,1.070,18791.152,28.792,10380,0.668
HVRBrain,1.045,18822.799,29.235,10400,nan
HVRBrain,1.060,18853.875,28.765,10380,0.520
HVRBrain,1.054,18884.973,28.486,10400,nan
HVRBrain,1.034,18916.007,28.780,10380,0.596
HVRBrain,1.039,18947.089,28.976,10400,nan
HVRBrain,1.031,18978.162,28.674,10380,0.666
HVRBrain,1.025,19009.795,29.423,10400,nan
HVRBrain,1.022,19040.883,28.664,10380,0.423
HVRBrain,1.008,19071.949,28.656,10400,nan
HVRBrain,1.001,19103.003,28.834,10380,-0.175
HVRBrain,1.014,19134.097,29.009,10400,nan
HVRBrain,1.013,19165.734,29.153,10380,0.758
HVRBrain,1.028,19196.837,29.016,10400,nan
HVRBrain,1.036,19227.913,28.348,10380,0.089
HVRBrain,1.009,19258.956,28.770,10400,nan
HVRBrain,1.033,19290.041,28.803,10380,0.328
HVRBrain,1.002,19321.135,29.036,10400,nan
HVRBrain,0.994,19352.738,29.132,10380,0.290
HVRBrain,0.999,19383.817,29.010,10400,nan
HVRBrain,0.994,19414.887,28.362,10380,0.243
HVRBrain,0.998,19445.960,28.962,10380,-0.567
HVRBrain,0.994,19477.053,28.909,10400,nan
HVRBrain,1.032,19508.161,28.925,10380,0.712
HVRBrain,0.998,19539.761,29.181,10400,nan
HVRBrain,1.008,19570.836,28.863,10380,-0.088
HVRBrain,1.010,19601.926,28.460,10400,nan
HVRBrain,1.008,19633.020,28.851,10380,0.171
HVRBrain,1.012,19664.125,29.040,10400,nan
HVRBrain,1.029,19695.224,28.770,10380,-0.181
HVRBrain,1.033,19726.822,29.298,10400,nan
HVRBrain,1.026,19757.878,28.693,10380,0.409
HVRBrain,1.015,19788.953,28.589,10400,nan
HVRBrain,1.026,19820.038,28.647,10380,0.222
HVRBrain,1.021,19851.125,28.994,10400,nan
HVRBrain,1.007,19882.744,29.164,10380,0.018
HVRBrain,1.023,19913.843,28.986,10400,nan
HVRBrain,1.016,19944.908,28.563,10380,0.519
HVRBrain,1.035,19976.016,28.772,10400,nan
HVRBrain,1.031,20007.069,28.812,10380,0.527
HVRBrain,1.029,20038.143,29.004,10400,nan
HVRBrain,1.006,20069.763,29.137,10380,0.553
HVRBrain,1.032,20100.873,29.011,10400,nan
HVRBrain,1.009,20131.916,28.367,10380,0.653
HVRBrain,1.001,20162.982,28.904,10400,nan
HVRBrain,1.028,20194.102,28.844,10380,0.627
HVRBrain,1.013,20225.173,28.989,10380,1.174
HVRBrain,1.000,20256.769,29.139,10400,nan
HVRBrain,1.006,20287.854,28.956,10380,0.671
HVRBrain,1.039,20318.968,28.383,10400,nan
HVRBrain,1.005,20350.016,28.870,10380,0.787
HVRBrain,1.028,20381.122,28.974,10400,nan
HVRBrain,1.046,20412.205,28.670,10380,0.790
HVRBrain,1.073,20443.862,29.249,10400,nan
HVRBrain,1.039,20474.898,28.713,10380,0.684
HVRBrain,1.019,20505.965,28.523,10400,nan
HVRBrain,1.035,20537.041,28.812,10380,0.615
HVRBrain,1.049,20568.165,29.026,10400,nan
HVRBrain,1.023,20599.767,29.191,10380,0.341
HVRBrain,1.031,20630.870,28.902,10400,nan
HVRBrain,1.039,20661.919,28.611,10380,0.447
HVRBrain,1.021,20693.005,28.672,10400,nan
HVRBrain,1.004,20724.043,28.811,10380,0.208
HVRBrain,1.030,20755.178,29.029,10400,nan
HVRBrain,1.026,20786.791,29.087,10380,-0.012
HVRBrain,0.998,20817.858,29.011,10400,nan
HVRBrain,0.989,20848.915,28.500,10380,0.364
HVRBrain,0.996,20880.007,28.867,10400,nan
HVRBrain,0.991,20911.057,28.839,10380,0.206
HVRBrain,0.986,20942.717,29.617,10400,nan
HVRBrain,0.997,20973.776,28.562,10380,-0.146
HVRBrain,1.013,21004.864,28.877,10380,0.648
HVRBrain,1.016,21035.976,28.357,10400,nan
HVRBrain,0.997,21067.010,28.909,10380,-7.331
HVRBrain,1.008,21098.111,28.907,10400,nan
HVRBrain,0.988,21129.716,29.471,10380,0.276
HVRBrain,1.018,21160.825,28.716,10400,nan
HVRBrain,1.012,21191.896,28.854,10380,0.609
HVRBrain,1.014,21222.972,28.476,10400,nan
HVRBrain,0.998,21254.026,28.835,10380,-2.753
HVRBrain,1.002,21285.122,29.049,10400,nan
HVRBrain,0.997,21316.750,29.321,10380,0.405
HVRBrain,1.013,21347.852,28.858,10400,nan
HVRBrain,1.015,21378.904,28.684,10380,0.739
HVRBrain,1.032,21410.023,28.656,10400,nan
HVRBrain,1.005,21441.084,28.832,10380,0.685
HVRBrain,1.012,21472.144,29.004,10400,nan
HVRBrain,1.007,21503.781,29.187,10380,0.846
HVRBrain,0.998,21534.856,29.050,10400,nan
HVRBrain,1.018,21565.941,28.561,10380,0.447
HVRBrain,1.029,21597.069,28.799,10400,nan
HVRBrain,0.999,21628.058,28.635,10380,1.124
HVRBrain,1.024,21659.763,29.604,10400,nan
HVRBrain,1.039,21690.822,28.584,10380,0.559
HVRBrain,1.030,21721.919,29.007,10400,nan
HVRBrain,1.041,21753.026,28.398,10380,0.586
HVRBrain,1.029,21784.067,28.883,10400,nan
HVRBrain,1.035,21815.155,28.808,10380,0.189
HVRBrain,1.045,21846.785,29.491,10380,0.668
HVRBrain,1.050,21877.871,28.543,10400,nan
HVRBrain,1.059,21908.962,28.870,10380,-0.010
HVRBrain,1.053,21940.009,28.325,10400,nan
HVRBrain,1.030,21971.059,28.826,10380,1.668
HVRBrain,1.062,22002.209,29.005,10400,nan
HVRBrain,1.080,22033.837,29.322,10380,0.760
HVRBrain,1.041,22064.891,28.720,10400,nan
HVRBrain,1.050,22095.983,28.739,10380,-1.494
HVRBrain,1.054,22127.046,28.499,10400,nan
HVRBrain,1.062,22158.143,28.804,10380,0.890
HVRBrain,1.052,22189.776,29.530,10400,nan
HVRBrain,1.064,22220.852,28.503,10380,0.591
HVRBrain,1.055,22251.918,28.865,10400,nan
HVRBrain,1.050,22282.974,28.536,10380,-0.314
HVRBrain,1.083,22314.105,28.694,10400,nan
HVRBrain,1.045,22345.145,28.781,10380,0.075
HVRBrain,1.027,22376.771,29.551,10400,nan
HVRBrain,1.037,22407.843,28.549,10380,0.522
HVRBrain,1.042,22438.936,29.001,10400,nan
HVRBrain,1.051,22470.015,28.436,10380,-1.323
HVRBrain,1.037,22501.090,28.835,10400,nan
HVRBrain,1.033,22532.157,28.827,10380,-1.835
HVRBrain,1.027,22563.792,29.555,10400,nan
HVRBrain,1.037,22594.859,28.565,10380,1.315
HVRBrain,1.040,22625.924,28.948,10380,0.615
HVRBrain,1.026,22657.036,28.359,10400,nan
HVRBrain,1.023,22688.104,28.931,10380,1.063
HVRBrain,1.044,22719.188,28.881,10400,nan
HVRBrain,1.032,22750.802,29.415,10380,0.988
HVRBrain,1.021,22781.869,28.677,10400,nan
HVRBrain,1.029,22812.984,28.740,10380,1.569
HVRBrain,1.035,22844.041,28.442,10400,nan
HVRBrain,1.030,22875.088,28.789,10380,0.014
HVRBrain,1.035,22906.771,29.588,10400,nan
HVRBrain,1.029,22937.826,28.693,10380,0.968
HVRBrain,1.049,22968.927,28.850,10400,nan
HVRBrain,1.027,22999.991,28.659,10380,-1.298
HVRBrain,1.044,23031.083,28.630,10400,nan
HVRBrain,1.045,23062.160,28.812,10380,1.446
HVRBrain,1.038,23093.788,29.536,10400,nan
HVRBrain,1.044,23124.867,28.564,10380,0.744
HVRBrain,1.059,23155.980,28.992,10400,nan
HVRBrain,1.028,23187.002,28.445,10380,0.150
HVRBrain,1.011,23218.076,28.806,10400,nan
HVRBrain,1.008,23249.152,28.851,10380,0.773
HVRBrain,0.998,23280.773,29.563,10400,nan
HVRBrain,1.003,23311.861,28.607,10380,0.053
HVRBrain,1.009,23342.939,29.009,10400,nan
HVRBrain,1.018,23374.028,28.386,10380,1.237
HVRBrain,1.005,23405.089,28.830,10380,0.829
HVRBrain,1.008,23436.145,28.827,10400,nan
HVRBrain,1.025,23467.805,29.518,10380,1.114
HVRBrain,1.029,23498.888,28.617,10400,nan
HVRBrain,1.031,23529.967,28.892,10380,0.787
HVRBrain,1.004,23561.048,28.446,10400,nan
HVRBrain,1.000,23592.121,28.860,10380,0.678
HVRBrain,1.022,23623.763,29.564,10400,nan
HVRBrain,1.036,23654.840,28.794,10380,1.702
HVRBrain,1.035,23685.932,28.779,10400,nan
HVRBrain,1.032,23717.007,28.745,10380,0.958
HVRBrain,1.046,23748.085,28.545,10400,nan
HVRBrain,1.024,23779.121,28.781,10380,0.705
HVRBrain,1.036,23810.793,29.586,10400,nan
HVRBrain,1.104,23841.927,28.757,10380,0.854
HVRBrain,1.057,23872.983,28.905,10400,nan
HVRBrain,1.027,23904.033,28.578,10380,0.759
HVRBrain,1.034,23935.088,28.692,10400,nan
HVRBrain,1.009,23966.139,28.819,10380,0.688
HVRBrain,1.098,23997.874,29.606,10400,nan
HVRBrain,1.043,24028.871,28.538,10380,-1.054
HVRBrain,1.020,24059.922,29.131,10400,nan
HVRBrain,1.024,24090.988,28.680,10380,-0.958
HVRBrain,1.045,24122.043,29.022,10400,nan
HVRBrain,1.069,24153.796,29.666,10380,-0.400
HVRBrain,1.052,24184.854,29.112,10400,nan
HVRBrain,1.050,24215.902,28.774,10380,-1.979
HVRBrain,1.077,24246.975,29.117,10380,-0.628
HVRBrain,1.061,24278.120,28.500,10400,nan
HVRBrain,1.045,24309.136,28.847,10380,-1.431
HVRBrain,1.044,24340.794,29.466,10400,nan
HVRBrain,1.016,24371.822,28.812,10380,0.047
HVRBrain,0.999,24402.898,28.755,10400,nan
HVRBrain,1.012,24433.978,28.808,10380,-0.931
HVRBrain,1.046,24465.103,28.537,10400,nan
HVRBrain,1.019,24496.149,28.808,10380,-1.484
HVRBrain,1.031,24527.802,29.566,10400,nan
HVRBrain,1.044,24558.882,28.696,10380,-1.946
HVRBrain,1.033,24589.956,28.856,10400,nan
HVRBrain,1.026,24621.027,28.324,10380,-0.653
HVRBrain,0.999,24652.060,28.623,10400,nan
HVRBrain,1.011,24683.149,28.849,10380,-0.837
HVRBrain,1.022,24714.815,29.572,10400,nan
HVRBrain,1.034,24745.875,28.530,10380,1.258
HVRBrain,1.047,24777.008,29.026,10400,nan
HVRBrain,1.011,24808.049,28.481,10380,-0.456
HVRBrain,1.012,24839.149,28.849,10400,nan
HVRBrain,1.046,24870.785,29.385,10380,0.490
HVRBrain,1.033,24901.851,28.964,10400,nan
HVRBrain,1.064,24932.939,28.541,10380,0.609
HVRBrain,1.077,24964.042,28.954,10400,nan
HVRBrain,1.040,24995.072,28.266,10380,-3.581
HVRBrain,1.045,25026.141,28.919,10380,1.086
HVRBrain,1.062,25057.818,29.420,10400,nan
HVRBrain,1.040,25088.866,28.893,10380,0.040
HVRBrain,1.063,25119.991,28.657,10400,nan
HVRBrain,1.040,25151.049,28.834,10380,0.786
HVRBrain,1.051,25182.125,28.408,10400,nan
HVRBrain,1.054,25213.173,28.661,10380,-0.424
HVRBrain,1.047,25244.827,29.538,10400,nan
HVRBrain,1.061,25275.919,28.749,10380,-0.752
HVRBrain,1.059,25306.976,28.758,10400,nan
HVRBrain,1.049,25338.048,28.694,10380,0.961
HVRBrain,1.041,25369.160,28.629,10400,nan
HVRBrain,1.047,25400.778,29.374,10380,0.500
HVRBrain,1.033,25431.838,28.965,10400,nan
HVRBrain,1.038,25462.921,28.644,10380,-0.048
HVRBrain,1.058,25494.014,28.939,10400,nan
HVRBrain,1.026,25525.089,28.559,10380,-0.511
HVRBrain,1.046,25556.153,28.709,10400,nan
HVRBrain,1.062,25587.808,29.394,10380,0.422
HVRBrain,1.077,25618.894,28.951,10400,nan
HVRBrain,1.070,25649.968,28.517,10380,0.831
HVRBrain,1.081,25681.067,28.977,10400,nan
HVRBrain,1.081,25712.164,28.391,10380,0.437
HVRBrain,1.075,25743.220,28.826,10400,nan
HVRBrain,1.051,25774.815,29.354,10380,-0.392
HVRBrain,1.082,25805.912,28.832,10380,1.109
HVRBrain,1.062,25836.975,28.528,10400,nan
HVRBrain,1.094,25868.083,28.907,10380,1.119
HVRBrain,1.107,25899.163,28.286,10400,nan
HVRBrain,1.078,25930.259,28.847,10380,-0.687
HVRBrain,1.064,25961.859,29.448,10400,nan
HVRBrain,1.084,25992.946,28.792,10380,-1.417
HVRBrain,1.092,26024.023,28.684,10400,nan
HVRBrain,1.058,26055.070,28.726,10380,0.284
HVRBrain,1.063,26086.136,28.475,10400,nan
HVRBrain,1.073,26117.812,29.418,10380,1.388
HVRBrain,1.060,26148.880,28.936,10400,nan
HVRBrain,1.099,26179.992,28.641,10380,1.398
HVRBrain,1.082,26211.040,28.799,10400,nan
HVRBrain,1.091,26242.144,28.578,10380,0.973
HVRBrain,1.095,26273.240,28.656,10400,nan
HVRBrain,1.072,26304.826,29.309,10380,0.800
HVRBrain,1.065,26335.901,28.951,10400,nan
HVRBrain,1.047,26366.955,28.568,10380,-0.023
HVRBrain,1.034,26398.018,28.972,10400,nan
HVRBrain,1.042,26429.119,28.342,10380,2.174
HVRBrain,1.040,26460.180,28.798,10400,nan
HVRBrain,1.032,26491.807,29.378,10380,-1.859
HVRBrain,1.029,26522.871,28.986,10400,nan
HVRBrain,1.025,26553.969,28.612,10380,0.444
HVRBrain,1.036,26585.051,28.985,10400,nan
HVRBrain,1.022,26616.154,28.368,10380,-1.373
HVRBrain,1.037,26647.763,29.483,10380,0.794
HVRBrain,1.040,26678.834,28.863,10400,nan
HVRBrain,1.041,26709.918,28.913,10380,0.868
HVRBrain,1.039,26740.993,28.648,10400,nan
HVRBrain,1.043,26772.081,28.845,10380,1.036
HVRBrain,1.040,26803.137,28.416,10400,nan
HVRBrain,1.036,26834.776,29.384,10380,-1.047
HVRBrain,1.036,26865.862,28.982,10400,nan
HVRBrain,1.052,26896.940,28.719,10380,-0.493
HVRBrain,1.041,26928.011,28.797,10400,nan
HVRBrain,1.045,26959.106,28.721,10380,-0.918
HVRBrain,1.036,26990.163,28.598,10400,nan
HVRBrain,1.037,27021.801,29.268,10380,0.073
HVRBrain,1.053,27052.897,28.970,10400,nan
HVRBrain,1.031,27083.944,28.622,10380,-1.034
HVRBrain,1.057,27115.045,28.959,10400,nan
HVRBrain,1.066,27146.187,28.569,10380,1.205
HVRBrain,1.032,27177.761,29.267,10400,nan
HVRBrain,1.042,27208.833,28.839,10380,-3.436
HVRBrain,1.030,27239.903,28.993,10400,nan
HVRBrain,1.060,27270.998,28.561,10380,-0.961
HVRBrain,1.053,27302.100,28.991,10400,nan
HVRBrain,1.050,27333.166,28.377,10380,1.903
HVRBrain,1.043,27364.796,29.451,10400,nan
HVRBrain,1.037,27395.840,28.809,10380,0.663
HVRBrain,1.087,27426.957,28.948,10380,-1.780
HVRBrain,1.056,27458.021,28.582,10400,nan
HVRBrain,1.025,27489.086,28.929,10380,-0.704
HVRBrain,1.026,27520.163,28.398,10400,nan
HVRBrain,1.001,27551.758,29.412,10380,1.218
HVRBrain,1.008,27582.833,28.989,10400,nan
HVRBrain,1.004,27613.916,28.745,10380,1.209
HVRBrain,0.998,27644.991,28.777,10400,nan
HVRBrain,1.025,27676.104,28.814,10380,1.176
HVRBrain,1.019,27707.178,28.552,10400,nan
HVRBrain,1.016,27738.788,29.401,10380,1.802
HVRBrain,1.044,27769.882,28.997,10400,nan
HVRBrain,1.020,27800.967,28.689,10380,-0.964
HVRBrain,1.025,27832.030,28.915,10400,nan
HVRBrain,1.000,27863.115,28.653,10380,1.255
HVRBrain,1.026,27894.764,29.288,10400,nan
HVRBrain,1.040,27925.839,28.843,10380,0.926
HVRBrain,1.040,27956.936,28.984,10400,nan
HVRBrain,1.061,27987.996,28.522,10380,-4.271
HVRBrain,1.062,28019.126,29.006,10400,nan
HVRBrain,1.059,28050.214,28.448,10380,1.210
HVRBrain,1.026,28081.784,29.362,10400,nan
HVRBrain,1.063,28112.891,28.848,10380,-9.142
HVRBrain,1.062,28143.961,28.959,10400,nan
HVRBrain,1.060,28175.036,28.558,10380,2.087
HVRBrain,1.017,28206.064,28.845,10380,0.941
HVRBrain,1.002,28237.129,28.346,10400,nan
HVRBrain,1.043,28268.809,29.529,10380,1.471
HVRBrain,1.037,28299.888,28.893,10400,nan
HVRBrain,1.031,28330.930,28.848,10380,-9.171
HVRBrain,1.036,28362.056,28.759,10400,nan
HVRBrain,1.023,28393.109,28.824,10380,0.194
HVRBrain,1.006,28424.736,29.068,10400,nan
HVRBrain,1.026,28455.805,28.841,10380,-8.490
HVRBrain,1.039,28486.911,29.007,10400,nan
HVRBrain,1.048,28518.004,28.746,10380,0.088
HVRBrain,1.032,28549.056,28.803,10400,nan
HVRBrain,1.068,28580.172,28.683,10380,1.160
HVRBrain,1.049,28611.795,29.162,10400,nan
HVRBrain,1.049,28642.853,28.811,10380,1.180
HVRBrain,1.033,28673.930,28.997,10400,nan
HVRBrain,1.040,28705.026,28.593,10380,1.012
HVRBrain,1.026,28736.083,28.977,10400,nan
HVRBrain,1.008,28767.118,28.520,10380,1.148
HVRBrain,1.007,28798.772,29.389,10400,nan
HVRBrain,1.024,28829.857,28.714,10380,0.868
HVRBrain,1.049,28860.976,29.012,10400,nan
HVRBrain,1.053,28892.021,28.534,10380,1.469
HVRBrain,1.025,28923.090,28.978,10400,nan
HVRBrain,1.040,28954.208,28.425,10380,1.459
HVRBrain,1.022,28985.816,29.486,10400,nan
HVRBrain,1.035,29016.893,28.852,10380,-1.324
HVRBrain,1.027,29047.961,28.957,10380,2.409
HVRBrain,1.039,29079.062,28.635,10400,nan
HVRBrain,1.037,29110.137,28.909,10380,2.372
HVRBrain,1.031,29141.772,28.964,10400,nan
HVRBrain,1.028,29172.824,28.833,10380,2.009
HVRBrain,1.035,29203.893,28.962,10400,nan
HVRBrain,1.033,29235.006,28.835,10380,0.987
HVRBrain,1.029,29266.093,28.790,10400,nan
HVRBrain,1.035,29297.167,28.729,10380,2.848
HVRBrain,1.030,29328.784,29.093,10400,nan
HVRBrain,1.027,29359.856,28.846,10380,2.124
HVRBrain,1.011,29390.902,28.976,10400,nan
HVRBrain,1.024,29422.019,28.554,10380,2.315
HVRBrain,1.030,29453.084,28.915,10400,nan
HVRBrain,1.013,29484.160,28.609,10380,2.627
HVRBrain,1.021,29515.798,29.284,10400,nan
HVRBrain,1.004,29546.839,28.858,10380,2.227
HVRBrain,1.042,29577.979,29.045,10400,nan
HVRBrain,1.031,29609.027,28.565,10380,2.112
HVRBrain,1.049,29640.122,28.990,10400,nan
HVRBrain,1.022,29671.748,29.012,10380,2.778
HVRBrain,1.008,29702.812,28.888,10400,nan
HVRBrain,1.016,29733.887,28.870,10380,1.471
HVRBrain,1.025,29764.977,28.997,10400,nan
HVRBrain,1.048,29796.027,28.549,10380,1.653
HVRBrain,1.022,29827.105,28.979,10380,2.370
HVRBrain,1.009,29858.755,28.949,10400,nan
HVRBrain,1.015,29889.833,28.942,10380,1.517
HVRBrain,1.022,29920.922,28.936,10400,nan
HVRBrain,1.015,29951.985,28.863,10380,2.354
HVRBrain,1.026,29983.088,28.749,10400,nan
HVRBrain,1.028,30014.174,28.704,10380,1.410
HVRBrain,1.018,30045.784,29.051,10400,nan
HVRBrain,1.016,30076.844,28.846,10380,1.757
HVRBrain,1.036,30107.942,28.990,10400,nan
HVRBrain,1.005,30139.004,28.711,10380,-4.927
HVRBrain,1.010,30170.099,28.925,10400,nan
HVRBrain,0.994,30201.157,28.665,10380,2.255
HVRBrain,1.001,30232.787,29.252,10400,nan
HVRBrain,0.990,30263.840,28.878,10380,1.542
HVRBrain,0.994,30294.924,29.038,10400,nan
HVRBrain,0.997,30326.008,28.660,10380,-0.542
HVRBrain,0.995,30357.092,29.039,10400,nan
HVRBrain,1.001,30388.736,29.095,10380,2.414
HVRBrain,1.000,30419.800,28.814,10400,nan
HVRBrain,1.016,30450.886,28.886,10380,3.221
HVRBrain,1.023,30481.997,29.035,10400,nan
HVRBrain,1.026,30513.057,28.584,10380,2.451
HVRBrain,1.044,30544.160,28.998,10400,nan
HVRBrain,1.036,30575.791,28.903,10380,1.832
HVRBrain,0.996,30606.803,28.815,10380,2.528
HVRBrain,1.003,30637.928,28.925,10400,nan
HVRBrain,0.995,30668.988,28.957,10380,-0.904
HVRBrain,1.009,30700.051,28.651,10400,nan
HVRBrain,1.018,30731.159,28.916,10380,0.723
HVRBrain,1.002,30762.773,28.995,10400,nan
HVRBrain,0.999,30793.850,28.887,10380,1.101
HVRBrain,1.005,30824.945,29.017,10400,nan
HVRBrain,0.994,30855.983,28.782,10380,2.995
HVRBrain,1.006,30887.079,28.849,10400,nan
HVRBrain,1.003,30918.184,28.799,10380,2.840
HVRBrain,0.999,30949.802,29.157,10400,nan
HVRBrain,1.006,30980.871,28.875,10380,-0.981
HVRBrain,1.005,31011.936,29.000,10400,nan
HVRBrain,0.996,31043.026,28.677,10380,1.799
HVRBrain,1.004,31074.095,28.974,10400,nan
HVRBrain,0.983,31105.726,29.177,10380,0.986
HVRBrain,1.015,31136.835,28.807,10400,nan
HVRBrain,1.011,31167.881,28.858,10380,1.717
HVRBrain,1.007,31198.989,29.048,10400,nan
HVRBrain,1.018,31230.087,28.493,10380,3.275
HVRBrain,1.015,31261.137,28.976,10400,nan
HVRBrain,1.008,31292.774,29.012,10380,-0.483
HVRBrain,1.004,31323.842,28.923,10400,nan
HVRBrain,1.011,31354.932,28.908,10380,1.261
HVRBrain,1.005,31386.024,29.035,10400,nan
HVRBrain,0.991,31417.057,28.616,10380,0.398
HVRBrain,0.997,31448.153,29.002,10380,-1.909
HVRBrain,1.027,31479.804,28.959,10400,nan
HVRBrain,1.020,31510.874,28.934,10380,2.371
HVRBrain,1.002,31541.934,28.961,10400,nan
HVRBrain,1.030,31572.997,28.833,10380,-0.676
HVRBrain,1.010,31604.133,28.811,10400,nan
HVRBrain,1.017,31635.745,29.350,10380,2.202
HVRBrain,1.006,31666.825,28.549,10400,nan
HVRBrain,1.006,31697.883,28.875,10380,2.133
HVRBrain,0.997,31728.943,29.001,10400,nan
HVRBrain,0.992,31760.029,28.753,10380,2.814
HVRBrain,1.018,31791.151,28.938,10400,nan
HVRBrain,1.019,31822.770,29.082,10380,-1.828
HVRBrain,1.009,31853.842,28.701,10400,nan
HVRBrain,1.035,31884.924,28.861,10380,0.146
HVRBrain,1.011,31916.010,29.011,10400,nan
HVRBrain,1.011,31947.104,28.646,10380,0.383
HVRBrain,1.007,31978.156,28.991,10400,nan
HVRBrain,1.012,32009.791,29.098,10380,2.989
HVRBrain,1.019,32040.863,28.842,10400,nan
HVRBrain,1.003,32071.938,28.882,10380,1.978
HVRBrain,0.988,32102.977,28.983,10400,nan
HVRBrain,1.007,32134.074,28.667,10380,1.943
HVRBrain,1.001,32165.740,29.615,10400,nan
HVRBrain,1.011,32196.806,28.366,10380,2.328
HVRBrain,1.042,32227.915,29.001,10380,2.769
HVRBrain,1.024,32258.983,28.866,10400,nan
HVRBrain,1.018,32290.041,28.919,10380,0.493
HVRBrain,1.031,32321.165,28.728,10400,nan
HVRBrain,1.016,32352.755,29.400,10380,-7.213
HVRBrain,1.017,32383.831,28.489,10400,nan
HVRBrain,1.005,32414.891,28.730,10380,1.246
HVRBrain,0.999,32445.961,28.996,10400,nan
HVRBrain,1.016,32477.047,28.797,10380,-7.888
HVRBrain,1.007,32508.148,28.874,10400,nan
HVRBrain,1.014,32539.774,29.287,10380,1.849
HVRBrain,1.023,32570.869,28.659,10400,nan
HVRBrain,1.036,32601.932,28.859,10380,1.477
HVRBrain,1.035,32633.026,28.997,10400,nan
HVRBrain,1.033,32664.143,28.669,10380,-0.165
HVRBrain,1.037,32695.762,29.522,10400,nan
HVRBrain,1.031,32726.814,28.537,10380,-1.069
HVRBrain,1.013,32757.880,28.775,10400,nan
HVRBrain,1.019,32788.943,28.858,10380,-0.175
HVRBrain,1.032,32820.057,29.013,10400,nan
HVRBrain,1.035,32851.128,28.619,10380,0.904
HVRBrain,1.047,32882.794,29.560,10400,nan
HVRBrain,1.029,32913.831,28.365,10380,1.039
HVRBrain,1.006,32944.892,28.941,10400,nan
HVRBrain,1.028,32975.995,28.898,10380,2.255
HVRBrain,1.044,33007.058,28.827,10380,-0.669
HVRBrain,1.025,33038.139,28.625,10400,nan
HVRBrain,1.008,33069.753,29.488,10380,2.256
HVRBrain,1.019,33100.842,28.414,10400,nan
HVRBrain,1.033,33131.949,28.928,10380,1.209
HVRBrain,1.029,33163.035,28.983,10400,nan
HVRBrain,1.023,33194.100,28.847,10380,1.044
HVRBrain,1.007,33225.156,28.775,10400,nan
HVRBrain,1.006,33256.772,29.357,10380,-0.886
HVRBrain,0.988,33287.848,28.601,10400,nan
HVRBrain,1.002,33318.936,28.903,10380,-0.843
HVRBrain,1.013,33350.006,28.997,10400,nan
HVRBrain,1.030,33381.106,28.699,10380,-0.908
HVRBrain,1.006,33412.738,29.494,10400,nan
HVRBrain,0.993,33443.786,28.644,10380,1.246
HVRBrain,1.018,33474.898,28.751,10400,nan
HVRBrain,1.003,33505.965,28.899,10380,-2.634
HVRBrain,1.007,33537.040,29.002,10400,nan
HVRBrain,0.988,33568.117,28.649,10380,0.892
HVRBrain,1.011,33599.765,29.582,10400,nan
HVRBrain,1.063,33630.885,28.370,10380,-1.663
HVRBrain,1.044,33661.932,28.821,10400,nan
HVRBrain,1.045,33693.004,28.852,10380,1.026
HVRBrain,1.052,33724.117,28.997,10400,nan
HVRBrain,1.082,33755.203,28.597,10380,0.230
HVRBrain,1.047,33786.821,29.507,10400,nan
HVRBrain,1.082,33817.921,28.340,10380,-0.301
HVRBrain,1.076,33848.992,28.895,10380,-1.682
HVRBrain,1.046,33880.032,28.875,10400,nan
HVRBrain,1.029,33911.105,28.905,10380,-2.222
HVRBrain,1.048,33942.171,28.661,10400,nan
HVRBrain,1.041,33973.818,29.397,10380,-2.579
HVRBrain,1.023,34004.904,28.517,10400,nan
HVRBrain,1.039,34035.978,28.887,10380,-2.572
HVRBrain,1.028,34067.028,28.978,10400,nan
HVRBrain,1.049,34098.172,28.808,10380,-0.337
HVRBrain,1.021,34129.760,29.375,10400,nan
HVRBrain,1.036,34160.840,28.702,10380,0.052
HVRBrain,1.061,34191.931,28.620,10400,nan
HVRBrain,1.073,34223.013,28.695,10380,-4.583
HVRBrain,1.065,34254.110,28.959,10400,nan
HVRBrain,1.072,34285.182,28.583,10380,0.264
HVRBrain,1.076,34316.839,29.526,10400,nan
HVRBrain,1.073,34347.907,28.487,10380,-0.675
HVRBrain,1.089,34379.002,28.753,10400,nan
HVRBrain,1.078,34410.061,28.805,10380,-0.316
HVRBrain,1.074,34441.161,28.952,10400,nan
HVRBrain,1.071,34472.242,28.595,10380,-0.152
HVRBrain,1.081,34503.863,29.464,10400,nan
HVRBrain,1.045,34534.903,28.349,10380,0.906
HVRBrain,1.030,34565.962,28.926,10400,nan
HVRBrain,1.030,34597.007,28.852,10380,-0.279
HVRBrain,1.023,34628.125,29.030,10380,0.760
HVRBrain,1.021,34659.752,29.209,10400,nan
HVRBrain,0.994,34690.781,28.897,10380,2.308
HVRBrain,1.021,34721.889,28.464,10400,nan
HVRBrain,1.031,34752.979,28.907,10380,1.982
HVRBrain,1.030,34784.078,29.022,10400,nan
HVRBrain,1.039,34815.152,28.680,10380,2.598
HVRBrain,1.006,34846.755,29.334,10400,nan
HVRBrain,0.985,34877.796,28.771,10380,0.927
HVRBrain,1.016,34908.910,28.633,10400,nan
HVRBrain,1.011,34939.981,28.897,10380,0.740
HVRBrain,0.986,34971.047,29.012,10400,nan
HVRBrain,0.986,35002.152,28.733,10380,1.956
HVRBrain,0.991,35033.766,29.517,10400,nan
HVRBrain,1.024,35064.867,28.656,10380,0.369
HVRBrain,1.043,35095.975,28.749,10400,nan
HVRBrain,1.044,35127.001,28.820,10380,2.845
HVRBrain,1.037,35158.106,28.996,10400,nan
HVRBrain,1.017,35189.222,28.655,10380,3.950
HVRBrain,1.027,35220.820,29.519,10400,nan
HVRBrain,1.030,35251.903,28.462,10380,-3.104
HVRBrain,1.003,35282.956,28.886,10400,nan
HVRBrain,0.994,35313.994,28.870,10380,2.545
HVRBrain,0.991,35345.101,29.060,10400,nan
HVRBrain,1.003,35376.740,29.204,10380,3.244
HVRBrain,1.034,35407.830,28.873,10380,2.354
HVRBrain,0.987,35438.861,28.349,10400,nan
HVRBrain,1.004,35469.951,28.984,10380,3.149
HVRBrain,1.006,35501.058,28.985,10400,nan
HVRBrain,0.990,35532.124,28.919,10380,1.348
HVRBrain,1.004,35563.761,29.296,10400,nan
HVRBrain,1.002,35594.845,28.868,10380,3.271
HVRBrain,1.013,35625.922,28.531,10400,nan
HVRBrain,1.022,35657.017,28.912,10380,4.350
HVRBrain,1.007,35688.080,28.991,10400,nan
HVRBrain,1.006,35719.130,28.743,10380,3.896
HVRBrain,1.025,35750.810,29.476,10400,nan
HVRBrain,1.008,35781.842,28.648,10380,0.571
HVRBrain,1.018,35812.946,28.721,10400,nan
HVRBrain,1.002,35844.019,28.920,10380,1.500
HVRBrain,0.995,35875.100,29.024,10400,nan
HVRBrain,1.008,35906.739,29.221,10380,1.636
HVRBrain,1.020,35937.814,28.987,10400,nan
HVRBrain,1.015,35968.895,28.569,10380,3.245
HVRBrain,0.999,35999.954,28.846,10400,nan
HVRBrain,1.044,36031.061,28.770,10380,-4.298
HVRBrain,1.046,36062.146,28.986,10400,nan
HVRBrain,1.019,36093.765,29.163,10380,2.071
HVRBrain,1.047,36124.872,29.012,10400,nan
HVRBrain,1.024,36155.945,28.384,10380,0.566
HVRBrain,1.028,36187.020,28.966,10400,nan
HVRBrain,1.022,36218.079,28.878,10380,2.039
HVRBrain,1.052,36249.202,28.987,10380,2.256
HVRBrain,1.021,36280.788,29.187,10400,nan
HVRBrain,1.017,36311.870,28.933,10380,1.196
HVRBrain,1.030,36342.955,28.449,10400,nan
HVRBrain,1.037,36373.996,28.859,10380,-3.591
HVRBrain,1.036,36405.136,29.046,10400,nan
HVRBrain,1.023,36436.214,28.804,10380,3.234
HVRBrain,1.036,36467.827,29.338,10400,nan
HVRBrain,1.038,36498.891,28.728,10380,2.071
HVRBrain,1.042,36529.984,28.601,10400,nan
HVRBrain,1.035,36561.043,28.869,10380,4.606
HVRBrain,1.024,36592.135,29.029,10400,nan
HVRBrain,1.029,36623.769,29.065,10380,2.007
HVRBrain,1.040,36654.854,28.968,10400,nan
HVRBrain,1.041,36685.909,28.568,10380,3.899
HVRBrain,1.070,36717.044,28.776,10400,nan
HVRBrain,1.069,36748.084,28.823,10380,2.292
HVRBrain,1.094,36779.215,29.001,10400,nan
HVRBrain,1.082,36810.837,29.138,10380,4.199
HVRBrain,1.056,36841.898,28.936,10400,nan
HVRBrain,1.069,36872.984,28.413,10380,3.097
HVRBrain,1.043,36904.045,28.884,10400,nan
HVRBrain,1.078,36935.139,28.845,10380,2.793
HVRBrain,1.068,36966.216,28.948,10400,nan
HVRBrain,1.079,36997.856,29.133,10380,3.633
HVRBrain,1.071,37028.931,28.928,10380,2.795
HVRBrain,1.063,37059.985,28.175,10400,nan
HVRBrain,1.054,37091.055,28.889,10380,0.473
HVRBrain,1.070,37122.158,28.960,10400,nan
HVRBrain,1.036,37153.760,29.386,10380,2.587
HVRBrain,1.036,37184.836,28.745,10400,nan
HVRBrain,1.041,37215.913,28.681,10380,2.893
HVRBrain,1.013,37246.970,28.518,10400,nan
HVRBrain,1.053,37278.065,28.877,10380,3.998
HVRBrain,1.031,37309.136,28.978,10400,nan
HVRBrain,1.012,37340.759,29.284,10380,3.069
HVRBrain,1.030,37371.856,28.912,10400,nan
HVRBrain,1.041,37402.933,28.661,10380,-2.869
HVRBrain,1.021,37434.004,28.708,10400,nan
HVRBrain,1.042,37465.105,28.920,10380,1.903
HVRBrain,1.048,37496.177,28.967,10400,nan
HVRBrain,1.026,37527.790,29.180,10380,2.564
HVRBrain,1.046,37558.891,28.990,10400,nan
HVRBrain,1.048,37589.963,28.467,10380,3.442
HVRBrain,1.063,37621.073,28.833,10400,nan
HVRBrain,1.041,37652.125,28.859,10380,2.703
HVRBrain,1.036,37683.765,29.555,10400,nan
HVRBrain,1.050,37714.843,28.597,10380,3.043
HVRBrain,1.046,37745.920,28.990,10400,nan
HVRBrain,1.049,37777.009,28.387,10380,0.095
HVRBrain,1.047,37808.064,28.822,10380,1.770
HVRBrain,1.038,37839.127,28.856,10400,nan
HVRBrain,1.022,37870.756,29.497,10380,1.856
HVRBrain,1.036,37901.834,28.684,10400,nan
HVRBrain,1.075,37927.506,23.432,10380,2.684
HVRBrain,1.089,37943.202,13.061,10400,nan
HVRBrain,1.047,37958.667,13.257,10380,1.703
HVRBrain,1.048,37973.881,13.109,10400,nan
HVRBrain,1.053,37989.382,13.181,10380,-4.450
HVRBrain,1.098,38004.699,13.009,10400,nan
HVRBrain,1.077,38019.733,12.648,10380,2.812
HVRBrain,1.068,38034.951,12.731,10400,nan
HVRBrain,1.094,38050.025,12.821,10380,3.267
HVRBrain,1.074,38064.880,12.728,10400,nan
HVRBrain,1.069,38080.089,12.732,10380,3.352
HVRBrain,1.085,38094.959,12.724,10400,nan
HVRBrain,1.054,38110.262,12.782,10380,-3.906
HVRBrain,1.089,38125.642,13.007,10400,nan
HVRBrain,1.088,38140.631,12.747,10380,2.136
HVRBrain,1.005,38155.590,12.758,10400,nan
HVRBrain,1.006,38170.823,12.811,10380,3.070
HVRBrain,1.043,38185.703,12.766,10400,nan
HVRBrain,1.056,38201.244,12.864,10380,-0.165
HVRBrain,1.058,38216.268,12.852,10400,nan
HVRBrain,1.087,38231.451,12.938,10380,-5.253
HVRBrain,1.056,38246.349,12.774,10400,nan
HVRBrain,1.078,38261.754,12.912,10380,4.038
HVRBrain,1.073,38276.610,12.693,10380,0.557
HVRBrain,1.046,38292.213,12.916,10400,nan
HVRBrain,1.031,38307.195,12.803,10380,3.069
HVRBrain,1.035,38324.165,14.853,10400,nan
HVRBrain,1.068,38355.833,29.416,10380,2.656
HVRBrain,1.054,38386.890,28.735,10400,nan
HVRBrain,1.018,38417.950,28.800,10380,4.180
HVRBrain,1.015,38449.012,28.581,10400,nan
HVRBrain,1.010,38480.089,28.920,10380,3.618
HVRBrain,1.006,38511.735,29.594,10400,nan
HVRBrain,1.023,38542.808,28.712,10380,4.110
HVRBrain,1.026,38573.893,28.934,10400,nan
HVRBrain,1.030,38604.984,28.541,10380,-1.408
HVRBrain,1.066,38636.088,28.685,10400,nan
HVRBrain,1.087,38667.173,28.853,10380,0.175
HVRBrain,1.031,38698.776,29.498,10400,nan
HVRBrain,1.014,38729.823,28.614,10380,2.882
HVRBrain,1.057,38760.942,29.005,10400,nan
HVRBrain,1.034,38792.017,28.505,10380,-0.740
HVRBrain,1.067,38823.124,28.795,10400,nan
HVRBrain,1.039,38854.177,28.861,10380,2.050
HVRBrain,1.019,38885.786,29.533,10400,nan
HVRBrain,1.051,38916.874,28.626,10380,2.040
HVRBrain,1.082,38948.001,28.983,10400,nan
HVRBrain,1.063,38979.047,28.309,10380,-0.241
HVRBrain,1.048,39010.117,28.945,10380,1.661
HVRBrain,1.046,39041.210,28.924,10400,nan
HVRBrain,1.009,39072.781,29.441,10380,1.050
HVRBrain,1.002,39103.854,28.721,10400,nan
HVRBrain,1.009,39134.958,28.928,10380,-3.427
HVRBrain,1.010,39166.020,28.524,10400,nan
HVRBrain,1.006,39197.097,28.811,10380,-0.276
HVRBrain,0.999,39228.738,29.578,10400,nan
HVRBrain,1.061,39259.852,28.784,10380,-0.060
HVRBrain,1.038,39290.901,28.808,10400,nan
HVRBrain,1.029,39321.993,28.747,10380,0.800
HVRBrain,1.015,39353.042,28.641,10400,nan
HVRBrain,1.004,39384.133,28.942,10380,2.038
HVRBrain,1.013,39415.762,29.552,10400,nan
HVRBrain,1.040,39446.865,28.659,10380,4.442
HVRBrain,1.028,39477.937,28.981,10400,nan
HVRBrain,1.018,39509.020,28.584,10380,1.709
HVRBrain,1.033,39540.106,28.839,10400,nan
HVRBrain,1.031,39571.160,28.885,10380,0.548
HVRBrain,1.037,39602.810,29.553,10400,nan
HVRBrain,1.046,39633.883,28.633,10380,1.192
HVRBrain,1.040,39664.962,28.966,10400,nan
HVRBrain,1.023,39696.027,28.413,10380,-0.501
HVRBrain,1.031,39727.109,28.950,10400,nan
HVRBrain,1.069,39758.793,29.489,10380,-4.510
HVRBrain,1.070,39789.845,28.789,10380,-0.977
HVRBrain,1.075,39820.940,28.618,10400,nan
HVRBrain,1.079,39852.025,28.883,10380,2.055
HVRBrain,1.084,39883.092,28.371,10400,nan
HVRBrain,1.041,39914.142,28.879,10380,-0.120
HVRBrain,1.036,39945.787,29.550,10400,nan
HVRBrain,1.042,39976.853,28.828,10380,0.625
HVRBrain,1.046,40007.929,28.783,10400,nan
HVRBrain,1.043,40039.015,28.795,10380,-7.695
HVRBrain,1.048,40070.116,28.587,10400,nan
HVRBrain,1.032,40101.136,28.849,10380,1.103
HVRBrain,1.051,40132.810,29.550,10400,nan
HVRBrain,1.026,40163.867,28.679,10380,0.033
HVRBrain,1.036,40194.945,28.945,10400,nan
HVRBrain,1.067,40226.067,28.635,10380,1.623
HVRBrain,1.079,40257.153,28.699,10400,nan
HVRBrain,1.078,40288.223,28.852,10380,4.300
HVRBrain,1.086,40319.875,29.521,10400,nan
HVRBrain,1.065,40350.930,28.594,10380,4.934
HVRBrain,1.056,40381.977,28.812,10400,nan
HVRBrain,1.068,40413.086,28.464,10380,2.355
HVRBrain,1.042,40444.164,28.890,10400,nan
HVRBrain,1.029,40475.765,29.435,10380,0.967
HVRBrain,1.016,40506.833,28.994,10400,nan
HVRBrain,1.045,40537.930,28.656,10380,3.651
HVRBrain,1.043,40568.998,28.966,10400,nan
HVRBrain,1.047,40600.073,28.382,10380,2.771
HVRBrain,1.084,40631.192,28.948,10380,4.938
HVRBrain,1.077,40662.830,29.472,10400,nan
HVRBrain,1.092,40693.906,28.855,10380,4.873
HVRBrain,1.086,40724.967,28.663,10400,nan
HVRBrain,1.081,40756.060,28.817,10380,-5.536
HVRBrain,1.050,40787.103,28.473,10400,nan
HVRBrain,1.063,40818.201,28.907,10380,-27.481
HVRBrain,1.031,40849.804,29.505,10400,nan
HVRBrain,1.058,40880.900,28.751,10380,-4.437
HVRBrain,1.076,40911.994,28.862,10400,nan
HVRBrain,1.069,40943.097,28.689,10380,2.674
HVRBrain,1.078,40974.147,28.595,10400,nan
HVRBrain,1.079,41005.225,28.734,10380,3.975
HVRBrain,1.055,41036.852,29.508,10400,nan
HVRBrain,1.026,41067.897,28.621,10380,-1.692
HVRBrain,1.046,41098.970,28.978,10400,nan
HVRBrain,1.042,41130.069,28.568,10380,4.463
HVRBrain,1.088,41161.188,28.815,10400,nan
HVRBrain,1.076,41192.817,29.414,10380,-2.771
HVRBrain,1.056,41223.871,28.951,10400,nan
HVRBrain,1.050,41254.950,28.625,10380,2.927
HVRBrain,1.065,41286.048,28.970,10400,nan
HVRBrain,1.089,41317.144,28.360,10380,1.525
HVRBrain,1.059,41348.177,28.896,10400,nan
HVRBrain,1.070,41379.831,29.437,10380,4.082
HVRBrain,1.046,41410.876,28.925,10380,2.321
HVRBrain,1.040,41441.969,28.684,10400,nan
HVRBrain,1.037,41473.006,28.877,10380,3.499
HVRBrain,1.038,41504.104,28.473,10400,nan
HVRBrain,1.047,41535.173,28.892,10380,4.622
HVRBrain,1.031,41566.813,29.553,10400,nan
HVRBrain,1.037,41597.900,28.695,10380,-5.219
HVRBrain,1.061,41628.999,28.806,10400,nan
HVRBrain,1.049,41660.065,28.736,10380,3.944
HVRBrain,1.043,41691.110,28.571,10400,nan
HVRBrain,1.032,41722.764,29.502,10380,-12.991
HVRBrain,1.029,41753.838,28.991,10400,nan
HVRBrain,1.040,41784.922,28.661,10380,-0.160
HVRBrain,1.029,41815.985,28.966,10400,nan
HVRBrain,1.041,41847.087,28.640,10380,2.612
HVRBrain,1.053,41878.167,28.740,10400,nan
HVRBrain,1.025,41909.773,29.468,10380,-4.348
HVRBrain,1.061,41940.903,28.988,10400,nan
HVRBrain,1.078,41971.975,28.590,10380,4.647
HVRBrain,1.066,42003.028,28.914,10400,nan
HVRBrain,1.047,42034.141,28.483,10380,1.675
HVRBrain,1.052,42065.200,28.889,10400,nan
HVRBrain,1.050,42096.823,29.452,10380,-0.740
HVRBrain,1.053,42127.919,28.976,10400,nan
HVRBrain,1.046,42158.953,28.583,10380,2.089
HVRBrain,1.052,42190.028,28.852,10380,4.531
HVRBrain,1.033,42221.094,28.378,10400,nan
HVRBrain,1.015,42252.153,28.930,10380,-0.013
HVRBrain,1.038,42283.828,29.553,10400,nan
HVRBrain,1.005,42314.878,28.883,10380,-0.763
HVRBrain,1.008,42345.968,28.802,10400,nan
HVRBrain,1.033,42377.079,28.860,10380,3.798
HVRBrain,1.026,42408.154,28.544,10400,nan
HVRBrain,1.030,42439.767,29.460,10380,3.296
HVRBrain,1.038,42470.849,28.993,10400,nan
HVRBrain,1.036,42501.941,28.756,10380,4.219
HVRBrain,1.041,42533.000,28.868,10400,nan
HVRBrain,1.047,42564.095,28.675,10380,4.603
HVRBrain,1.043,42595.162,28.674,10400,nan
HVRBrain,1.036,42626.793,29.468,10380,-2.132
HVRBrain,1.046,42657.902,29.010,10400,nan
HVRBrain,1.041,42688.959,28.639,10380,3.930
HVRBrain,1.059,42720.042,28.969,10400,nan
HVRBrain,1.069,42751.160,28.536,10380,1.953
HVRBrain,1.066,42782.791,29.236,10400,nan
HVRBrain,1.055,42813.836,28.863,10380,3.316
HVRBrain,1.053,42844.926,28.984,10400,nan
HVRBrain,1.084,42875.991,28.582,10380,4.453
HVRBrain,1.065,42907.123,28.997,10400,nan
HVRBrain,1.061,42938.194,28.374,10380,-3.152
HVRBrain,1.052,42969.798,29.504,10400,nan
HVRBrain,1.075,43000.881,28.878,10380,3.260
HVRBrain,1.094,43031.963,28.903,10380,0.670
HVRBrain,1.074,43063.032,28.631,10400,nan
HVRBrain,1.073,43094.131,28.872,10380,3.831
HVRBrain,1.075,43125.196,28.413,10400,nan
HVRBrain,1.057,43156.802,29.432,10380,0.952
HVRBrain,1.062,43187.881,28.947,10400,nan
HVRBrain,1.086,43219.003,28.788,10380,2.142
HVRBrain,1.077,43250.064,28.786,10400,nan
HVRBrain,1.085,43281.135,28.692,10380,1.580
HVRBrain,1.095,43312.255,28.619,10400,nan
HVRBrain,1.106,43343.876,29.389,10380,0.869
HVRBrain,1.077,43374.934,28.932,10400,nan
HVRBrain,1.080,43406.013,28.471,10380,4.607
HVRBrain,1.084,43437.093,28.944,10400,nan
HVRBrain,1.084,43468.165,28.541,10380,2.482
HVRBrain,1.069,43499.803,29.309,10400,nan
HVRBrain,1.051,43530.849,28.858,10380,-14.357
HVRBrain,1.071,43561.960,28.964,10400,nan
HVRBrain,1.053,43593.016,28.641,10380,1.966
HVRBrain,1.055,43624.091,28.960,10400,nan
HVRBrain,1.089,43655.215,28.452,10380,3.147
HVRBrain,1.079,43686.830,29.448,10400,nan
HVRBrain,1.050,43717.869,28.868,10380,-6.524
HVRBrain,1.083,43748.983,28.968,10400,nan
HVRBrain,1.072,43780.014,28.584,10380,-0.077
HVRBrain,1.038,43811.090,28.953,10380,5.205
HVRBrain,1.056,43842.168,28.399,10400,nan
HVRBrain,1.060,43873.816,29.461,10380,3.236
HVRBrain,1.059,43904.892,28.962,10400,nan
HVRBrain,1.060,43935.978,28.855,10380,-1.589
HVRBrain,1.074,43967.082,28.772,10400,nan
HVRBrain,1.068,43998.146,28.643,10380,3.250
HVRBrain,1.029,44029.184,28.535,10400,nan
HVRBrain,1.051,44060.827,29.465,10380,3.681
HVRBrain,1.101,44091.945,28.955,10400,nan
HVRBrain,1.069,44123.020,28.685,10380,3.086
HVRBrain,1.084,44154.110,28.891,10400,nan
HVRBrain,1.089,44185.219,28.645,10380,-0.230
HVRBrain,1.057,44216.798,29.200,10400,nan
HVRBrain,1.067,44247.866,28.879,10380,4.066
HVRBrain,1.070,44278.963,28.985,10400,nan
HVRBrain,1.066,44310.020,28.599,10380,4.963
HVRBrain,1.054,44341.096,28.949,10400,nan
HVRBrain,1.079,44372.207,28.480,10380,2.920
HVRBrain,1.077,44403.837,29.390,10400,nan
HVRBrain,1.046,44434.868,28.861,10380,2.793
HVRBrain,1.058,44465.976,29.003,10400,nan
HVRBrain,1.057,44497.025,28.608,10380,2.581
HVRBrain,1.065,44528.134,29.002,10400,nan
HVRBrain,1.073,44559.227,28.368,10380,5.128
HVRBrain,1.049,44590.806,29.351,10380,0.178
HVRBrain,1.060,44621.917,28.922,10400,nan
HVRBrain,1.057,44652.970,28.883,10380,6.176
HVRBrain,1.066,44684.061,28.683,10400,nan
HVRBrain,1.072,44715.185,28.904,10380,2.524
HVRBrain,1.060,44746.795,29.010,10400,nan
HVRBrain,1.062,44777.848,28.872,10380,3.578
HVRBrain,1.073,44808.955,28.975,10400,nan
HVRBrain,1.048,44839.980,28.730,10380,4.854
HVRBrain,1.045,44871.076,28.873,10400,nan
HVRBrain,1.057,44902.164,28.710,10380,2.197
HVRBrain,1.050,44933.799,29.184,10400,nan
HVRBrain,1.041,44964.860,28.895,10380,-0.378
HVRBrain,1.059,44995.933,28.950,10400,nan
HVRBrain,1.055,45027.030,28.642,10380,4.619
HVRBrain,1.059,45058.128,28.980,10400,nan
HVRBrain,1.060,45089.199,28.547,10380,2.399
HVRBrain,1.065,45120.839,29.341,10400,nan
HVRBrain,1.072,45151.892,28.849,10380,3.728
HVRBrain,1.041,45182.957,28.845,10400,nan
HVRBrain,1.029,45214.028,28.667,10380,3.235
HVRBrain,1.044,45245.124,28.985,10400,nan
HVRBrain,1.055,45276.201,28.402,10380,6.027
HVRBrain,1.053,45307.850,29.504,10400,nan
HVRBrain,1.046,45338.896,28.892,10380,3.579
HVRBrain,1.038,45369.994,28.994,10400,nan
HVRBrain,1.032,45401.036,28.635,10380,5.375
HVRBrain,1.013,45432.110,28.967,10380,6.377
HVRBrain,1.028,45463.776,29.064,10400,nan
HVRBrain,1.025,45494.825,28.908,10380,4.814
HVRBrain,1.068,45525.968,29.017,10400,nan
HVRBrain,1.036,45556.998,28.803,10380,-0.446
HVRBrain,1.034,45588.052,28.767,10400,nan
HVRBrain,1.053,45619.193,28.841,10380,4.227
HVRBrain,1.039,45650.799,29.104,10400,nan
HVRBrain,1.044,45681.877,28.921,10380,-8.395
HVRBrain,1.043,45712.963,28.992,10400,nan
HVRBrain,1.049,45744.028,28.683,10380,-4.945
HVRBrain,1.048,45775.112,28.953,10400,nan
HVRBrain,1.062,45806.226,28.508,10380,3.189
HVRBrain,1.051,45837.830,29.256,10400,nan
HVRBrain,1.033,45868.883,28.913,10380,-3.395
HVRBrain,1.048,45899.976,28.991,10400,nan
HVRBrain,1.053,45931.041,28.637,10380,0.929
HVRBrain,1.036,45962.155,29.012,10400,nan
HVRBrain,1.030,45993.759,29.024,10380,3.995
HVRBrain,1.042,46024.848,28.913,10400,nan
HVRBrain,1.036,46055.911,28.743,10380,5.492
HVRBrain,1.042,46086.988,28.986,10400,nan
HVRBrain,1.037,46118.068,28.668,10380,3.442
HVRBrain,1.045,46149.169,28.996,10400,nan
HVRBrain,1.044,46180.800,28.939,10380,6.012
HVRBrain,1.048,46211.852,28.922,10380,5.817
HVRBrain,1.042,46242.917,28.924,10400,nan
HVRBrain,1.047,46274.023,28.932,10380,6.017
HVRBrain,1.052,46305.121,28.755,10400,nan
HVRBrain,1.066,46336.221,28.859,10380,-1.284
HVRBrain,1.069,46367.836,29.039,10400,nan
HVRBrain,1.036,46398.868,28.752,10380,5.499
HVRBrain,1.030,46429.952,28.987,10400,nan
HVRBrain,1.044,46461.037,28.777,10380,5.042
HVRBrain,1.051,46492.110,28.870,10400,nan
HVRBrain,1.071,46523.224,28.720,10380,5.702
HVRBrain,1.037,46554.827,29.198,10400,nan
HVRBrain,1.075,46585.922,28.895,10380,5.268
HVRBrain,1.063,46617.005,28.971,10400,nan
HVRBrain,1.068,46648.104,28.660,10380,4.028
HVRBrain,1.055,46679.145,28.934,10400,nan
HVRBrain,1.049,46710.789,29.133,10380,5.169
HVRBrain,1.053,46741.855,28.810,10400,nan
HVRBrain,1.043,46772.941,28.926,10380,-8.134
HVRBrain,1.032,46803.998,28.964,10400,nan
HVRBrain,1.073,46835.073,28.626,10380,4.277
HVRBrain,1.065,46866.189,28.986,10400,nan
HVRBrain,1.068,46897.825,28.932,10380,-1.111
HVRBrain,1.063,46928.904,28.955,10400,nan
HVRBrain,1.054,46959.964,28.885,10380,-15.744
HVRBrain,1.068,46991.020,28.806,10380,4.657
HVRBrain,1.079,47022.129,28.646,10400,nan
HVRBrain,1.055,47053.207,28.918,10380,-10.437
HVRBrain,1.076,47084.850,28.992,10400,nan
HVRBrain,1.086,47115.925,28.900,10380,1.851
HVRBrain,1.088,47147.005,28.936,10400,nan
HVRBrain,1.056,47178.060,28.792,10380,-10.132
HVRBrain,1.063,47209.157,28.818,10400,nan
HVRBrain,1.061,47240.785,29.309,10380,1.270
HVRBrain,1.048,47271.851,28.609,10400,nan
HVRBrain,1.090,47302.963,28.919,10380,-7.542
HVRBrain,1.079,47334.011,28.908,10400,nan
HVRBrain,1.076,47365.116,28.658,10380,6.789
HVRBrain,1.062,47396.163,28.925,10400,nan
HVRBrain,1.044,47427.791,29.193,10380,3.209
HVRBrain,1.026,47458.853,28.758,10400,nan
HVRBrain,1.027,47489.904,28.921,10380,5.431
HVRBrain,1.025,47520.986,29.010,10400,nan
HVRBrain,1.045,47552.117,28.726,10380,1.162
HVRBrain,1.071,47583.211,28.845,10400,nan
HVRBrain,1.052,47614.815,29.010,10380,6.358
HVRBrain,1.059,47645.914,28.932,10400,nan
HVRBrain,1.074,47676.979,28.880,10380,6.264
HVRBrain,1.080,47708.089,28.964,10400,nan
HVRBrain,1.060,47739.122,28.628,10380,2.156
HVRBrain,1.037,47770.766,29.539,10400,nan
HVRBrain,1.038,47801.830,28.379,10380,-11.565
HVRBrain,1.044,47832.880,28.920,10380,4.627
HVRBrain,1.029,47863.974,28.989,10400,nan
HVRBrain,1.026,47895.049,28.899,10380,5.291
HVRBrain,1.035,47926.130,28.765,10400,nan
HVRBrain,1.026,47957.759,29.405,10380,3.703
HVRBrain,1.027,47988.829,28.559,10400,nan
HVRBrain,1.021,48019.902,28.943,10380,-11.292
HVRBrain,1.060,48051.041,29.020,10400,nan
HVRBrain,1.027,48082.064,28.717,10380,4.915
HVRBrain,1.028,48113.123,28.898,10400,nan
HVRBrain,1.037,48144.794,29.284,10380,4.308
HVRBrain,1.018,48175.852,28.709,10400,nan
HVRBrain,1.044,48206.943,28.812,10380,4.239
HVRBrain,1.030,48238.026,29.006,10400,nan
HVRBrain,1.042,48269.077,28.653,10380,3.734
HVRBrain,1.040,48300.174,29.006,10400,nan
HVRBrain,1.028,48331.800,29.114,10380,-6.502
HVRBrain,1.020,48362.879,28.882,10400,nan
HVRBrain,1.005,48393.927,28.940,10380,5.497
HVRBrain,1.019,48425.007,28.995,10400,nan
HVRBrain,1.015,48456.088,28.688,10380,4.336
HVRBrain,1.029,48487.766,29.598,10400,nan
HVRBrain,1.042,48518.835,28.414,10380,4.123
HVRBrain,1.044,48549.922,28.982,10400,nan
HVRBrain,1.023,48580.959,28.924,10380,-8.851
HVRBrain,1.015,48612.046,29.003,10380,-6.786
HVRBrain,1.028,48643.143,28.733,10400,nan
HVRBrain,1.022,48674.768,29.478,10380,3.851
HVRBrain,1.023,48705.852,28.490,10400,nan
HVRBrain,1.025,48736.904,28.908,10380,-6.208
HVRBrain,1.037,48767.984,28.990,10400,nan
HVRBrain,1.017,48799.082,28.736,10380,-11.583
HVRBrain,1.026,48830.169,28.869,10400,nan
HVRBrain,1.005,48861.770,29.305,10380,3.328
HVRBrain,1.002,48892.835,28.667,10400,nan
HVRBrain,1.016,48923.923,28.989,10380,4.678
HVRBrain,1.016,48955.027,29.036,10400,nan
HVRBrain,0.986,48986.056,28.688,10380,4.323
HVRBrain,1.009,49017.737,29.619,10400,nan
HVRBrain,1.026,49048.814,28.588,10380,-5.601
HVRBrain,1.014,49079.891,28.816,10400,nan
HVRBrain,0.989,49110.918,28.939,10380,4.288
HVRBrain,0.987,49141.985,29.037,10400,nan
HVRBrain,1.015,49173.093,28.740,10380,-10.749
HVRBrain,0.989,49204.735,29.588,10400,nan
HVRBrain,0.999,49235.811,28.510,10380,-4.649
HVRBrain,1.009,49266.905,29.000,10400,nan
HVRBrain,1.007,49297.970,28.948,10380,-13.463
HVRBrain,1.008,49329.042,29.005,10400,nan
HVRBrain,1.006,49360.109,28.703,10380,-7.269
HVRBrain,1.015,49391.760,29.458,10380,5.085
HVRBrain,1.020,49422.850,28.465,10400,nan
HVRBrain,1.046,49453.940,28.940,10380,4.568
HVRBrain,1.008,49484.980,28.979,10400,nan
HVRBrain,1.014,49516.084,28.938,10380,4.714
HVRBrain,0.996,49547.131,28.813,10400,nan
HVRBrain,1.010,49578.784,29.452,10380,2.227
HVRBrain,1.003,49609.864,28.599,10400,nan
HVRBrain,1.019,49640.930,28.947,10380,1.925
HVRBrain,1.025,49672.046,29.040,10400,nan
HVRBrain,1.002,49703.108,28.758,10380,-6.838
HVRBrain,0.997,49734.738,29.538,10400,nan
HVRBrain,1.016,49765.815,28.703,10380,5.411
HVRBrain,0.989,49796.868,28.748,10400,nan
HVRBrain,1.008,49827.936,28.967,10380,-8.301
HVRBrain,0.994,49859.024,29.039,10400,nan
HVRBrain,1.026,49890.122,28.712,10380,-3.396
HVRBrain,1.017,49921.773,29.574,10400,nan
HVRBrain,1.033,49952.841,28.508,10380,-4.683
HVRBrain,1.030,49983.937,28.783,10400,nan
HVRBrain,1.034,50015.007,28.941,10380,-2.152
HVRBrain,1.009,50046.078,29.000,10400,nan
HVRBrain,1.020,50077.158,28.682,10380,0.662
HVRBrain,1.029,50108.812,29.566,10400,nan
HVRBrain,0.998,50139.844,28.423,10380,-3.839
HVRBrain,1.017,50170.929,29.015,10400,nan
HVRBrain,1.020,50201.983,28.924,10380,-6.583
HVRBrain,1.051,50233.123,29.005,10380,-9.922
HVRBrain,1.029,50264.753,29.295,10400,nan
HVRBrain,1.052,50295.837,28.903,10380,5.929
HVRBrain,1.044,50326.904,28.503,10400,nan
HVRBrain,1.083,50358.004,28.928,10380,6.063
HVRBrain,1.056,50389.061,28.954,10400,nan
HVRBrain,1.027,50420.130,28.825,10380,3.950
HVRBrain,1.044,50451.791,29.444,10400,nan
HVRBrain,1.063,50482.873,28.724,10380,-13.567
HVRBrain,1.044,50513.918,28.618,10400,nan
HVRBrain,1.037,50544.986,28.935,10380,-7.219
HVRBrain,1.041,50576.081,28.988,10400,nan
HVRBrain,1.035,50607.165,28.414,10380,-5.655
HVRBrain,1.031,50638.792,29.552,10400,nan
HVRBrain,1.032,50669.871,28.611,10380,-7.800
HVRBrain,1.056,50700.960,28.806,10400,nan
HVRBrain,1.040,50732.034,28.932,10380,-5.138
HVRBrain,1.053,50763.094,28.951,10400,nan
HVRBrain,1.052,50794.209,28.699,10380,5.583
HVRBrain,1.047,50825.829,29.508,10400,nan
HVRBrain,1.035,50856.898,28.442,10380,6.350
HVRBrain,1.050,50887.991,28.982,10400,nan
HVRBrain,1.058,50919.069,28.927,10380,-1.534
HVRBrain,1.080,50950.168,28.964,10400,nan
HVRBrain,1.039,50981.772,29.214,10380,-3.454
HVRBrain,1.041,51012.828,28.941,10380,6.293
HVRBrain,1.054,51043.938,28.457,10400,nan
HVRBrain,1.029,51074.948,28.882,10380,7.039
HVRBrain,1.038,51106.066,29.024,10400,nan
HVRBrain,1.059,51137.199,28.897,10380,3.772
HVRBrain,1.060,51168.815,29.324,10400,nan
HVRBrain,1.055,51199.874,28.663,10380,-17.898
HVRBrain,1.023,51230.927,28.604,10400,nan
HVRBrain,1.064,51262.029,28.949,10380,-23.987
HVRBrain,1.049,51293.122,28.992,10400,nan
HVRBrain,1.053,51324.189,28.706,10380,4.884
HVRBrain,1.040,51355.810,29.489,10400,nan
HVRBrain,1.020,51386.873,28.654,10380,5.713
HVRBrain,1.040,51417.945,28.738,10400,nan
HVRBrain,1.053,51449.070,28.986,10380,3.746
HVRBrain,1.043,51480.121,28.956,10400,nan
HVRBrain,1.045,51511.199,28.689,10380,5.889
HVRBrain,1.054,51542.852,29.551,10400,nan
HVRBrain,1.062,51573.937,28.513,10380,-7.220
HVRBrain,1.052,51605.019,28.891,10400,nan
HVRBrain,1.063,51636.082,28.916,10380,-6.638
HVRBrain,1.067,51667.154,28.945,10400,nan
HVRBrain,1.054,51698.797,29.239,10380,7.012
HVRBrain,1.061,51729.882,28.978,10400,nan
HVRBrain,1.073,51760.961,28.401,10380,-2.007
HVRBrain,1.080,51792.027,28.775,10380,5.581
HVRBrain,1.083,51823.105,28.902,10400,nan
HVRBrain,1.050,51854.154,28.903,10380,6.034
HVRBrain,1.065,51885.825,29.320,10400,nan
HVRBrain,1.066,51916.898,28.848,10380,7.132
HVRBrain,1.056,51947.977,28.510,10400,nan
HVRBrain,1.037,51978.999,28.885,10380,6.545
HVRBrain,1.048,52010.122,29.018,10400,nan
HVRBrain,1.046,52041.212,28.777,10380,2.145
HVRBrain,1.043,52072.824,29.409,10400,nan
HVRBrain,1.065,52103.921,28.725,10380,6.488
HVRBrain,1.062,52134.976,28.652,10400,nan
HVRBrain,1.061,52166.078,28.956,10380,0.088
HVRBrain,1.054,52197.161,28.966,10400,nan
HVRBrain,1.062,52228.793,29.229,10380,4.950
HVRBrain,1.065,52259.868,28.955,10400,nan
HVRBrain,1.116,52290.990,28.541,10380,3.707
HVRBrain,1.048,52321.973,28.725,10400,nan
HVRBrain,1.061,52353.089,28.972,10380,7.055
HVRBrain,1.080,52384.186,28.826,10400,nan
HVRBrain,1.087,52415.838,29.233,10380,6.692
HVRBrain,1.081,52446.910,28.931,10400,nan
HVRBrain,1.104,52470.448,20.826,10380,4.106
HVRBrain,1.101,52494.072,21.457,10400,nan
HVRBrain,1.091,52525.168,28.927,10380,6.429
HVRBrain,1.056,52556.168,28.900,10400,nan
HVRBrain,1.044,52587.817,29.267,10380,5.501
HVRBrain,1.061,52618.898,28.926,10380,7.066
HVRBrain,1.059,52649.980,28.445,10400,nan
HVRBrain,1.063,52681.068,28.958,10380,6.356
HVRBrain,1.075,52712.132,28.930,10400,nan
HVRBrain,1.065,52743.224,28.836,10380,-4.351
HVRBrain,1.075,52774.868,29.361,10400,nan
HVRBrain,1.048,52805.924,28.763,10380,6.416
HVRBrain,1.049,52836.994,28.611,10400,nan
HVRBrain,1.036,52868.052,28.935,10380,6.224
HVRBrain,1.005,52899.125,29.005,10400,nan
HVRBrain,1.030,52930.769,29.282,10380,-6.712
HVRBrain,1.034,52961.847,28.988,10400,nan
HVRBrain,1.029,52992.928,28.527,10380,2.599
HVRBrain,1.047,53024.019,28.770,10400,nan
HVRBrain,1.020,53055.037,28.906,10380,6.011
HVRBrain,1.032,53086.147,29.010,10400,nan
HVRBrain,1.045,53101.380,12.843,10380,6.764
HVRBrain,1.036,53132.877,29.407,10400,nan
HVRBrain,1.039,53163.959,28.506,10380,3.868
HVRBrain,1.047,53195.025,28.902,10400,nan
HVRBrain,1.047,53226.100,28.942,10380,6.561
HVRBrain,1.066,53257.789,29.561,10400,nan
HVRBrain,1.030,53288.816,28.680,10380,2.081
HVRBrain,1.039,53319.906,29.009,10400,nan
HVRBrain,1.060,53350.979,28.422,10380,-8.976
HVRBrain,1.096,53382.109,28.964,10380,-33.558
HVRBrain,1.077,53413.164,28.927,10400,nan
HVRBrain,1.060,53444.791,29.463,10380,5.090
HVRBrain,1.080,53475.884,28.733,10400,nan
HVRBrain,1.074,53506.953,28.818,10380,5.851
HVRBrain,1.078,53538.012,28.481,10400,nan
HVRBrain,1.077,53569.112,28.819,10380,-6.646
HVRBrain,1.068,53600.192,28.962,10400,nan
HVRBrain,1.058,53631.803,29.278,10380,6.562
HVRBrain,1.078,53662.896,28.902,10400,nan
HVRBrain,1.076,53693.968,28.690,10380,0.835
HVRBrain,1.087,53725.044,28.668,10400,nan
HVRBrain,1.082,53756.140,28.927,10380,6.714
HVRBrain,1.087,53787.204,28.923,10400,nan
HVRBrain,1.090,53818.857,29.214,10380,1.366
HVRBrain,1.097,53849.931,28.913,10400,nan
HVRBrain,1.072,53881.002,28.485,10380,-11.548
HVRBrain,1.089,53912.090,28.816,10400,nan
HVRBrain,1.099,53943.175,28.904,10380,-1.013
HVRBrain,1.079,53974.813,29.501,10400,nan
HVRBrain,1.093,54005.889,28.632,10380,6.974
HVRBrain,1.093,54036.977,28.941,10400,nan
HVRBrain,1.070,54068.021,28.365,10380,6.422
HVRBrain,1.062,54099.086,28.937,10400,nan
HVRBrain,1.080,54130.155,28.910,10380,5.894
HVRBrain,1.046,54161.775,29.387,10380,-11.179
HVRBrain,1.057,54192.877,28.706,10400,nan
HVRBrain,1.082,54224.000,28.928,10380,6.323
HVRBrain,1.049,54255.012,28.413,10400,nan
HVRBrain,1.064,54286.127,28.968,10380,6.379
HVRBrain,1.069,54317.216,28.974,10400,nan
HVRBrain,1.062,54348.815,29.325,10380,-4.705
HVRBrain,1.031,54379.868,28.829,10400,nan
HVRBrain,1.018,54410.922,28.790,10380,5.358
HVRBrain,1.043,54442.012,28.644,10400,nan
HVRBrain,1.040,54473.137,29.013,10380,6.645
HVRBrain,1.075,54504.238,28.965,10400,nan
HVRBrain,1.046,54535.820,29.205,10380,5.792
HVRBrain,1.053,54566.896,28.977,10400,nan
HVRBrain,1.040,54597.975,28.640,10380,6.291
HVRBrain,1.038,54629.078,28.831,10400,nan
HVRBrain,1.034,54660.130,28.934,10380,7.061
HVRBrain,1.070,54691.810,29.541,10400,nan
HVRBrain,1.035,54722.837,28.643,10380,4.366
HVRBrain,1.062,54753.923,28.839,10400,nan
HVRBrain,1.066,54785.032,28.482,10380,6.639
HVRBrain,1.073,54816.092,28.912,10400,nan
HVRBrain,1.076,54847.174,28.930,10380,-11.231
HVRBrain,1.070,54878.832,29.527,10400,nan
HVRBrain,1.062,54909.885,28.656,10380,6.605
HVRBrain,1.077,54941.001,28.990,10400,nan
HVRBrain,1.028,54972.001,28.364,10380,5.754
HVRBrain,1.027,55003.067,28.953,10380,6.722
HVRBrain,1.042,55034.188,29.012,10400,nan
HVRBrain,1.042,55065.805,29.432,10380,5.775
HVRBrain,1.057,55096.908,28.789,10400,nan
HVRBrain,1.057,55127.995,28.833,10380,7.181
HVRBrain,1.071,55159.056,28.538,10400,nan
HVRBrain,1.068,55190.157,28.958,10380,-7.870
HVRBrain,1.050,55221.781,29.522,10400,nan
HVRBrain,1.066,55252.859,28.715,10380,6.210
HVRBrain,1.052,55283.928,28.912,10400,nan
HVRBrain,1.059,55315.004,28.671,10380,6.935
HVRBrain,1.074,55346.072,28.687,10400,nan
HVRBrain,1.001,55377.123,28.843,10380,6.371
HVRBrain,1.023,55408.771,29.568,10400,nan
HVRBrain,1.041,55439.862,28.710,10380,-8.468
HVRBrain,1.023,55470.905,28.976,10400,nan
HVRBrain,1.022,55501.999,28.575,10380,4.965
HVRBrain,1.060,55533.130,28.920,10400,nan
HVRBrain,1.038,55564.153,28.913,10380,6.247
HVRBrain,1.059,55595.832,29.556,10400,nan
HVRBrain,1.026,55626.856,28.649,10380,6.880
HVRBrain,1.035,55657.937,28.979,10400,nan
HVRBrain,1.024,55689.036,28.465,10380,-2.384
HVRBrain,1.028,55720.121,28.997,10400,nan
HVRBrain,1.007,55751.153,28.949,10380,7.105
HVRBrain,1.017,55782.791,29.557,10380,6.758
HVRBrain,1.009,55813.867,28.751,10400,nan
HVRBrain,1.051,55844.994,28.971,10380,6.132
HVRBrain,1.044,55876.053,28.471,10400,nan
HVRBrain,1.052,55907.137,28.947,10380,6.254
HVRBrain,1.057,55938.797,29.551,10400,nan
HVRBrain,1.066,55969.853,28.633,10380,-1.801
HVRBrain,1.078,56000.980,28.873,10400,nan
HVRBrain,1.047,56032.005,28.698,10380,5.939
HVRBrain,1.079,56063.099,28.634,10400,nan
HVRBrain,1.025,56094.133,28.943,10380,6.664
HVRBrain,1.032,56125.789,29.585,10400,nan
HVRBrain,1.032,56156.855,28.718,10380,6.708
HVRBrain,1.041,56187.950,29.003,10400,nan
HVRBrain,1.057,56219.024,28.592,10380,5.220
HVRBrain,1.048,56250.101,28.814,10400,nan
HVRBrain,1.058,56281.207,28.969,10380,6.684
HVRBrain,1.053,56312.827,29.509,10400,nan
HVRBrain,1.056,56343.909,28.713,10380,6.949
HVRBrain,1.058,56374.971,28.950,10400,nan
HVRBrain,1.080,56406.098,28.458,10380,2.970
HVRBrain,1.075,56437.181,28.949,10400,nan
HVRBrain,1.031,56468.756,29.467,10380,7.537
HVRBrain,1.028,56499.825,28.976,10400,nan
HVRBrain,1.027,56530.875,28.686,10380,4.081
HVRBrain,1.039,56561.939,28.854,10380,6.370
HVRBrain,1.025,56593.072,28.521,10400,nan
HVRBrain,1.052,56624.141,28.952,10380,-12.770
HVRBrain,1.030,56655.777,29.549,10400,nan
HVRBrain,1.036,56686.839,28.865,10380,6.005
HVRBrain,1.026,56717.927,28.831,10400,nan
HVRBrain,1.036,56749.016,28.843,10380,5.832
HVRBrain,1.022,56780.064,28.585,10400,nan
HVRBrain,1.018,56811.136,28.980,10380,5.676
HVRBrain,1.032,56842.793,29.557,10400,nan
HVRBrain,0.998,56873.826,28.724,10380,6.717
HVRBrain,0.998,56904.934,29.027,10400,nan
HVRBrain,1.013,56936.012,28.702,10380,-21.663
HVRBrain,1.004,56967.079,28.785,10400,nan
HVRBrain,0.996,56998.171,29.047,10380,6.317
HVRBrain,0.995,57029.793,29.570,10400,nan
HVRBrain,1.005,57060.876,28.755,10380,3.077
HVRBrain,1.034,57091.968,28.997,10400,nan
HVRBrain,1.024,57123.020,28.514,10380,7.055
HVRBrain,1.047,57154.167,28.844,10400,nan
HVRBrain,1.031,57185.764,29.504,10380,2.256
HVRBrain,1.035,57216.847,28.997,10400,nan
HVRBrain,1.051,57247.923,28.692,10380,6.217
HVRBrain,1.025,57278.992,29.002,10400,nan
HVRBrain,1.027,57310.077,28.478,10380,6.339
HVRBrain,1.036,57341.142,28.975,10400,nan
HVRBrain,1.014,57372.768,29.542,10380,6.024
HVRBrain,1.010,57403.831,28.964,10380,7.054
HVRBrain,1.000,57434.881,28.761,10400,nan
HVRBrain,1.009,57465.991,28.970,10380,-6.696
HVRBrain,1.004,57497.068,28.576,10400,nan
HVRBrain,1.016,57528.157,29.021,10380,-10.687
HVRBrain,1.020,57559.791,29.553,10400,nan
HVRBrain,1.030,57590.877,28.815,10380,6.964
HVRBrain,1.008,57621.936,28.911,10400,nan
HVRBrain,1.009,57653.025,28.779,10380,3.171
HVRBrain,1.038,57684.101,28.682,10400,nan
HVRBrain,1.014,57715.742,29.553,10380,7.021
HVRBrain,1.024,57746.821,29.007,10400,nan
HVRBrain,1.007,57777.883,28.586,10380,5.848
HVRBrain,1.025,57808.982,29.023,10400,nan
HVRBrain,1.022,57840.057,28.608,10380,5.780
HVRBrain,1.013,57871.160,28.891,10400,nan
HVRBrain,1.017,57902.760,29.527,10380,6.716
HVRBrain,1.022,57933.845,29.022,10400,nan
HVRBrain,1.016,57964.913,28.724,10380,6.383
HVRBrain,1.017,57995.972,28.980,10400,nan
HVRBrain,1.011,58027.033,28.440,10380,6.010
HVRBrain,1.014,58058.162,29.048,10400,nan
HVRBrain,1.032,58089.795,29.544,10380,7.118
HVRBrain,1.000,58120.848,28.985,10400,nan
HVRBrain,1.007,58151.902,28.717,10380,-5.509
HVRBrain,1.021,58183.022,29.039,10380,-1.635
HVRBrain,1.010,58214.109,28.513,10400,nan
HVRBrain,1.038,58245.165,28.971,10380,-9.404
HVRBrain,1.050,58276.833,29.554,10400,nan
HVRBrain,1.044,58307.896,28.840,10380,-6.100
HVRBrain,1.065,58338.980,28.801,10400,nan
HVRBrain,1.060,58370.067,28.679,10380,6.805
HVRBrain,1.065,58401.147,28.599,10400,nan
HVRBrain,1.052,58432.787,29.535,10380,5.521
HVRBrain,1.045,58463.843,28.961,10400,nan
HVRBrain,1.039,58494.932,28.742,10380,-5.658
HVRBrain,1.013,58525.971,28.981,10400,nan
HVRBrain,1.032,58557.051,28.678,10380,6.372
HVRBrain,1.045,58588.150,28.796,10400,nan
HVRBrain,1.037,58619.789,29.533,10380,5.349
HVRBrain,1.051,58650.887,28.994,10400,nan
HVRBrain,1.023,58681.922,28.678,10380,6.612
HVRBrain,1.048,58713.024,28.992,10400,nan
HVRBrain,1.029,58744.097,28.517,10380,6.005
HVRBrain,1.052,58775.219,28.970,10400,nan
HVRBrain,1.022,58806.795,29.495,10380,6.407
HVRBrain,1.038,58837.917,29.034,10400,nan
HVRBrain,1.009,58868.944,28.697,10380,5.784
HVRBrain,1.050,58900.054,28.992,10400,nan
HVRBrain,1.064,58931.138,28.428,10380,6.364
