Brain name,Time to update policy,Time since start of training,Time for last experience collection,Number of experiences used for training,Mean return
HVRBrain,1.127,18.287,14.814,10400,nan
HVRBrain,1.073,34.789,14.163,10380,-5.197
HVRBrain,1.086,51.602,14.297,10400,nan
HVRBrain,1.071,68.217,14.233,10380,-10.604
HVRBrain,1.093,85.236,14.270,10400,nan
HVRBrain,1.039,101.707,14.095,10380,-7.428
HVRBrain,1.059,117.817,13.232,10400,nan
HVRBrain,1.053,133.653,13.407,10380,-20.969
HVRBrain,1.036,149.446,13.546,10400,nan
HVRBrain,1.046,165.493,13.565,10380,-7.534
HVRBrain,1.056,181.445,13.463,10400,nan
HVRBrain,1.034,197.688,13.705,10380,-5.234
HVRBrain,1.027,213.777,13.397,10400,nan
HVRBrain,1.036,229.738,13.491,10380,-4.146
HVRBrain,1.038,245.645,13.704,10400,nan
HVRBrain,1.028,261.893,13.621,10380,-10.770
HVRBrain,1.038,277.772,13.566,10400,nan
HVRBrain,1.035,294.060,13.605,10380,-6.690
HVRBrain,1.047,310.123,13.502,10400,nan
HVRBrain,1.041,326.385,13.633,10380,-3.945
HVRBrain,1.081,342.241,13.624,10400,nan
HVRBrain,1.033,358.416,13.439,10380,-6.275
HVRBrain,1.050,374.299,13.680,10400,nan
HVRBrain,1.021,390.727,13.578,10380,-9.162
HVRBrain,1.061,406.641,13.517,10400,nan
HVRBrain,1.063,422.827,13.681,10380,-5.868
HVRBrain,1.099,438.645,13.535,10380,-5.465
HVRBrain,1.055,461.509,20.142,10400,nan
HVRBrain,1.023,493.073,29.286,10380,-4.593
HVRBrain,1.048,524.201,28.182,10400,nan
HVRBrain,1.031,555.233,28.689,10380,-5.955
HVRBrain,1.041,586.343,28.787,10400,nan
HVRBrain,1.039,617.443,28.710,10380,-5.823
HVRBrain,1.026,648.489,28.513,10400,nan
HVRBrain,1.026,680.110,29.196,10380,-5.837
HVRBrain,1.020,711.185,28.317,10400,nan
HVRBrain,1.034,742.275,28.633,10380,-8.252
HVRBrain,1.061,773.405,28.906,10400,nan
HVRBrain,1.014,804.421,28.366,10380,-7.579
HVRBrain,1.016,836.051,29.261,10400,nan
HVRBrain,1.029,867.133,28.474,10380,-8.010
HVRBrain,1.001,898.199,28.504,10400,nan
HVRBrain,1.010,929.301,28.661,10380,-10.516
HVRBrain,1.017,960.381,28.906,10400,nan
HVRBrain,1.003,991.447,28.384,10380,-5.707
HVRBrain,1.002,1023.063,29.444,10400,nan
HVRBrain,1.015,1054.150,28.331,10380,-6.646
HVRBrain,1.009,1085.215,28.656,10400,nan
HVRBrain,0.999,1116.285,28.643,10380,-4.730
HVRBrain,0.990,1147.362,28.956,10400,nan
HVRBrain,1.029,1178.493,28.394,10380,-5.525
HVRBrain,1.016,1210.080,29.409,10380,-3.451
HVRBrain,1.014,1241.175,28.184,10400,nan
HVRBrain,1.035,1272.256,28.718,10380,-3.541
HVRBrain,0.997,1303.299,28.678,10400,nan
HVRBrain,1.006,1334.409,28.822,10380,-2.819
HVRBrain,0.998,1366.017,29.028,10400,nan
HVRBrain,1.030,1397.119,28.607,10380,-3.825
HVRBrain,1.026,1428.203,28.232,10400,nan
HVRBrain,1.030,1459.301,28.675,10380,-11.453
HVRBrain,1.010,1490.366,28.851,10400,nan
HVRBrain,1.021,1521.460,28.632,10380,-5.735
HVRBrain,1.022,1553.071,29.176,10400,nan
HVRBrain,1.028,1584.139,28.523,10380,-18.844
HVRBrain,1.014,1615.218,28.427,10400,nan
HVRBrain,1.014,1646.299,28.638,10380,-5.370
HVRBrain,1.021,1677.398,28.925,10400,nan
HVRBrain,1.018,1708.477,28.446,10380,-5.368
HVRBrain,1.020,1740.082,29.353,10400,nan
HVRBrain,1.024,1771.180,28.379,10380,-4.036
HVRBrain,1.004,1802.235,28.579,10400,nan
HVRBrain,1.012,1833.325,28.660,10380,-6.606
HVRBrain,0.994,1864.415,28.929,10400,nan
HVRBrain,1.010,1895.481,28.345,10380,-10.307
HVRBrain,1.012,1927.111,29.465,10400,nan
HVRBrain,1.013,1958.201,28.254,10380,-3.785
HVRBrain,0.984,1989.207,28.572,10380,-2.735
HVRBrain,0.989,2020.320,28.693,10400,nan
HVRBrain,1.006,2051.456,28.909,10380,-4.713
HVRBrain,1.013,2083.039,28.933,10400,nan
HVRBrain,0.991,2114.083,28.805,10380,-3.698
HVRBrain,0.999,2145.187,28.202,10400,nan
HVRBrain,0.992,2176.267,28.781,10380,-4.699
HVRBrain,0.981,2207.342,28.826,10400,nan
HVRBrain,0.998,2238.456,28.749,10380,-1.766
HVRBrain,0.992,2270.052,29.107,10400,nan
HVRBrain,1.014,2301.154,28.653,10380,-6.183
HVRBrain,1.003,2332.222,28.365,10400,nan
HVRBrain,0.996,2363.252,28.627,10380,-2.173
HVRBrain,1.022,2394.404,28.971,10400,nan
HVRBrain,1.023,2425.493,28.532,10380,-2.227
HVRBrain,1.021,2457.106,29.253,10400,nan
HVRBrain,1.016,2488.186,28.464,10380,-1.892
HVRBrain,1.004,2519.257,28.516,10400,nan
HVRBrain,1.019,2550.334,28.638,10380,-2.866
HVRBrain,0.993,2581.403,28.930,10400,nan
HVRBrain,0.996,2612.496,28.287,10380,-3.071
HVRBrain,0.983,2644.103,29.459,10400,nan
HVRBrain,0.978,2675.151,28.278,10380,-2.913
HVRBrain,1.002,2706.271,28.727,10400,nan
HVRBrain,0.999,2737.359,28.658,10380,-1.558
HVRBrain,0.988,2768.413,28.905,10400,nan
HVRBrain,0.990,2800.033,28.939,10380,-1.409
HVRBrain,0.988,2831.107,28.884,10380,-1.275
HVRBrain,0.989,2862.193,28.192,10400,nan
HVRBrain,0.979,2893.272,28.785,10380,-1.187
HVRBrain,0.979,2924.361,28.786,10400,nan
HVRBrain,0.993,2955.475,28.822,10380,-1.101
HVRBrain,0.999,2987.072,29.040,10400,nan
HVRBrain,1.003,3018.145,28.736,10380,-1.054
HVRBrain,1.000,3049.224,28.266,10400,nan
HVRBrain,1.027,3080.354,28.687,10380,-1.005
HVRBrain,1.020,3111.421,28.883,10400,nan
HVRBrain,1.018,3142.484,28.568,10380,-0.962
HVRBrain,1.025,3174.115,29.209,10400,nan
HVRBrain,1.019,3205.187,28.396,10380,-0.791
HVRBrain,0.993,3236.245,28.455,10400,nan
HVRBrain,0.996,3267.315,28.659,10380,-0.910
HVRBrain,0.993,3298.437,28.963,10400,nan
HVRBrain,0.994,3330.021,28.927,10380,-0.712
HVRBrain,0.994,3361.115,28.880,10400,nan
HVRBrain,0.984,3392.176,28.376,10380,11.864
HVRBrain,1.013,3423.289,28.640,10400,nan
HVRBrain,0.994,3454.341,28.636,10380,11.925
HVRBrain,0.989,3485.448,28.964,10400,nan
HVRBrain,0.978,3517.031,28.898,10380,24.422
HVRBrain,0.995,3548.139,28.966,10400,nan
HVRBrain,0.987,3579.203,28.208,10380,11.956
HVRBrain,1.004,3610.302,28.811,10380,11.965
HVRBrain,0.990,3641.385,28.680,10400,nan
HVRBrain,0.985,3672.469,28.884,10380,-0.480
HVRBrain,1.012,3704.094,28.971,10400,nan
HVRBrain,1.008,3735.160,28.771,10380,-0.528
HVRBrain,0.999,3766.239,28.198,10400,nan
HVRBrain,1.010,3797.322,28.558,10380,11.881
HVRBrain,1.016,3828.396,28.823,10400,nan
HVRBrain,0.988,3859.485,28.697,10380,11.787
HVRBrain,1.001,3891.098,29.134,10400,nan
HVRBrain,1.008,3922.197,28.622,10380,11.899
HVRBrain,0.991,3953.264,28.374,10400,nan
HVRBrain,1.005,3984.344,28.646,10380,11.924
HVRBrain,0.990,4015.425,28.936,10400,nan
HVRBrain,1.010,4047.054,29.054,10380,-0.405
HVRBrain,0.989,4078.114,28.772,10400,nan
HVRBrain,0.997,4109.201,28.471,10380,-0.399
HVRBrain,0.983,4140.250,28.545,10400,nan
HVRBrain,1.010,4171.380,28.697,10380,24.560
HVRBrain,0.998,4202.445,28.911,10400,nan
HVRBrain,1.004,4234.070,28.911,10380,12.029
HVRBrain,1.016,4265.166,28.930,10400,nan
HVRBrain,1.000,4296.235,28.263,10380,12.051
HVRBrain,1.004,4327.344,28.749,10400,nan
HVRBrain,0.999,4358.396,28.625,10380,24.546
HVRBrain,0.987,4389.454,28.779,10380,-0.414
HVRBrain,0.985,4421.077,28.916,10400,nan
HVRBrain,0.991,4452.143,28.856,10380,24.558
HVRBrain,0.988,4483.275,28.242,10400,nan
HVRBrain,0.990,4514.317,28.665,10380,-0.488
HVRBrain,0.986,4545.405,28.777,10400,nan
HVRBrain,0.982,4577.011,29.287,10380,-0.504
HVRBrain,0.989,4608.106,28.561,10400,nan
HVRBrain,0.991,4639.165,28.677,10380,-0.546
HVRBrain,0.986,4670.259,28.342,10400,nan
HVRBrain,0.995,4701.304,28.637,10380,11.952
HVRBrain,0.998,4732.440,28.981,10400,nan
HVRBrain,0.990,4764.039,29.101,10380,-0.572
HVRBrain,0.994,4795.137,28.727,10400,nan
HVRBrain,1.004,4826.216,28.520,10380,-0.635
HVRBrain,1.006,4857.301,28.507,10400,nan
HVRBrain,1.013,4888.390,28.653,10380,24.333
HVRBrain,0.988,4919.475,28.935,10400,nan
HVRBrain,1.012,4951.090,28.931,10380,-0.781
HVRBrain,1.018,4982.166,28.853,10400,nan
HVRBrain,1.010,5013.273,28.273,10380,-0.855
HVRBrain,1.013,5044.296,28.573,10400,nan
HVRBrain,1.017,5075.427,28.681,10380,-0.819
HVRBrain,1.030,5107.063,29.449,10400,nan
HVRBrain,1.014,5138.121,28.339,10380,-0.818
HVRBrain,1.005,5169.186,28.892,10400,nan
HVRBrain,1.002,5200.267,28.171,10380,-0.812
HVRBrain,1.014,5231.352,28.775,10380,-0.875
HVRBrain,1.022,5262.485,28.735,10400,nan
HVRBrain,1.023,5294.061,29.301,10380,-0.908
HVRBrain,1.009,5325.133,28.467,10400,nan
HVRBrain,1.023,5356.237,28.779,10380,-0.791
HVRBrain,1.027,5387.322,28.213,10400,nan
HVRBrain,1.031,5418.424,28.695,10380,-0.719
HVRBrain,1.011,5449.479,28.826,10400,nan
HVRBrain,1.017,5481.081,29.167,10380,-0.683
HVRBrain,1.033,5512.185,28.632,10400,nan
HVRBrain,1.021,5543.263,28.569,10380,-0.650
HVRBrain,1.011,5574.322,28.374,10400,nan
HVRBrain,1.021,5605.417,28.530,10380,-0.748
HVRBrain,1.039,5636.531,28.910,10400,nan
HVRBrain,1.024,5668.112,28.968,10380,-0.763
HVRBrain,1.019,5699.198,28.797,10400,nan
HVRBrain,1.019,5730.267,28.414,10380,-0.775
HVRBrain,1.032,5761.370,28.572,10400,nan
HVRBrain,1.036,5792.463,28.641,10380,-0.748
HVRBrain,1.016,5824.056,29.417,10400,nan
HVRBrain,1.029,5855.146,28.347,10380,-0.708
HVRBrain,1.055,5886.263,28.904,10400,nan
HVRBrain,1.029,5917.313,28.226,10380,11.745
HVRBrain,1.049,5948.418,28.742,10400,nan
HVRBrain,1.022,5979.471,28.604,10380,-0.670
HVRBrain,1.036,6011.095,29.399,10380,11.871
HVRBrain,1.030,6042.165,28.364,10400,nan
HVRBrain,1.025,6073.241,28.820,10380,-0.534
HVRBrain,1.022,6104.360,28.190,10400,nan
HVRBrain,1.024,6135.424,28.738,10380,-0.466
HVRBrain,1.018,6166.478,28.735,10400,nan
HVRBrain,1.023,6198.104,29.129,10380,-0.746
HVRBrain,1.027,6229.190,28.549,10400,nan
HVRBrain,1.024,6260.257,28.637,10380,24.577
HVRBrain,1.018,6291.356,28.334,10400,nan
HVRBrain,1.029,6322.459,28.650,10380,-0.262
HVRBrain,1.019,6354.045,29.395,10400,nan
HVRBrain,1.032,6385.137,28.544,10380,-0.324
HVRBrain,1.039,6416.229,28.716,10400,nan
HVRBrain,1.032,6447.294,28.467,10380,-0.304
HVRBrain,1.028,6478.381,28.478,10400,nan
HVRBrain,1.020,6509.449,28.651,10380,-0.288
HVRBrain,1.010,6541.063,29.437,10400,nan
HVRBrain,1.004,6572.124,28.388,10380,-0.329
HVRBrain,1.014,6603.251,28.943,10400,nan
HVRBrain,1.019,6634.316,28.317,10380,-0.363
HVRBrain,1.027,6665.409,28.660,10400,nan
HVRBrain,1.035,6696.497,28.658,10380,-0.798
HVRBrain,1.021,6728.105,29.437,10400,nan
HVRBrain,1.024,6759.187,28.366,10380,11.700
HVRBrain,1.005,6790.208,28.728,10380,-0.381
HVRBrain,1.020,6821.350,28.222,10400,nan
HVRBrain,1.010,6852.399,28.759,10380,12.168
HVRBrain,1.018,6883.505,28.749,10400,nan
HVRBrain,1.037,6915.119,29.303,10380,-0.300
HVRBrain,1.016,6946.191,28.472,10400,nan
HVRBrain,1.016,6977.260,28.721,10380,12.093
HVRBrain,1.018,7008.367,28.264,10400,nan
HVRBrain,1.018,7039.441,28.671,10380,-0.417
HVRBrain,0.999,7071.035,29.394,10400,nan
HVRBrain,1.001,7102.118,28.650,10380,-0.922
HVRBrain,1.009,7133.219,28.688,10400,nan
HVRBrain,1.001,7164.306,28.607,10380,-0.551
HVRBrain,0.995,7195.369,28.423,10400,nan
HVRBrain,0.994,7226.431,28.666,10380,-0.567
HVRBrain,0.995,7258.059,29.474,10400,nan
HVRBrain,0.998,7289.137,28.476,10380,-0.473
HVRBrain,1.010,7320.234,28.846,10400,nan
HVRBrain,1.011,7351.323,28.407,10380,-0.549
HVRBrain,1.011,7382.399,28.596,10400,nan
HVRBrain,1.002,7413.482,28.547,10380,-0.528
HVRBrain,1.001,7445.094,29.453,10400,nan
HVRBrain,1.005,7476.162,28.379,10380,-0.686
HVRBrain,1.005,7507.253,28.936,10400,nan
HVRBrain,1.004,7538.355,28.267,10380,11.784
HVRBrain,1.013,7569.446,28.764,10400,nan
HVRBrain,1.013,7601.038,29.163,10380,-0.764
HVRBrain,1.017,7632.107,28.862,10380,-0.756
HVRBrain,1.026,7663.210,28.421,10400,nan
HVRBrain,1.011,7694.280,28.804,10380,-0.689
HVRBrain,0.991,7725.339,28.194,10400,nan
HVRBrain,1.011,7756.449,28.810,10380,-0.596
HVRBrain,0.995,7788.040,29.317,10400,nan
HVRBrain,1.009,7819.125,28.728,10380,11.800
HVRBrain,1.008,7850.219,28.598,10400,nan
HVRBrain,1.003,7881.277,28.630,10380,11.925
HVRBrain,1.022,7912.399,28.413,10400,nan
HVRBrain,1.004,7943.483,28.667,10380,-0.513
HVRBrain,1.001,7975.084,29.434,10400,nan
HVRBrain,1.026,8006.156,28.368,10380,-0.558
HVRBrain,1.030,8037.267,28.772,10400,nan
HVRBrain,1.041,8068.348,28.463,10380,-0.700
HVRBrain,1.028,8099.446,28.538,10400,nan
HVRBrain,1.006,8130.457,28.618,10380,-0.749
HVRBrain,1.030,8162.137,29.496,10400,nan
HVRBrain,1.013,8193.196,28.333,10380,-0.629
HVRBrain,1.005,8224.261,28.903,10400,nan
HVRBrain,1.028,8255.384,28.331,10380,11.805
HVRBrain,1.031,8286.471,28.673,10400,nan
HVRBrain,1.036,8318.071,29.175,10380,11.877
HVRBrain,1.031,8349.149,28.896,10400,nan
HVRBrain,1.028,8380.240,28.370,10380,-0.690
HVRBrain,1.004,8411.294,28.883,10380,-0.743
HVRBrain,1.016,8442.385,28.169,10400,nan
HVRBrain,0.999,8473.454,28.779,10380,11.351
HVRBrain,1.011,8505.073,29.280,10400,nan
HVRBrain,1.030,8536.176,28.787,10380,-0.632
HVRBrain,1.014,8567.223,28.466,10400,nan
HVRBrain,1.027,8598.328,28.594,10380,-0.760
HVRBrain,1.046,8629.436,28.293,10400,nan
HVRBrain,1.015,8660.484,28.636,10380,-0.762
HVRBrain,1.038,8692.122,29.442,10400,nan
HVRBrain,1.041,8723.215,28.595,10380,-0.770
HVRBrain,1.035,8754.294,28.648,10400,nan
HVRBrain,1.037,8785.362,28.532,10380,-0.770
HVRBrain,1.042,8816.451,28.444,10400,nan
HVRBrain,1.053,8848.074,29.166,10380,-0.786
HVRBrain,1.023,8879.149,28.887,10400,nan
HVRBrain,1.044,8910.244,28.414,10380,-0.778
HVRBrain,1.024,8941.309,28.815,10400,nan
HVRBrain,1.035,8972.392,28.383,10380,-0.811
HVRBrain,1.034,9003.467,28.596,10400,nan
HVRBrain,1.024,9035.072,29.192,10380,-0.786
HVRBrain,1.038,9066.169,28.898,10400,nan
HVRBrain,1.026,9097.240,28.374,10380,-0.709
HVRBrain,1.036,9128.350,28.916,10400,nan
HVRBrain,1.062,9159.437,28.215,10380,11.856
HVRBrain,1.065,9190.484,28.566,10380,-0.759
HVRBrain,1.053,9222.126,29.187,10400,nan
HVRBrain,1.030,9253.167,28.807,10380,-0.736
HVRBrain,1.024,9284.261,28.455,10400,nan
HVRBrain,1.034,9315.351,28.800,10380,11.726
HVRBrain,1.031,9346.416,28.190,10400,nan
HVRBrain,1.063,9377.548,28.743,10380,-0.596
HVRBrain,1.058,9409.166,29.331,10400,nan
HVRBrain,1.041,9440.218,28.629,10380,-0.521
HVRBrain,1.051,9471.285,28.542,10400,nan
HVRBrain,1.048,9502.365,28.601,10380,11.910
HVRBrain,1.052,9533.467,28.377,10400,nan
HVRBrain,1.059,9565.092,29.173,10380,11.775
HVRBrain,1.053,9596.161,28.865,10400,nan
HVRBrain,1.048,9627.268,28.496,10380,-0.753
HVRBrain,1.053,9658.329,28.718,10400,nan
HVRBrain,1.041,9689.422,28.434,10380,11.709
HVRBrain,1.052,9720.481,28.494,10400,nan
HVRBrain,1.037,9752.100,29.181,10380,-0.776
HVRBrain,1.047,9783.219,28.910,10400,nan
HVRBrain,1.057,9814.271,28.183,10380,-0.783
HVRBrain,1.063,9845.372,28.887,10400,nan
HVRBrain,1.047,9876.411,28.232,10380,11.685
HVRBrain,1.051,9907.538,28.717,10400,nan
HVRBrain,1.048,9939.128,29.144,10380,-0.782
HVRBrain,1.051,9970.215,28.869,10400,nan
HVRBrain,1.058,10001.298,28.337,10380,-0.743
HVRBrain,1.066,10032.398,28.835,10380,-0.695
HVRBrain,1.045,10063.484,28.146,10400,nan
HVRBrain,1.045,10094.529,28.707,10380,-1.092
HVRBrain,1.056,10126.170,29.276,10400,nan
HVRBrain,1.046,10157.244,28.729,10380,24.547
HVRBrain,1.026,10188.287,28.482,10400,nan
HVRBrain,1.046,10219.401,28.703,10380,24.061
HVRBrain,1.032,10250.444,28.259,10400,nan
HVRBrain,1.054,10282.097,29.199,10380,24.608
HVRBrain,1.047,10313.174,28.876,10400,nan
HVRBrain,1.056,10344.262,28.538,10380,-0.374
HVRBrain,1.064,10375.359,28.682,10400,nan
HVRBrain,1.059,10406.419,28.352,10380,-1.028
HVRBrain,1.040,10437.520,28.460,10400,nan
HVRBrain,1.055,10469.125,29.161,10380,11.457
HVRBrain,1.040,10500.199,28.858,10400,nan
HVRBrain,1.050,10531.296,28.410,10380,11.958
HVRBrain,1.068,10562.409,28.849,10400,nan
HVRBrain,1.034,10593.451,28.313,10380,11.754
HVRBrain,1.036,10625.063,29.154,10400,nan
HVRBrain,1.060,10656.144,28.635,10380,-0.767
HVRBrain,1.045,10687.223,28.874,10400,nan
HVRBrain,1.054,10718.304,28.353,10380,-0.258
HVRBrain,1.043,10749.394,28.881,10400,nan
HVRBrain,1.083,10780.510,28.176,10380,11.132
HVRBrain,1.050,10812.078,29.242,10380,-1.361
HVRBrain,1.070,10843.191,28.665,10400,nan
HVRBrain,1.057,10874.251,28.769,10380,-1.323
HVRBrain,1.035,10905.330,28.440,10400,nan
HVRBrain,1.052,10936.399,28.739,10380,11.700
HVRBrain,1.019,10967.468,28.250,10400,nan
HVRBrain,1.021,10999.078,29.119,10380,-0.811
HVRBrain,1.022,11030.171,28.865,10400,nan
HVRBrain,1.023,11061.247,28.633,10380,-0.873
HVRBrain,1.025,11092.335,28.633,10400,nan
HVRBrain,1.019,11123.408,28.617,10380,36.663
HVRBrain,1.015,11154.480,28.388,10400,nan
HVRBrain,1.032,11186.111,29.215,10380,-1.555
HVRBrain,1.030,11217.199,28.894,10400,nan
HVRBrain,1.054,11248.300,28.484,10380,36.848
HVRBrain,1.026,11279.372,28.779,10400,nan
HVRBrain,1.046,11310.480,28.431,10380,24.261
HVRBrain,1.020,11342.057,29.074,10400,nan
HVRBrain,1.026,11373.136,28.679,10380,24.342
HVRBrain,1.035,11404.231,28.894,10400,nan
HVRBrain,1.034,11435.312,28.389,10380,12.317
HVRBrain,1.036,11466.389,28.873,10400,nan
HVRBrain,1.039,11497.470,28.249,10380,24.947
HVRBrain,1.030,11529.088,29.255,10400,nan
HVRBrain,1.033,11560.164,28.664,10380,35.561
HVRBrain,1.044,11591.238,28.735,10380,-5.214
HVRBrain,1.056,11622.356,28.412,10400,nan
HVRBrain,1.042,11653.425,28.809,10380,37.049
HVRBrain,1.037,11684.505,28.173,10400,nan
HVRBrain,1.035,11716.100,29.272,10380,-0.617
HVRBrain,1.042,11747.194,28.782,10400,nan
HVRBrain,1.054,11778.311,28.740,10380,11.351
HVRBrain,1.049,11809.356,28.506,10400,nan
HVRBrain,1.041,11840.455,28.661,10380,-0.606
HVRBrain,1.037,11872.058,28.841,10400,nan
HVRBrain,1.035,11903.134,28.675,10380,11.412
HVRBrain,1.036,11934.211,28.887,10400,nan
HVRBrain,1.058,11965.324,28.563,10380,-2.484
HVRBrain,1.055,11996.405,28.701,10400,nan
HVRBrain,1.055,12027.499,28.506,10380,-1.471
HVRBrain,1.050,12059.094,28.975,10400,nan
HVRBrain,1.043,12090.154,28.636,10380,-1.568
HVRBrain,1.044,12121.256,28.900,10400,nan
HVRBrain,1.037,12152.348,28.408,10380,24.437
HVRBrain,1.059,12183.405,28.839,10400,nan
HVRBrain,1.044,12214.497,28.200,10380,36.516
HVRBrain,1.039,12246.102,29.176,10400,nan
HVRBrain,1.052,12277.200,28.661,10380,23.519
HVRBrain,1.018,12308.255,28.874,10400,nan
HVRBrain,1.019,12339.312,28.376,10380,23.918
HVRBrain,1.018,12370.408,28.930,10400,nan
HVRBrain,1.050,12401.538,28.202,10380,-1.066
HVRBrain,1.036,12433.119,29.272,10380,24.423
HVRBrain,1.022,12464.213,28.713,10400,nan
HVRBrain,1.027,12495.269,28.780,10380,-1.555
HVRBrain,1.026,12526.356,28.483,10400,nan
HVRBrain,1.039,12557.483,28.782,10380,-1.643
HVRBrain,1.039,12589.068,28.759,10400,nan
HVRBrain,1.023,12620.135,28.692,10380,24.182
HVRBrain,1.039,12651.230,28.876,10400,nan
HVRBrain,1.041,12682.316,28.615,10380,10.942
HVRBrain,1.048,12713.397,28.648,10400,nan
HVRBrain,1.019,12744.465,28.586,10380,-1.118
HVRBrain,1.038,12776.094,28.955,10400,nan
HVRBrain,1.030,12807.152,28.521,10380,23.921
HVRBrain,1.023,12838.249,28.906,10400,nan
HVRBrain,1.017,12869.323,28.458,10380,24.732
HVRBrain,1.040,12900.449,28.850,10400,nan
HVRBrain,1.030,12931.512,28.403,10380,24.745
HVRBrain,1.023,12963.101,29.094,10400,nan
HVRBrain,1.038,12994.173,28.659,10380,-0.214
HVRBrain,1.021,13025.264,28.910,10400,nan
HVRBrain,1.001,13056.315,28.382,10380,-2.354
HVRBrain,1.011,13087.438,28.946,10400,nan
HVRBrain,1.034,13118.525,28.246,10380,37.280
HVRBrain,1.018,13150.128,29.305,10400,nan
HVRBrain,1.015,13181.189,28.659,10380,8.444
HVRBrain,1.026,13212.279,28.889,10380,28.224
HVRBrain,1.014,13243.376,28.433,10400,nan
HVRBrain,1.009,13274.402,28.800,10380,12.361
HVRBrain,1.015,13306.069,28.792,10400,nan
HVRBrain,1.012,13337.126,28.769,10380,-0.254
HVRBrain,1.036,13368.247,28.847,10400,nan
HVRBrain,1.053,13399.329,28.559,10380,-0.144
HVRBrain,1.055,13430.423,28.553,10400,nan
HVRBrain,1.063,13461.508,28.609,10380,21.621
HVRBrain,1.047,13493.117,28.859,10400,nan
HVRBrain,1.052,13524.194,28.653,10380,47.923
HVRBrain,1.052,13555.281,28.878,10400,nan
HVRBrain,1.024,13586.310,28.503,10380,-0.696
HVRBrain,1.053,13617.456,28.768,10400,nan
HVRBrain,1.052,13648.516,28.439,10380,-1.200
HVRBrain,1.075,13680.166,29.051,10400,nan
HVRBrain,1.053,13711.223,28.619,10380,-33.097
HVRBrain,1.060,13742.307,28.878,10400,nan
HVRBrain,1.035,13773.353,28.375,10380,-53.370
HVRBrain,1.065,13804.463,28.878,10400,nan
HVRBrain,1.056,13836.082,28.839,10380,-56.064
HVRBrain,1.048,13867.158,28.660,10400,nan
HVRBrain,1.050,13898.249,28.654,10380,13.167
HVRBrain,1.038,13929.304,28.857,10400,nan
HVRBrain,1.048,13960.427,28.413,10380,0.145
HVRBrain,1.020,13991.433,28.701,10380,-0.149
HVRBrain,1.020,14023.077,28.740,10400,nan
HVRBrain,1.013,14054.149,28.804,10380,9.974
HVRBrain,1.019,14085.241,28.743,10400,nan
HVRBrain,1.006,14116.300,28.777,10380,23.263
HVRBrain,1.025,14147.403,28.533,10400,nan
HVRBrain,1.033,14178.534,28.776,10380,10.619
HVRBrain,1.030,14210.109,28.774,10400,nan
HVRBrain,1.017,14241.172,28.676,10380,24.751
HVRBrain,1.035,14272.290,28.923,10400,nan
HVRBrain,1.009,14303.343,28.618,10380,-0.247
HVRBrain,1.039,14334.431,28.681,10400,nan
HVRBrain,1.055,14365.537,28.564,10380,36.639
HVRBrain,1.039,14397.149,29.057,10400,nan
HVRBrain,1.045,14428.227,28.663,10380,36.757
HVRBrain,1.037,14459.278,28.860,10400,nan
HVRBrain,1.045,14490.423,28.492,10380,11.695
HVRBrain,1.033,14521.485,28.807,10400,nan
HVRBrain,1.030,14553.070,28.894,10380,22.117
HVRBrain,1.045,14584.175,28.612,10400,nan
HVRBrain,1.049,14615.243,28.519,10380,12.022
HVRBrain,1.028,14646.323,28.881,10400,nan
HVRBrain,1.039,14677.413,28.400,10380,-0.827
HVRBrain,1.025,14708.484,28.899,10400,nan
HVRBrain,1.041,14740.100,28.755,10380,8.696
HVRBrain,1.034,14771.191,28.776,10400,nan
HVRBrain,1.047,14802.279,28.670,10380,24.701
HVRBrain,1.036,14833.339,28.843,10380,19.818
HVRBrain,1.037,14864.432,28.443,10400,nan
HVRBrain,1.012,14895.499,28.813,10380,22.101
HVRBrain,1.017,14927.116,28.792,10400,nan
HVRBrain,1.020,14958.170,28.742,10380,24.620
HVRBrain,1.020,14989.257,28.845,10400,nan
HVRBrain,1.027,15020.365,28.723,10380,24.772
HVRBrain,1.035,15051.441,28.599,10400,nan
HVRBrain,1.038,15083.067,29.177,10380,0.814
HVRBrain,1.039,15114.153,28.363,10400,nan
HVRBrain,1.059,15145.230,28.922,10380,48.518
HVRBrain,1.049,15176.333,28.894,10400,nan
HVRBrain,1.063,15207.426,28.212,10380,12.104
HVRBrain,1.065,15238.510,28.740,10400,nan
HVRBrain,1.023,15270.066,29.007,10380,13.081
HVRBrain,1.025,15301.170,28.587,10400,nan
HVRBrain,1.022,15332.233,28.686,10380,14.528
HVRBrain,1.028,15363.322,28.908,10400,nan
HVRBrain,1.040,15394.413,28.407,10380,13.672
HVRBrain,1.037,15425.505,28.921,10400,nan
HVRBrain,1.049,15457.133,28.855,10380,21.381
HVRBrain,1.049,15488.225,28.709,10400,nan
HVRBrain,1.060,15519.288,28.636,10380,11.607
HVRBrain,1.037,15550.382,28.907,10400,nan
HVRBrain,1.034,15581.427,28.364,10380,24.563
HVRBrain,1.038,15612.556,28.918,10380,5.463
HVRBrain,1.041,15644.144,28.649,10400,nan
HVRBrain,1.032,15675.201,28.781,10380,-1.577
HVRBrain,1.037,15706.284,28.760,10400,nan
HVRBrain,1.032,15737.368,28.773,10380,24.518
HVRBrain,1.028,15768.438,28.516,10400,nan
HVRBrain,1.051,15800.088,29.126,10380,24.505
HVRBrain,1.020,15831.137,28.285,10400,nan
HVRBrain,1.018,15862.221,28.704,10380,11.984
HVRBrain,1.024,15893.312,28.921,10400,nan
HVRBrain,1.028,15924.406,28.610,10380,35.694
HVRBrain,1.018,15955.467,28.689,10400,nan
HVRBrain,1.016,15987.079,29.091,10380,12.036
HVRBrain,1.035,16018.182,28.473,10400,nan
HVRBrain,1.050,16049.277,28.670,10380,11.992
HVRBrain,1.029,16080.332,28.856,10400,nan
HVRBrain,1.004,16111.413,28.458,10380,49.452
HVRBrain,1.024,16142.526,28.897,10400,nan
HVRBrain,1.033,16174.129,28.912,10380,36.989
HVRBrain,1.038,16205.225,28.625,10400,nan
HVRBrain,1.030,16236.290,28.686,10380,37.120
HVRBrain,0.999,16267.344,28.888,10400,nan
HVRBrain,1.020,16298.454,28.448,10380,23.395
HVRBrain,1.010,16330.055,29.435,10400,nan
HVRBrain,1.010,16361.128,28.211,10380,12.009
HVRBrain,1.018,16392.204,28.695,10380,-1.687
HVRBrain,1.032,16423.293,28.705,10400,nan
HVRBrain,1.016,16454.354,28.824,10380,35.747
HVRBrain,1.026,16485.459,28.488,10400,nan
HVRBrain,1.039,16517.092,29.332,10380,-6.149
HVRBrain,1.034,16548.160,28.219,10400,nan
HVRBrain,1.050,16579.275,28.754,10380,-6.121
HVRBrain,1.018,16610.330,28.854,10400,nan
HVRBrain,1.021,16641.402,28.666,10380,2.251
HVRBrain,1.007,16672.465,28.633,10400,nan
HVRBrain,0.999,16704.070,29.173,10380,24.484
HVRBrain,1.030,16735.188,28.432,10400,nan
HVRBrain,1.025,16766.264,28.701,10380,10.692
HVRBrain,1.023,16797.365,28.927,10400,nan
HVRBrain,1.052,16828.482,28.535,10380,11.309
HVRBrain,1.010,16860.036,29.289,10400,nan
HVRBrain,1.039,16891.134,28.484,10380,11.999
HVRBrain,1.022,16922.211,28.554,10400,nan
HVRBrain,1.018,16953.284,28.692,10380,49.414
HVRBrain,1.042,16984.385,28.891,10400,nan
HVRBrain,1.054,17015.500,28.262,10380,12.003
HVRBrain,1.049,17047.104,29.385,10400,nan
HVRBrain,1.053,17078.176,28.275,10380,12.033
HVRBrain,1.043,17109.267,28.745,10400,nan
HVRBrain,1.050,17140.345,28.662,10380,-5.928
HVRBrain,1.043,17171.439,28.885,10400,nan
HVRBrain,1.038,17202.496,28.394,10380,37.011
HVRBrain,1.042,17234.101,29.376,10380,47.333
HVRBrain,1.038,17265.185,28.156,10400,nan
HVRBrain,1.035,17296.278,28.786,10380,35.515
HVRBrain,1.110,17327.326,28.728,10400,nan
HVRBrain,1.022,17358.446,28.793,10380,24.479
HVRBrain,1.033,17389.507,28.531,10400,nan
HVRBrain,1.125,17421.199,29.202,10380,12.005
HVRBrain,1.055,17452.242,28.358,10400,nan
HVRBrain,1.055,17483.314,28.650,10380,-0.522
HVRBrain,1.075,17514.401,28.856,10400,nan
HVRBrain,1.069,17545.520,28.581,10380,24.471
HVRBrain,1.069,17577.108,29.197,10400,nan
HVRBrain,1.078,17608.198,28.366,10380,49.408
HVRBrain,1.048,17639.255,28.473,10400,nan
HVRBrain,1.053,17670.321,28.660,10380,11.977
HVRBrain,1.073,17701.428,28.869,10400,nan
HVRBrain,1.058,17732.517,28.392,10380,24.535
HVRBrain,1.060,17764.117,29.387,10400,nan
HVRBrain,1.054,17795.189,28.322,10380,-0.495
HVRBrain,1.045,17826.269,28.659,10400,nan
HVRBrain,1.058,17857.357,28.685,10380,24.517
HVRBrain,1.076,17888.468,28.867,10400,nan
HVRBrain,1.057,17919.465,28.299,10380,-0.503
HVRBrain,1.059,17951.141,29.466,10400,nan
HVRBrain,1.053,17982.202,28.146,10380,11.965
HVRBrain,1.069,18013.308,28.791,10380,-10.910
HVRBrain,1.062,18044.372,28.671,10400,nan
HVRBrain,1.048,18075.453,28.814,10380,34.835
HVRBrain,1.026,18107.051,29.009,10400,nan
HVRBrain,1.034,18138.143,28.759,10380,12.081
HVRBrain,1.030,18169.221,28.257,10400,nan
HVRBrain,1.046,18200.308,28.577,10380,53.589
HVRBrain,1.037,18231.403,28.886,10400,nan
HVRBrain,1.046,18262.485,28.633,10380,31.736
HVRBrain,1.057,18294.103,29.156,10400,nan
HVRBrain,1.054,18325.181,28.573,10380,37.056
HVRBrain,1.040,18356.251,28.413,10400,nan
HVRBrain,1.066,18387.340,28.524,10380,13.152
HVRBrain,1.054,18418.429,28.884,10400,nan
HVRBrain,1.032,18449.501,28.479,10380,-0.414
HVRBrain,1.068,18481.143,29.359,10400,nan
HVRBrain,1.065,18512.225,28.393,10380,37.159
HVRBrain,1.068,18543.305,28.563,10400,nan
HVRBrain,1.044,18574.339,28.648,10380,12.155
HVRBrain,1.038,18605.442,28.887,10400,nan
HVRBrain,1.028,18636.506,28.401,10380,-3.308
HVRBrain,1.030,18668.138,29.436,10400,nan
HVRBrain,1.066,18699.234,28.232,10380,-1.415
HVRBrain,1.057,18730.310,28.728,10400,nan
HVRBrain,1.064,18761.420,28.679,10380,12.090
HVRBrain,1.064,18792.470,28.707,10380,36.263
HVRBrain,1.036,18824.073,28.922,10400,nan
HVRBrain,1.027,18855.129,28.808,10380,-0.227
HVRBrain,1.037,18886.223,28.200,10400,nan
HVRBrain,1.044,18917.326,28.799,10380,49.778
HVRBrain,1.054,18948.414,28.777,10400,nan
HVRBrain,1.044,18979.482,28.705,10380,12.071
HVRBrain,1.059,19011.120,29.091,10400,nan
HVRBrain,1.025,19042.159,28.618,10380,-0.346
HVRBrain,1.039,19073.262,28.374,10400,nan
HVRBrain,1.031,19104.316,28.674,10380,10.797
HVRBrain,1.011,19135.405,28.925,10400,nan
HVRBrain,1.022,19166.494,28.566,10380,-0.480
HVRBrain,1.024,19198.118,29.274,10400,nan
HVRBrain,1.023,19229.192,28.502,10380,-0.307
HVRBrain,1.024,19260.273,28.532,10400,nan
HVRBrain,1.034,19291.341,28.675,10380,10.899
HVRBrain,1.024,19322.442,28.915,10400,nan
HVRBrain,1.008,19354.030,28.939,10380,24.594
HVRBrain,1.018,19385.131,28.920,10400,nan
HVRBrain,1.030,19416.219,28.217,10380,-7.820
HVRBrain,1.026,19447.317,28.713,10400,nan
HVRBrain,1.010,19478.341,28.668,10380,72.433
HVRBrain,1.025,19509.476,28.947,10400,nan
HVRBrain,1.013,19541.064,28.916,10380,24.285
HVRBrain,1.016,19572.155,28.918,10400,nan
HVRBrain,1.024,19603.231,28.179,10380,12.220
HVRBrain,1.031,19634.331,28.843,10380,58.430
HVRBrain,1.011,19665.383,28.727,10400,nan
HVRBrain,1.040,19696.501,28.830,10380,12.048
HVRBrain,1.033,19728.104,29.030,10400,nan
HVRBrain,1.012,19759.172,28.761,10380,12.231
HVRBrain,1.022,19790.253,28.308,10400,nan
HVRBrain,1.020,19821.305,28.679,10380,24.655
HVRBrain,1.066,19852.476,28.949,10400,nan
HVRBrain,1.065,19883.545,28.598,10380,36.976
HVRBrain,1.055,19915.155,29.179,10400,nan
HVRBrain,1.046,19946.230,28.556,10380,-0.520
HVRBrain,1.036,19977.294,28.430,10400,nan
HVRBrain,1.037,20008.363,28.573,10380,12.199
HVRBrain,1.044,20039.472,28.905,10400,nan
HVRBrain,1.052,20071.088,28.987,10380,-0.262
HVRBrain,1.031,20102.157,28.837,10400,nan
HVRBrain,1.035,20133.228,28.401,10380,-0.754
HVRBrain,1.025,20164.302,28.617,10400,nan
HVRBrain,1.021,20195.398,28.731,10380,48.381
HVRBrain,1.020,20226.472,28.900,10400,nan
HVRBrain,1.021,20258.079,28.960,10380,19.780
HVRBrain,1.026,20289.179,28.915,10400,nan
HVRBrain,1.018,20320.245,28.237,10380,17.331
HVRBrain,1.009,20351.317,28.796,10400,nan
HVRBrain,1.022,20382.411,28.720,10380,6.260
HVRBrain,1.013,20413.487,28.883,10380,36.949
HVRBrain,1.010,20445.092,28.986,10400,nan
HVRBrain,1.022,20476.184,28.828,10380,62.095
HVRBrain,1.012,20507.252,28.193,10400,nan
HVRBrain,1.018,20538.349,28.801,10380,10.778
HVRBrain,1.015,20569.423,28.834,10400,nan
HVRBrain,1.012,20600.504,28.600,10380,-3.175
HVRBrain,1.063,20632.160,29.157,10400,nan
HVRBrain,1.049,20663.246,28.635,10380,-18.580
HVRBrain,1.039,20694.314,28.369,10400,nan
HVRBrain,1.030,20725.380,28.686,10380,11.952
HVRBrain,1.054,20756.497,28.903,10400,nan
HVRBrain,1.037,20788.080,29.032,10380,24.471
HVRBrain,1.052,20819.192,28.795,10400,nan
HVRBrain,1.038,20850.261,28.466,10380,5.989
HVRBrain,1.045,20881.342,28.541,10400,nan
HVRBrain,1.063,20912.445,28.700,10380,10.220
HVRBrain,1.058,20943.503,28.840,10400,nan
HVRBrain,1.059,20975.133,28.935,10380,24.493
HVRBrain,1.059,21006.221,28.874,10400,nan
HVRBrain,1.033,21037.286,28.321,10380,23.344
HVRBrain,1.044,21068.359,28.709,10400,nan
HVRBrain,1.035,21099.419,28.686,10380,20.508
HVRBrain,1.036,21131.064,29.457,10400,nan
HVRBrain,1.021,21162.109,28.409,10380,12.082
HVRBrain,1.025,21193.177,28.766,10380,24.449
HVRBrain,1.039,21224.310,28.192,10400,nan
HVRBrain,1.036,21255.372,28.807,10380,24.489
HVRBrain,1.064,21286.478,28.748,10400,nan
HVRBrain,1.041,21318.068,29.299,10380,-31.300
HVRBrain,1.050,21349.168,28.535,10400,nan
HVRBrain,1.024,21380.222,28.719,10380,40.527
HVRBrain,1.048,21411.320,28.326,10400,nan
HVRBrain,1.061,21442.403,28.677,10380,20.658
HVRBrain,1.043,21473.489,28.878,10400,nan
HVRBrain,1.059,21505.111,29.139,10380,-13.009
HVRBrain,1.054,21536.199,28.697,10400,nan
HVRBrain,1.051,21567.287,28.536,10380,57.647
HVRBrain,1.059,21598.347,28.438,10400,nan
HVRBrain,1.052,21629.437,28.713,10380,23.540
HVRBrain,1.046,21660.480,28.839,10400,nan
HVRBrain,1.047,21692.135,28.996,10380,3.868
HVRBrain,1.043,21723.196,28.843,10400,nan
HVRBrain,1.039,21754.286,28.398,10380,32.084
HVRBrain,1.038,21785.386,28.646,10400,nan
HVRBrain,1.038,21816.436,28.546,10380,12.137
HVRBrain,1.044,21848.082,29.436,10400,nan
HVRBrain,1.040,21879.139,28.398,10380,10.799
HVRBrain,1.039,21910.225,28.893,10400,nan
HVRBrain,1.046,21941.307,28.216,10380,1.648
HVRBrain,1.063,21972.408,28.811,10400,nan
HVRBrain,1.051,22003.456,28.666,10380,-8.907
HVRBrain,1.049,22035.088,29.401,10380,22.005
HVRBrain,1.059,22066.186,28.453,10400,nan
HVRBrain,1.057,22097.270,28.778,10380,-5.974
HVRBrain,1.068,22128.338,28.194,10400,nan
HVRBrain,1.064,22159.421,28.741,10380,0.261
HVRBrain,1.067,22190.514,28.844,10400,nan
HVRBrain,1.074,22222.141,29.192,10380,-6.199
HVRBrain,1.073,22253.226,28.614,10400,nan
HVRBrain,1.067,22284.299,28.601,10380,23.299
HVRBrain,1.071,22315.381,28.363,10400,nan
HVRBrain,1.065,22346.445,28.665,10380,-24.929
HVRBrain,1.052,22378.074,29.423,10400,nan
HVRBrain,1.043,22409.132,28.403,10380,-1.076
HVRBrain,1.039,22440.206,28.778,10400,nan
HVRBrain,1.073,22471.331,28.462,10380,8.727
HVRBrain,1.068,22502.428,28.570,10400,nan
HVRBrain,1.073,22533.493,28.670,10380,26.645
HVRBrain,1.078,22565.126,29.397,10400,nan
HVRBrain,1.052,22596.159,28.369,10380,9.985
HVRBrain,1.051,22627.259,28.884,10400,nan
HVRBrain,1.046,22658.351,28.301,10380,45.390
HVRBrain,1.060,22689.434,28.721,10400,nan
HVRBrain,1.066,22720.476,28.660,10380,-6.324
HVRBrain,1.052,22752.115,29.436,10400,nan
HVRBrain,1.062,22783.196,28.414,10380,2.676
HVRBrain,1.065,22814.296,28.861,10380,-25.223
HVRBrain,1.066,22845.353,28.090,10400,nan
HVRBrain,1.064,22876.467,28.832,10380,15.951
HVRBrain,1.052,22907.536,28.747,10400,nan
HVRBrain,1.073,22939.154,29.260,10380,54.348
HVRBrain,1.055,22970.215,28.529,10400,nan
HVRBrain,1.046,23001.285,28.467,10380,2.822
HVRBrain,1.039,23032.384,28.342,10400,nan
HVRBrain,1.061,23063.442,28.676,10380,-2.591
HVRBrain,1.059,23095.088,29.443,10400,nan
HVRBrain,1.053,23126.169,28.587,10380,18.079
HVRBrain,1.040,23157.226,28.718,10400,nan
HVRBrain,1.047,23188.317,28.541,10380,-32.316
HVRBrain,1.055,23219.412,28.507,10400,nan
HVRBrain,1.044,23250.488,28.701,10380,4.707
HVRBrain,1.057,23282.117,29.414,10400,nan
HVRBrain,1.061,23313.191,28.405,10380,2.033
HVRBrain,1.069,23344.288,28.869,10400,nan
HVRBrain,1.068,23375.376,28.334,10380,6.926
HVRBrain,1.063,23406.450,28.645,10400,nan
HVRBrain,1.074,23437.543,28.696,10380,3.365
HVRBrain,1.071,23469.149,29.379,10400,nan
HVRBrain,1.074,23500.218,28.390,10380,-6.353
HVRBrain,1.075,23531.323,28.874,10400,nan
HVRBrain,1.076,23562.407,28.174,10380,22.446
HVRBrain,1.072,23593.447,28.626,10380,43.245
HVRBrain,1.054,23624.538,28.728,10400,nan
HVRBrain,1.067,23656.157,29.359,10380,20.471
HVRBrain,1.051,23687.236,28.481,10400,nan
HVRBrain,1.062,23718.322,28.756,10380,48.474
HVRBrain,1.061,23749.409,28.261,10400,nan
HVRBrain,1.053,23780.476,28.705,10380,17.349
HVRBrain,1.040,23812.092,29.432,10400,nan
HVRBrain,1.027,23843.153,28.654,10380,-0.637
HVRBrain,1.027,23874.220,28.654,10400,nan
HVRBrain,1.051,23905.327,28.634,10380,-2.060
HVRBrain,1.036,23936.426,28.452,10400,nan
HVRBrain,1.038,23967.485,28.693,10380,-5.519
HVRBrain,1.029,23999.098,29.429,10400,nan
HVRBrain,1.045,24030.194,28.500,10380,-8.435
HVRBrain,1.039,24061.266,28.801,10400,nan
HVRBrain,1.031,24092.334,28.442,10380,8.745
HVRBrain,1.031,24123.418,28.585,10400,nan
HVRBrain,1.022,24154.511,28.748,10380,24.407
HVRBrain,1.036,24186.126,29.424,10400,nan
HVRBrain,1.018,24217.172,28.291,10380,4.757
HVRBrain,1.010,24248.272,28.932,10400,nan
HVRBrain,1.018,24279.350,28.309,10380,4.533
HVRBrain,1.017,24310.447,28.809,10400,nan
HVRBrain,1.018,24342.042,29.260,10380,-9.622
HVRBrain,1.012,24373.134,28.925,10400,nan
HVRBrain,1.007,24404.207,28.473,10380,23.181
HVRBrain,1.014,24435.266,28.861,10380,-7.452
HVRBrain,1.027,24466.385,28.234,10400,nan
HVRBrain,1.017,24497.473,28.816,10380,-1.526
HVRBrain,1.017,24529.071,29.347,10400,nan
HVRBrain,1.017,24560.151,28.768,10380,2.470
HVRBrain,1.022,24591.225,28.600,10400,nan
HVRBrain,1.000,24622.306,28.720,10380,11.727
HVRBrain,1.011,24653.404,28.403,10400,nan
HVRBrain,1.008,24684.480,28.739,10380,24.411
HVRBrain,1.019,24716.108,29.447,10400,nan
HVRBrain,1.019,24747.193,28.582,10380,11.778
HVRBrain,1.012,24778.250,28.727,10400,nan
HVRBrain,1.004,24809.317,28.375,10380,11.648
HVRBrain,1.014,24840.425,28.565,10400,nan
HVRBrain,0.995,24871.467,28.727,10380,-5.487
HVRBrain,1.016,24903.121,29.484,10400,nan
HVRBrain,1.000,24934.181,28.434,10380,-28.160
HVRBrain,0.981,24965.278,28.955,10400,nan
HVRBrain,1.004,24996.363,28.376,10380,-0.814
HVRBrain,0.991,25027.455,28.751,10400,nan
HVRBrain,1.000,25059.033,29.262,10380,-1.005
HVRBrain,0.982,25090.116,28.947,10400,nan
HVRBrain,0.994,25121.185,28.462,10380,-2.838
HVRBrain,0.982,25152.288,28.976,10400,nan
HVRBrain,1.001,25183.400,28.273,10380,-0.888
HVRBrain,0.995,25214.438,28.818,10380,-0.880
HVRBrain,0.994,25246.061,29.318,10400,nan
HVRBrain,0.989,25277.132,28.849,10380,-0.891
HVRBrain,0.989,25308.220,28.571,10400,nan
HVRBrain,0.994,25339.309,28.806,10380,-0.943
HVRBrain,1.002,25370.439,28.369,10400,nan
HVRBrain,1.002,25401.442,28.570,10380,-0.847
HVRBrain,1.002,25433.089,29.488,10400,nan
HVRBrain,1.002,25464.165,28.684,10380,-0.949
HVRBrain,1.010,25495.269,28.722,10400,nan
HVRBrain,1.014,25526.345,28.601,10380,-0.917
HVRBrain,0.981,25557.402,28.494,10400,nan
HVRBrain,0.982,25589.008,29.295,10380,-0.921
HVRBrain,0.983,25620.083,28.951,10400,nan
HVRBrain,1.001,25651.199,28.547,10380,-0.835
HVRBrain,1.011,25682.272,28.860,10400,nan
HVRBrain,1.008,25713.364,28.469,10380,-0.940
HVRBrain,1.000,25744.446,28.660,10400,nan
HVRBrain,1.012,25776.058,29.261,10380,-0.924
HVRBrain,0.997,25807.143,28.928,10400,nan
HVRBrain,0.998,25838.203,28.445,10380,-0.935
HVRBrain,0.992,25869.275,28.932,10400,nan
HVRBrain,1.012,25900.395,28.328,10380,-0.923
HVRBrain,1.010,25931.476,28.813,10400,nan
HVRBrain,1.013,25963.094,29.284,10380,-0.992
HVRBrain,1.027,25994.180,28.767,10380,-0.929
HVRBrain,1.041,26025.290,28.457,10400,nan
HVRBrain,1.034,26056.360,28.833,10380,-1.006
HVRBrain,1.033,26087.417,28.186,10400,nan
HVRBrain,1.020,26118.554,28.846,10380,-0.905
HVRBrain,1.027,26150.131,29.332,10400,nan
HVRBrain,1.035,26181.208,28.715,10380,-0.924
HVRBrain,1.042,26212.279,28.592,10400,nan
HVRBrain,1.035,26243.374,28.679,10380,-0.921
HVRBrain,1.030,26274.431,28.360,10400,nan
HVRBrain,1.039,26306.075,29.295,10380,-0.912
HVRBrain,1.031,26337.158,28.906,10400,nan
HVRBrain,1.021,26368.224,28.547,10380,-0.931
HVRBrain,1.052,26399.337,28.790,10400,nan
HVRBrain,1.030,26430.414,28.506,10380,-0.923
HVRBrain,1.028,26461.512,28.567,10400,nan
HVRBrain,1.034,26493.092,29.227,10380,-0.914
HVRBrain,1.042,26524.181,28.886,10400,nan
HVRBrain,1.024,26555.237,28.436,10380,-0.908
HVRBrain,1.028,26586.328,28.906,10400,nan
HVRBrain,1.043,26617.465,28.251,10380,-0.900
HVRBrain,1.038,26648.524,28.713,10400,nan
HVRBrain,1.039,26680.126,29.243,10380,-0.895
HVRBrain,1.037,26711.234,28.924,10400,nan
HVRBrain,1.046,26742.297,28.410,10380,-0.892
HVRBrain,1.033,26773.362,28.874,10400,nan
HVRBrain,1.043,26804.490,28.204,10380,-0.904
HVRBrain,1.029,26836.050,29.327,10380,-0.903
HVRBrain,1.003,26867.118,28.776,10400,nan
HVRBrain,1.014,26898.196,28.814,10380,-0.915
HVRBrain,1.008,26929.268,28.584,10400,nan
HVRBrain,1.022,26960.385,28.793,10380,-0.914
HVRBrain,1.041,26991.478,28.328,10400,nan
HVRBrain,1.021,27023.069,29.260,10380,-0.921
HVRBrain,1.033,27054.172,28.922,10400,nan
HVRBrain,1.032,27085.231,28.597,10380,-0.899
HVRBrain,1.032,27116.356,28.761,10400,nan
HVRBrain,1.061,27147.435,28.543,10380,-0.921
HVRBrain,1.053,27163.412,13.393,10400,nan
HVRBrain,1.060,27179.834,13.900,10380,-0.898
HVRBrain,1.067,27196.498,14.434,10400,nan
HVRBrain,1.075,27212.787,13.624,10380,-0.902
HVRBrain,1.078,27228.749,13.708,10400,nan
HVRBrain,1.066,27245.108,13.650,10380,-0.918
HVRBrain,1.064,27261.334,13.744,10400,nan
HVRBrain,1.065,27277.599,13.872,10380,-0.925
HVRBrain,1.072,27293.689,13.846,10400,nan
HVRBrain,1.070,27309.941,13.597,10380,-0.916
HVRBrain,1.087,27325.914,13.725,10400,nan
HVRBrain,1.084,27342.416,13.616,10380,11.623
HVRBrain,1.082,27358.580,13.834,10400,nan
HVRBrain,1.073,27374.619,13.659,10380,-0.893
HVRBrain,1.078,27390.688,13.802,10380,-0.885
HVRBrain,1.071,27407.137,13.782,10400,nan
HVRBrain,1.071,27423.188,13.745,10380,-0.903
HVRBrain,1.069,27439.632,13.572,10400,nan
HVRBrain,1.069,27455.704,13.715,10380,-0.897
HVRBrain,1.080,27471.750,13.782,10400,nan
HVRBrain,1.154,27488.145,13.763,10380,-0.912
HVRBrain,1.071,27510.386,19.608,10400,nan
HVRBrain,1.072,27541.472,28.619,10380,-0.909
HVRBrain,1.069,27572.537,28.375,10400,nan
HVRBrain,1.068,27604.151,29.250,10380,-0.916
HVRBrain,1.072,27635.247,28.878,10400,nan
HVRBrain,1.071,27666.316,28.506,10380,-0.914
HVRBrain,1.059,27697.401,28.789,10400,nan
HVRBrain,1.074,27728.515,28.464,10380,-0.909
HVRBrain,1.078,27760.120,29.031,10400,nan
HVRBrain,1.073,27791.174,28.698,10380,-0.910
HVRBrain,1.070,27822.278,28.878,10400,nan
HVRBrain,1.070,27853.344,28.401,10380,-0.884
HVRBrain,1.064,27884.418,28.866,10400,nan
HVRBrain,1.068,27915.549,28.327,10380,-0.888
HVRBrain,1.066,27947.128,29.225,10400,nan
HVRBrain,1.066,27978.196,28.691,10380,11.688
HVRBrain,1.053,28009.277,28.885,10400,nan
HVRBrain,1.067,28040.363,28.423,10380,-0.883
HVRBrain,1.069,28071.447,28.748,10380,-0.856
HVRBrain,1.057,28102.511,28.130,10400,nan
HVRBrain,1.054,28134.130,29.348,10380,-0.880
HVRBrain,1.058,28165.220,28.776,10400,nan
HVRBrain,1.070,28196.317,28.761,10380,-0.886
HVRBrain,1.067,28227.388,28.528,10400,nan
HVRBrain,1.068,28258.485,28.709,10380,-0.880
HVRBrain,1.073,28290.099,28.845,10400,nan
HVRBrain,1.058,28321.147,28.703,10380,-0.894
HVRBrain,1.078,28352.278,28.905,10400,nan
HVRBrain,1.071,28383.333,28.527,10380,-0.869
HVRBrain,1.066,28414.400,28.682,10400,nan
HVRBrain,1.076,28445.482,28.537,10380,-0.904
HVRBrain,1.064,28477.112,29.014,10400,nan
HVRBrain,1.068,28508.195,28.724,10380,-0.908
HVRBrain,1.073,28539.288,28.866,10400,nan
HVRBrain,1.055,28570.356,28.427,10380,-0.906
HVRBrain,1.072,28601.433,28.844,10400,nan
HVRBrain,1.055,28632.510,28.342,10380,-0.864
HVRBrain,1.056,28664.137,29.185,10400,nan
HVRBrain,1.055,28695.205,28.578,10380,-0.889
HVRBrain,1.067,28726.297,28.872,10400,nan
HVRBrain,1.058,28757.372,28.415,10380,-0.830
HVRBrain,1.062,28788.435,28.845,10400,nan
HVRBrain,1.058,28819.564,28.237,10380,-0.867
HVRBrain,1.060,28851.167,29.341,10400,nan
HVRBrain,1.059,28882.241,28.724,10380,-0.832
HVRBrain,1.053,28913.310,28.823,10380,-0.840
HVRBrain,1.067,28944.398,28.486,10400,nan
HVRBrain,1.064,28975.491,28.781,10380,-0.769
HVRBrain,1.065,29007.097,28.753,10400,nan
HVRBrain,1.071,29038.174,28.699,10380,-0.787
HVRBrain,1.067,29069.277,28.884,10400,nan
HVRBrain,1.061,29100.351,28.631,10380,-0.766
HVRBrain,1.076,29131.428,28.627,10400,nan
HVRBrain,1.065,29162.530,28.618,10380,11.730
HVRBrain,1.063,29194.122,28.926,10400,nan
HVRBrain,1.048,29225.166,28.684,10380,-0.843
HVRBrain,1.041,29256.264,28.895,10400,nan
HVRBrain,1.069,29287.367,28.376,10380,-0.826
HVRBrain,1.077,29318.460,28.812,10400,nan
HVRBrain,1.073,29349.553,28.453,10380,-0.803
HVRBrain,1.069,29381.161,29.108,10400,nan
HVRBrain,1.065,29412.218,28.689,10380,-0.792
HVRBrain,1.058,29443.305,28.868,10400,nan
HVRBrain,1.057,29474.392,28.451,10380,-0.787
HVRBrain,1.058,29505.485,28.865,10400,nan
HVRBrain,1.055,29537.076,28.788,10380,11.726
HVRBrain,1.060,29568.172,28.761,10400,nan
HVRBrain,1.050,29599.236,28.695,10380,11.727
HVRBrain,1.056,29630.319,28.869,10400,nan
HVRBrain,1.071,29661.414,28.449,10380,-0.793
HVRBrain,1.054,29692.503,28.853,10380,11.734
HVRBrain,1.069,29724.117,28.708,10400,nan
HVRBrain,1.067,29755.185,28.787,10380,11.728
HVRBrain,1.060,29786.278,28.797,10400,nan
HVRBrain,1.074,29817.359,28.723,10380,-0.767
HVRBrain,1.091,29848.451,28.543,10400,nan
HVRBrain,1.049,29879.519,28.559,10380,11.651
HVRBrain,1.045,29911.115,28.869,10400,nan
HVRBrain,1.050,29942.196,28.750,10380,11.632
HVRBrain,1.059,29973.293,28.876,10400,nan
HVRBrain,1.067,30004.378,28.560,10380,11.026
HVRBrain,1.051,30035.437,28.725,10400,nan
HVRBrain,1.047,30066.518,28.542,10380,-2.487
HVRBrain,1.056,30098.151,29.067,10400,nan
HVRBrain,1.046,30129.207,28.722,10380,-2.025
HVRBrain,1.060,30160.314,28.882,10400,nan
HVRBrain,1.059,30191.402,28.463,10380,9.493
HVRBrain,1.049,30222.478,28.865,10400,nan
HVRBrain,1.021,30254.053,28.904,10380,-2.630
HVRBrain,1.027,30285.141,28.713,10400,nan
HVRBrain,1.034,30316.226,28.742,10380,-1.505
HVRBrain,1.038,30347.320,28.903,10400,nan
HVRBrain,1.051,30378.414,28.482,10380,-3.184
HVRBrain,1.047,30409.506,28.874,10400,nan
HVRBrain,1.052,30441.110,28.715,10380,-3.679
HVRBrain,1.067,30472.182,28.695,10380,-1.530
HVRBrain,1.056,30503.270,28.741,10400,nan
HVRBrain,1.051,30534.368,28.831,10380,-2.090
HVRBrain,1.058,30565.442,28.507,10400,nan
HVRBrain,1.057,30596.531,28.776,10380,-2.145
HVRBrain,1.055,30628.131,28.810,10400,nan
HVRBrain,1.046,30659.191,28.731,10380,-2.682
HVRBrain,1.065,30690.312,28.904,10400,nan
HVRBrain,1.050,30721.366,28.633,10380,-7.091
HVRBrain,1.050,30752.459,28.691,10400,nan
HVRBrain,1.059,30783.530,28.590,10380,-2.640
HVRBrain,1.052,30815.161,28.987,10400,nan
HVRBrain,1.058,30846.233,28.736,10380,-1.563
HVRBrain,1.054,30877.344,28.903,10400,nan
HVRBrain,1.055,30908.403,28.472,10380,-3.648
HVRBrain,1.055,30939.498,28.846,10400,nan
HVRBrain,1.058,30971.099,28.960,10380,-1.586
HVRBrain,1.058,31002.192,28.639,10400,nan
HVRBrain,1.055,31033.263,28.725,10380,-2.629
HVRBrain,1.061,31064.359,28.889,10400,nan
HVRBrain,1.058,31095.421,28.322,10380,-1.566
HVRBrain,1.072,31126.516,28.871,10400,nan
HVRBrain,1.057,31158.132,28.803,10380,-1.507
HVRBrain,1.051,31189.210,28.782,10400,nan
HVRBrain,1.069,31220.317,28.752,10380,-1.534
HVRBrain,1.079,31251.390,28.844,10400,nan
HVRBrain,1.059,31282.453,28.298,10380,-0.859
HVRBrain,1.062,31313.543,28.833,10380,-0.931
HVRBrain,1.073,31345.156,28.740,10400,nan
HVRBrain,1.043,31376.223,28.785,10380,-0.858
HVRBrain,1.070,31407.309,28.824,10400,nan
HVRBrain,1.071,31438.432,28.747,10380,-1.490
HVRBrain,1.056,31469.477,28.581,10400,nan
HVRBrain,1.051,31501.078,29.215,10380,-0.899
HVRBrain,1.048,31532.162,28.390,10400,nan
HVRBrain,1.050,31563.236,28.724,10380,-0.810
HVRBrain,1.064,31594.327,28.872,10400,nan
HVRBrain,1.054,31625.412,28.581,10380,-0.869
HVRBrain,1.054,31656.482,28.759,10400,nan
HVRBrain,1.056,31688.109,28.930,10380,-0.871
HVRBrain,1.064,31719.214,28.573,10400,nan
HVRBrain,1.065,31750.272,28.701,10380,-0.856
HVRBrain,1.061,31781.379,28.896,10400,nan
HVRBrain,1.036,31812.410,28.435,10380,-0.836
HVRBrain,1.043,31843.513,28.908,10400,nan
HVRBrain,1.055,31875.131,28.880,10380,-0.821
HVRBrain,1.070,31906.247,28.738,10400,nan
HVRBrain,1.056,31937.309,28.721,10380,-0.862
HVRBrain,1.052,31968.399,28.879,10400,nan
HVRBrain,1.066,31999.464,28.433,10380,-0.852
HVRBrain,1.070,32031.109,29.425,10400,nan
HVRBrain,1.058,32062.166,28.158,10380,-0.864
HVRBrain,1.053,32093.247,28.860,10380,-0.832
HVRBrain,1.062,32124.334,28.753,10400,nan
HVRBrain,1.054,32155.402,28.784,10380,-1.435
HVRBrain,1.054,32186.473,28.511,10400,nan
HVRBrain,1.059,32218.094,29.255,10380,-0.814
HVRBrain,1.051,32249.183,28.318,10400,nan
HVRBrain,1.043,32280.244,28.620,10380,-0.873
HVRBrain,1.055,32311.343,28.890,10400,nan
HVRBrain,1.055,32342.429,28.632,10380,-0.828
HVRBrain,1.066,32373.529,28.713,10400,nan
HVRBrain,1.062,32405.136,29.103,10380,-0.832
HVRBrain,1.046,32436.191,28.451,10400,nan
HVRBrain,1.064,32467.285,28.755,10380,-0.847
HVRBrain,1.051,32498.380,28.884,10400,nan
HVRBrain,1.054,32529.462,28.473,10380,-0.835
HVRBrain,1.054,32561.074,29.397,10400,nan
HVRBrain,1.056,32592.148,28.387,10380,-0.861
HVRBrain,1.054,32623.226,28.650,10400,nan
HVRBrain,1.046,32654.299,28.727,10380,-0.851
HVRBrain,1.057,32685.409,28.888,10400,nan
HVRBrain,1.060,32716.463,28.430,10380,-0.855
HVRBrain,1.062,32748.108,29.417,10400,nan
HVRBrain,1.046,32779.175,28.252,10380,-0.854
HVRBrain,1.052,32810.264,28.827,10400,nan
HVRBrain,1.057,32841.349,28.739,10380,-0.854
HVRBrain,1.064,32872.393,28.705,10380,-0.837
HVRBrain,1.055,32903.477,28.452,10400,nan
HVRBrain,1.058,32935.106,29.358,10380,-0.856
HVRBrain,1.077,32966.232,28.273,10400,nan
HVRBrain,1.058,32997.275,28.737,10380,-0.869
HVRBrain,1.068,33028.377,28.859,10400,nan
HVRBrain,1.049,33059.421,28.676,10380,-0.857
HVRBrain,1.050,33090.521,28.654,10400,nan
HVRBrain,1.049,33122.119,29.170,10380,-0.865
HVRBrain,1.053,33153.220,28.421,10400,nan
HVRBrain,1.047,33184.290,28.734,10380,-0.862
HVRBrain,1.062,33215.400,28.892,10400,nan
HVRBrain,1.076,33246.502,28.545,10380,-0.850
HVRBrain,1.050,33278.080,29.308,10400,nan
HVRBrain,1.058,33309.161,28.500,10380,-0.836
HVRBrain,1.061,33340.243,28.557,10400,nan
HVRBrain,1.067,33371.339,28.743,10380,-0.854
HVRBrain,1.046,33402.414,28.870,10400,nan
HVRBrain,1.055,33433.481,28.433,10380,-0.839
HVRBrain,1.056,33465.114,29.432,10400,nan
HVRBrain,1.055,33496.187,28.175,10380,-0.869
HVRBrain,1.038,33527.257,28.744,10400,nan
HVRBrain,1.061,33558.336,28.728,10380,-0.863
HVRBrain,1.059,33589.467,28.902,10400,nan
HVRBrain,1.079,33620.506,28.396,10380,-0.860
HVRBrain,1.061,33652.146,29.418,10400,nan
HVRBrain,1.063,33683.206,28.153,10380,-0.870
HVRBrain,1.063,33714.292,28.834,10380,-0.855
HVRBrain,1.074,33745.390,28.785,10400,nan
HVRBrain,1.063,33776.456,28.759,10380,-0.861
HVRBrain,1.066,33807.550,28.556,10400,nan
HVRBrain,1.057,33839.153,29.240,10380,-0.845
HVRBrain,1.060,33870.222,28.317,10400,nan
HVRBrain,1.056,33901.307,28.736,10380,-0.876
HVRBrain,1.049,33932.389,28.878,10400,nan
HVRBrain,1.054,33963.465,28.623,10380,-0.864
HVRBrain,1.048,33995.090,29.260,10400,nan
HVRBrain,1.062,34026.193,28.575,10380,-0.853
HVRBrain,1.060,34057.262,28.463,10400,nan
HVRBrain,1.063,34088.338,28.612,10380,-0.889
HVRBrain,1.087,34119.438,28.865,10400,nan
HVRBrain,1.078,34150.505,28.431,10380,-4.430
HVRBrain,1.069,34182.132,29.413,10400,nan
HVRBrain,1.069,34213.216,28.465,10380,-1.445
HVRBrain,1.063,34244.290,28.654,10400,nan
HVRBrain,1.062,34275.363,28.737,10380,-1.467
HVRBrain,1.062,34306.463,28.882,10400,nan
HVRBrain,1.064,34337.512,28.428,10380,-1.456
HVRBrain,1.075,34369.166,29.424,10400,nan
HVRBrain,1.073,34400.248,28.187,10380,-1.449
HVRBrain,1.076,34431.326,28.797,10400,nan
HVRBrain,1.081,34462.415,28.727,10380,-0.846
HVRBrain,1.065,34493.506,28.847,10380,-0.835
HVRBrain,1.073,34525.100,28.997,10400,nan
HVRBrain,1.083,34556.183,28.770,10380,-0.832
HVRBrain,1.064,34587.233,28.220,10400,nan
HVRBrain,1.060,34618.319,28.755,10380,-0.866
HVRBrain,1.055,34649.366,28.836,10400,nan
HVRBrain,1.060,34680.507,28.612,10380,-0.862
HVRBrain,1.054,34712.102,29.174,10400,nan
HVRBrain,1.070,34743.205,28.644,10380,-0.815
HVRBrain,1.067,34774.272,28.411,10400,nan
HVRBrain,1.059,34805.341,28.736,10380,-0.826
HVRBrain,1.062,34836.445,28.890,10400,nan
HVRBrain,1.053,34867.530,28.537,10380,-0.813
HVRBrain,1.050,34899.128,29.329,10400,nan
HVRBrain,1.070,34930.228,28.457,10380,-0.829
HVRBrain,1.072,34961.318,28.577,10400,nan
HVRBrain,1.066,34992.362,28.699,10380,-0.816
HVRBrain,1.063,35023.458,28.877,10400,nan
HVRBrain,1.064,35054.546,28.467,10380,-0.845
HVRBrain,1.068,35086.182,29.412,10400,nan
HVRBrain,1.079,35117.264,28.274,10380,-0.844
HVRBrain,1.067,35148.322,28.735,10400,nan
HVRBrain,1.067,35179.392,28.741,10380,-0.852
HVRBrain,1.073,35210.522,28.890,10400,nan
HVRBrain,1.080,35242.118,28.969,10380,-2.324
HVRBrain,1.082,35273.196,28.710,10380,-1.477
HVRBrain,1.059,35304.276,28.173,10400,nan
HVRBrain,1.085,35335.366,28.800,10380,-0.824
HVRBrain,1.075,35366.439,28.774,10400,nan
HVRBrain,1.078,35397.522,28.730,10380,-1.483
HVRBrain,1.059,35429.123,29.119,10400,nan
HVRBrain,1.064,35460.212,28.713,10380,-1.520
HVRBrain,1.082,35491.298,28.326,10400,nan
HVRBrain,1.080,35522.382,28.735,10380,-0.971
HVRBrain,1.074,35553.488,28.860,10400,nan
HVRBrain,1.070,35584.535,28.557,10380,-1.511
HVRBrain,1.065,35616.151,29.274,10400,nan
HVRBrain,1.068,35647.238,28.538,10380,-1.480
HVRBrain,1.079,35678.338,28.508,10400,nan
HVRBrain,1.074,35709.401,28.709,10380,-0.990
HVRBrain,1.065,35740.470,28.842,10400,nan
HVRBrain,1.066,35772.090,29.019,10380,-0.776
HVRBrain,1.074,35803.184,28.855,10400,nan
HVRBrain,1.072,35834.259,28.382,10380,-0.892
HVRBrain,1.078,35865.352,28.677,10400,nan
HVRBrain,1.069,35896.419,28.604,10380,-0.863
HVRBrain,1.079,35927.543,28.892,10400,nan
HVRBrain,1.061,35959.108,28.941,10380,-1.500
HVRBrain,1.071,35990.230,28.899,10400,nan
HVRBrain,1.073,36021.289,28.155,10380,-11.008
HVRBrain,1.066,36052.370,28.854,10400,nan
HVRBrain,1.078,36083.442,28.736,10380,-1.505
HVRBrain,1.070,36114.515,28.830,10380,-1.512
HVRBrain,1.075,36146.152,29.044,10400,nan
HVRBrain,1.072,36177.232,28.752,10380,-1.001
HVRBrain,1.070,36208.317,28.287,10400,nan
HVRBrain,1.072,36239.390,28.758,10380,-1.521
HVRBrain,1.061,36270.469,28.866,10400,nan
HVRBrain,1.068,36301.564,28.678,10380,-22.457
HVRBrain,1.067,36333.174,29.189,10400,nan
HVRBrain,1.066,36364.236,28.578,10380,-1.561
HVRBrain,1.073,36395.318,28.455,10400,nan
HVRBrain,1.075,36426.406,28.748,10380,-1.527
HVRBrain,1.075,36457.493,28.866,10400,nan
HVRBrain,1.050,36489.086,28.885,10380,-12.521
HVRBrain,1.051,36520.186,28.871,10400,nan
HVRBrain,1.063,36551.255,28.526,10380,-1.537
HVRBrain,1.044,36582.331,28.638,10400,nan
HVRBrain,1.049,36613.422,28.776,10380,-1.534
HVRBrain,1.054,36644.514,28.888,10400,nan
HVRBrain,1.054,36676.110,28.998,10380,-4.253
HVRBrain,1.056,36707.202,28.881,10400,nan
HVRBrain,1.058,36738.284,28.276,10380,-18.025
HVRBrain,1.056,36769.371,28.801,10400,nan
HVRBrain,1.049,36800.441,28.762,10380,-4.175
HVRBrain,1.040,36831.525,28.906,10400,nan
HVRBrain,1.037,36863.120,29.019,10380,-4.811
HVRBrain,1.050,36894.225,28.895,10380,-2.706
HVRBrain,1.052,36925.277,28.189,10400,nan
HVRBrain,1.035,36956.345,28.810,10380,-27.013
HVRBrain,1.039,36987.423,28.863,10400,nan
HVRBrain,1.043,37019.063,29.331,10380,-1.513
HVRBrain,1.048,37050.157,28.629,10400,nan
HVRBrain,1.013,37081.210,28.564,10380,-3.684
HVRBrain,1.019,37112.279,28.403,10400,nan
HVRBrain,1.017,37143.342,28.773,10380,-2.470
HVRBrain,1.011,37174.439,28.922,10400,nan
HVRBrain,0.999,37206.045,29.147,10380,-1.522
HVRBrain,1.015,37237.153,28.846,10400,nan
HVRBrain,1.028,37268.256,28.576,10380,-1.524
HVRBrain,1.016,37299.328,28.577,10400,nan
HVRBrain,1.018,37330.367,28.766,10380,-1.533
HVRBrain,1.014,37361.475,28.955,10400,nan
HVRBrain,1.005,37393.074,29.066,10380,-8.744
HVRBrain,1.014,37424.177,28.923,10400,nan
HVRBrain,1.025,37455.270,28.401,10380,-26.513
HVRBrain,1.015,37486.338,28.749,10400,nan
HVRBrain,1.015,37517.426,28.800,10380,-3.046
HVRBrain,1.020,37549.047,29.441,10400,nan
HVRBrain,1.023,37580.125,28.505,10380,-4.517
HVRBrain,1.026,37611.228,28.929,10400,nan
HVRBrain,1.016,37642.265,28.168,10380,-1.519
HVRBrain,1.010,37673.326,28.784,10380,-1.518
HVRBrain,1.018,37704.462,28.860,10400,nan
HVRBrain,1.008,37736.038,29.378,10380,-4.510
HVRBrain,1.018,37767.154,28.617,10400,nan
HVRBrain,1.018,37798.218,28.781,10380,-1.897
HVRBrain,1.025,37829.310,28.352,10400,nan
HVRBrain,1.015,37860.360,28.792,10380,-1.526
HVRBrain,1.001,37891.457,28.933,10400,nan
HVRBrain,1.007,37923.062,29.226,10380,-28.040
HVRBrain,1.004,37954.156,28.766,10400,nan
HVRBrain,1.000,37985.227,28.616,10380,-1.511
HVRBrain,1.005,38016.332,28.565,10400,nan
HVRBrain,1.011,38047.406,28.804,10380,-1.512
HVRBrain,1.010,38078.494,28.924,10400,nan
HVRBrain,1.003,38110.085,29.041,10380,-3.841
HVRBrain,1.004,38141.184,28.936,10400,nan
HVRBrain,1.004,38172.262,28.472,10380,-2.026
HVRBrain,1.013,38203.355,28.680,10400,nan
HVRBrain,1.000,38234.425,28.805,10380,-0.806
HVRBrain,0.990,38266.035,29.351,10400,nan
HVRBrain,1.003,38297.113,28.546,10380,-1.303
HVRBrain,1.007,38328.204,28.940,10400,nan
HVRBrain,1.000,38359.285,28.314,10380,-0.796
HVRBrain,1.004,38390.389,28.887,10400,nan
HVRBrain,1.018,38421.442,28.778,10380,-0.819
HVRBrain,1.000,38453.062,29.462,10400,nan
HVRBrain,1.007,38484.140,28.512,10380,-0.808
HVRBrain,1.011,38515.205,28.877,10380,-3.552
HVRBrain,1.007,38546.293,28.295,10400,nan
HVRBrain,1.008,38577.380,28.835,10380,-0.802
HVRBrain,1.005,38608.460,28.916,10400,nan
HVRBrain,1.010,38640.076,29.294,10380,-0.786
HVRBrain,1.010,38671.176,28.692,10400,nan
HVRBrain,1.016,38702.267,28.723,10380,-0.824
HVRBrain,1.024,38733.335,28.417,10400,nan
HVRBrain,1.009,38764.411,28.817,10380,-0.834
HVRBrain,1.008,38796.035,29.460,10400,nan
HVRBrain,1.019,38827.112,28.585,10380,-0.838
HVRBrain,1.001,38858.190,28.845,10400,nan
HVRBrain,1.002,38889.256,28.412,10380,-0.892
HVRBrain,1.031,38920.373,28.652,10400,nan
HVRBrain,0.999,38951.405,28.779,10380,-0.895
HVRBrain,1.039,38983.086,29.488,10400,nan
HVRBrain,1.019,39014.139,28.496,10380,-0.919
HVRBrain,1.001,39045.206,28.907,10400,nan
HVRBrain,1.023,39076.322,28.403,10380,-0.942
HVRBrain,1.039,39107.386,28.736,10400,nan
HVRBrain,1.027,39138.466,28.802,10380,-0.917
HVRBrain,1.014,39170.082,29.442,10400,nan
HVRBrain,1.017,39201.165,28.529,10380,-0.899
HVRBrain,1.011,39232.240,28.911,10400,nan
HVRBrain,1.016,39263.324,28.262,10380,-0.914
HVRBrain,1.037,39294.435,28.913,10380,-0.944
HVRBrain,1.017,39325.497,28.819,10400,nan
HVRBrain,1.013,39357.107,29.365,10380,-0.929
HVRBrain,1.015,39388.185,28.597,10400,nan
HVRBrain,1.013,39419.247,28.775,10380,-0.926
HVRBrain,1.018,39450.343,28.388,10400,nan
HVRBrain,1.036,39481.443,28.664,10380,-0.969
HVRBrain,1.039,39513.073,29.443,10400,nan
HVRBrain,1.044,39544.151,28.647,10380,-0.950
HVRBrain,1.034,39575.234,28.740,10400,nan
HVRBrain,1.031,39606.311,28.597,10380,-0.960
HVRBrain,1.039,39637.383,28.502,10400,nan
HVRBrain,1.043,39668.488,28.813,10380,-1.011
HVRBrain,1.043,39700.101,29.413,10400,nan
HVRBrain,1.043,39731.171,28.487,10380,-0.996
HVRBrain,1.023,39762.262,28.905,10400,nan
HVRBrain,1.039,39793.318,28.406,10380,-0.958
HVRBrain,1.049,39824.435,28.707,10400,nan
HVRBrain,1.033,39855.485,28.766,10380,-1.008
HVRBrain,1.035,39887.117,29.449,10400,nan
HVRBrain,1.057,39918.224,28.525,10380,-0.958
HVRBrain,1.060,39949.296,28.859,10400,nan
HVRBrain,1.051,39980.396,28.274,10380,-0.947
HVRBrain,1.050,40011.479,28.835,10400,nan
HVRBrain,1.036,40043.058,29.286,10380,-0.952
HVRBrain,1.022,40074.100,28.752,10380,-1.023
HVRBrain,1.038,40105.211,28.559,10400,nan
HVRBrain,1.027,40136.298,28.856,10380,-0.946
HVRBrain,1.048,40167.394,28.295,10400,nan
HVRBrain,1.026,40198.448,28.779,10380,-1.013
HVRBrain,1.036,40230.083,29.443,10400,nan
HVRBrain,1.029,40261.155,28.712,10380,-0.942
HVRBrain,1.040,40292.269,28.703,10400,nan
HVRBrain,1.021,40323.304,28.619,10380,-1.024
HVRBrain,1.050,40354.417,28.469,10400,nan
HVRBrain,1.050,40385.475,28.768,10380,-1.007
HVRBrain,1.033,40417.102,29.437,10400,nan
HVRBrain,1.026,40448.177,28.566,10380,-1.015
HVRBrain,1.025,40479.255,28.844,10400,nan
HVRBrain,1.026,40510.348,28.523,10380,-6.806
HVRBrain,1.011,40541.425,28.644,10400,nan
HVRBrain,1.023,40572.516,28.827,10380,-0.952
HVRBrain,1.009,40604.117,29.425,10400,nan
HVRBrain,1.046,40635.227,28.546,10380,-2.218
HVRBrain,1.037,40666.291,28.739,10400,nan
HVRBrain,1.054,40697.414,28.353,10380,-0.963
HVRBrain,1.057,40728.499,28.770,10400,nan
HVRBrain,1.044,40760.075,29.286,10380,-0.963
HVRBrain,1.050,40791.189,28.913,10400,nan
HVRBrain,1.047,40822.254,28.487,10380,-1.109
HVRBrain,1.029,40853.310,28.866,10400,nan
HVRBrain,1.050,40884.374,28.220,10380,-0.961
HVRBrain,1.047,40915.500,28.894,10380,-1.021
HVRBrain,1.059,40947.122,29.334,10400,nan
HVRBrain,1.048,40978.163,28.727,10380,-0.971
HVRBrain,1.049,41009.266,28.633,10400,nan
HVRBrain,1.039,41040.342,28.736,10380,-1.027
HVRBrain,1.044,41071.426,28.404,10400,nan
HVRBrain,1.057,41102.510,28.774,10380,-9.115
HVRBrain,1.057,41134.137,29.432,10400,nan
HVRBrain,1.050,41165.204,28.608,10380,-8.937
HVRBrain,1.061,41196.301,28.758,10400,nan
HVRBrain,1.055,41227.373,28.555,10380,-1.029
HVRBrain,1.046,41258.484,28.561,10400,nan
HVRBrain,1.063,41289.551,28.630,10380,-0.978
HVRBrain,1.049,41321.151,29.404,10400,nan
HVRBrain,1.060,41352.231,28.508,10380,-19.499
HVRBrain,1.038,41383.314,28.901,10400,nan
HVRBrain,1.046,41414.413,28.416,10380,-1.017
HVRBrain,1.046,41445.460,28.659,10400,nan
HVRBrain,1.043,41477.084,29.329,10380,-0.969
HVRBrain,1.041,41508.189,28.909,10400,nan
HVRBrain,1.027,41539.225,28.486,10380,-1.011
HVRBrain,1.039,41570.339,28.927,10400,nan
HVRBrain,1.043,41601.418,28.225,10380,-1.035
HVRBrain,1.045,41632.532,28.906,10400,nan
HVRBrain,1.048,41664.117,29.290,10380,-1.038
HVRBrain,1.044,41695.190,28.861,10380,-2.339
HVRBrain,1.036,41726.244,28.506,10400,nan
HVRBrain,1.036,41757.341,28.843,10380,-0.927
HVRBrain,1.037,41788.413,28.318,10400,nan
HVRBrain,1.041,41819.475,28.794,10380,-0.947
HVRBrain,1.025,41851.122,29.471,10400,nan
HVRBrain,1.009,41882.181,28.587,10380,-0.983
HVRBrain,0.996,41913.247,28.738,10400,nan
HVRBrain,1.005,41944.351,28.721,10380,-0.956
HVRBrain,0.999,41975.405,28.498,10400,nan
HVRBrain,0.995,42007.021,29.383,10380,-0.959
HVRBrain,0.994,42038.110,28.930,10400,nan
HVRBrain,1.001,42069.200,28.603,10380,-1.015
HVRBrain,1.003,42100.273,28.903,10400,nan
HVRBrain,1.006,42131.371,28.523,10380,-0.960
HVRBrain,1.003,42162.459,28.707,10400,nan
HVRBrain,1.019,42194.072,29.363,10380,-0.943
HVRBrain,1.017,42225.157,28.914,10400,nan
HVRBrain,1.016,42256.229,28.551,10380,-0.937
HVRBrain,1.024,42287.332,28.923,10400,nan
HVRBrain,1.014,42318.406,28.324,10380,-0.959
HVRBrain,1.038,42349.534,28.858,10400,nan
HVRBrain,1.042,42381.122,29.296,10380,-0.920
HVRBrain,1.048,42412.207,28.880,10400,nan
HVRBrain,1.033,42443.264,28.507,10380,-0.936
HVRBrain,1.026,42474.344,28.764,10380,-0.984
HVRBrain,1.016,42505.436,28.279,10400,nan
HVRBrain,1.041,42536.533,28.853,10380,-0.950
HVRBrain,1.046,42568.150,29.391,10400,nan
HVRBrain,1.046,42599.236,28.770,10380,-0.931
HVRBrain,1.039,42630.295,28.619,10400,nan
HVRBrain,1.020,42661.383,28.741,10380,-0.950
HVRBrain,1.041,42692.482,28.430,10400,nan
HVRBrain,1.037,42724.072,29.310,10380,-0.942
HVRBrain,1.025,42755.156,28.909,10400,nan
HVRBrain,1.035,42786.245,28.630,10380,-0.949
HVRBrain,1.022,42817.311,28.796,10400,nan
HVRBrain,1.032,42848.404,28.572,10380,-0.942
HVRBrain,1.027,42879.457,28.566,10400,nan
HVRBrain,1.026,42911.092,29.371,10380,-0.971
HVRBrain,1.040,42942.179,28.876,10400,nan
HVRBrain,1.033,42973.247,28.408,10380,-0.916
HVRBrain,1.031,43004.347,28.915,10400,nan
HVRBrain,1.033,43035.447,28.411,10380,-0.936
HVRBrain,1.045,43067.067,29.146,10400,nan
HVRBrain,1.037,43098.125,28.779,10380,-0.933
HVRBrain,1.029,43129.200,28.889,10400,nan
HVRBrain,1.052,43160.305,28.544,10380,-0.927
HVRBrain,1.028,43191.343,28.864,10400,nan
HVRBrain,1.045,43222.481,28.283,10380,-0.941
HVRBrain,1.037,43254.086,29.413,10400,nan
HVRBrain,1.044,43285.151,28.793,10380,-0.911
HVRBrain,1.039,43316.223,28.842,10380,-0.923
HVRBrain,1.044,43347.309,28.573,10400,nan
HVRBrain,1.040,43378.403,28.801,10380,-1.054
HVRBrain,1.052,43409.486,28.312,10400,nan
HVRBrain,1.038,43441.084,29.319,10380,-0.921
HVRBrain,1.043,43472.179,28.885,10400,nan
HVRBrain,1.058,43503.289,28.681,10380,-0.967
HVRBrain,1.036,43534.339,28.702,10400,nan
HVRBrain,1.036,43565.432,28.645,10380,-0.916
HVRBrain,1.041,43596.527,28.498,10400,nan
HVRBrain,1.034,43628.112,29.313,10380,-0.898
HVRBrain,1.068,43659.231,28.903,10400,nan
HVRBrain,1.012,43690.254,28.387,10380,-0.901
HVRBrain,1.013,43721.356,28.940,10400,nan
HVRBrain,1.025,43752.441,28.483,10380,-0.902
HVRBrain,1.014,43784.046,29.223,10400,nan
HVRBrain,1.006,43815.108,28.828,10380,-0.899
HVRBrain,1.009,43846.208,28.937,10400,nan
HVRBrain,1.017,43877.271,28.561,10380,-0.892
HVRBrain,1.004,43908.365,28.928,10400,nan
HVRBrain,1.004,43939.429,28.327,10380,-0.900
HVRBrain,1.000,43971.056,29.434,10400,nan
HVRBrain,1.009,44002.133,28.853,10380,-15.446
HVRBrain,1.013,44033.230,28.927,10400,nan
HVRBrain,1.008,44064.295,28.566,10380,-3.530
HVRBrain,1.027,44095.406,28.913,10380,-6.882
HVRBrain,1.008,44126.453,28.261,10400,nan
HVRBrain,1.014,44158.072,29.365,10380,-0.895
HVRBrain,1.031,44189.193,28.936,10400,nan
HVRBrain,1.024,44220.258,28.746,10380,-0.899
HVRBrain,1.019,44251.353,28.700,10400,nan
HVRBrain,1.009,44282.414,28.573,10380,-0.895
HVRBrain,1.029,44313.512,28.458,10400,nan
HVRBrain,1.030,44345.115,29.335,10380,-0.895
HVRBrain,1.034,44376.204,28.893,10400,nan
HVRBrain,1.022,44407.262,28.603,10380,-0.883
HVRBrain,1.004,44438.344,28.868,10400,nan
HVRBrain,1.030,44469.452,28.583,10380,-0.901
HVRBrain,1.027,44501.068,29.143,10400,nan
HVRBrain,1.014,44532.114,28.811,10380,-0.904
HVRBrain,1.020,44563.208,28.924,10400,nan
HVRBrain,1.018,44594.289,28.560,10380,-0.910
HVRBrain,1.010,44625.349,28.882,10400,nan
HVRBrain,1.010,44656.469,28.431,10380,-0.911
HVRBrain,1.005,44688.075,29.335,10400,nan
HVRBrain,1.013,44719.150,28.852,10380,-5.097
HVRBrain,1.012,44750.238,28.907,10400,nan
HVRBrain,1.008,44781.306,28.567,10380,-0.906
HVRBrain,1.015,44812.390,28.926,10400,nan
HVRBrain,1.025,44843.468,28.269,10380,-9.934
HVRBrain,1.034,44875.092,29.309,10380,-0.901
HVRBrain,1.029,44906.182,28.832,10400,nan
HVRBrain,1.030,44937.269,28.873,10380,-0.923
HVRBrain,1.033,44968.363,28.616,10400,nan
HVRBrain,1.026,44999.464,28.801,10380,-1.029
HVRBrain,1.035,45031.061,28.877,10400,nan
HVRBrain,1.017,45062.111,28.803,10380,-0.922
HVRBrain,1.019,45093.187,28.898,10400,nan
HVRBrain,1.028,45124.290,28.702,10380,-0.960
HVRBrain,1.014,45155.365,28.766,10400,nan
HVRBrain,1.016,45186.449,28.631,10380,-0.919
HVRBrain,1.022,45218.078,29.096,10400,nan
HVRBrain,1.017,45249.161,28.838,10380,-0.927
HVRBrain,1.040,45280.268,28.916,10400,nan
HVRBrain,1.031,45311.300,28.486,10380,-0.919
HVRBrain,1.014,45342.385,28.908,10400,nan
HVRBrain,1.033,45373.485,28.467,10380,-2.849
HVRBrain,1.014,45405.092,29.247,10400,nan
HVRBrain,1.009,45436.172,28.864,10380,-9.864
HVRBrain,0.998,45467.249,28.800,10400,nan
HVRBrain,1.001,45498.315,28.566,10380,-0.927
HVRBrain,1.006,45529.419,28.941,10400,nan
HVRBrain,0.998,45560.500,28.315,10380,-0.903
HVRBrain,1.003,45592.104,29.418,10400,nan
HVRBrain,1.005,45623.188,28.849,10380,-0.963
HVRBrain,1.003,45654.276,28.921,10400,nan
HVRBrain,0.986,45685.335,28.561,10380,-0.933
HVRBrain,1.001,45716.435,28.900,10380,-0.915
HVRBrain,1.017,45748.052,28.823,10400,nan
HVRBrain,0.998,45779.115,28.842,10380,-0.974
HVRBrain,1.021,45810.222,28.937,10400,nan
HVRBrain,1.021,45841.323,28.771,10380,-0.839
HVRBrain,1.021,45872.372,28.666,10400,nan
HVRBrain,1.022,45903.464,28.722,10380,-0.913
HVRBrain,1.008,45935.076,29.024,10400,nan
HVRBrain,1.013,45966.148,28.855,10380,-0.913
HVRBrain,1.012,45997.228,28.909,10400,nan
HVRBrain,1.005,46028.303,28.602,10380,-0.894
HVRBrain,1.020,46059.404,28.892,10400,nan
HVRBrain,1.044,46090.530,28.420,10380,-0.845
HVRBrain,1.012,46122.104,29.125,10400,nan
HVRBrain,1.014,46153.170,28.814,10380,-0.909
HVRBrain,1.018,46184.250,28.900,10400,nan
HVRBrain,0.996,46215.313,28.572,10380,-0.963
HVRBrain,1.005,46246.427,28.957,10400,nan
HVRBrain,0.999,46278.025,28.916,10380,-0.888
HVRBrain,1.020,46309.131,28.831,10400,nan
HVRBrain,1.019,46340.199,28.832,10380,-0.890
HVRBrain,1.020,46371.288,28.919,10400,nan
HVRBrain,1.041,46402.400,28.567,10380,-0.893
HVRBrain,1.028,46433.443,28.853,10400,nan
HVRBrain,1.021,46465.068,28.840,10380,-0.954
HVRBrain,1.022,46496.145,28.881,10380,-0.901
HVRBrain,1.018,46527.243,28.895,10400,nan
HVRBrain,1.034,46558.332,28.818,10380,-0.898
HVRBrain,1.019,46589.386,28.604,10400,nan
HVRBrain,0.995,46620.451,28.814,10380,-0.931
HVRBrain,1.027,46652.100,28.966,10400,nan
HVRBrain,1.022,46683.169,28.687,10380,-0.904
HVRBrain,1.015,46714.251,28.902,10400,nan
HVRBrain,1.007,46745.325,28.681,10380,-0.955
HVRBrain,1.013,46776.430,28.823,10400,nan
HVRBrain,1.024,46807.516,28.617,10380,-0.782
HVRBrain,1.024,46839.116,29.093,10400,nan
HVRBrain,1.038,46870.199,28.835,10380,-0.892
HVRBrain,1.026,46901.300,28.898,10400,nan
HVRBrain,1.023,46932.350,28.541,10380,-0.882
HVRBrain,1.022,46963.424,28.893,10400,nan
HVRBrain,1.021,46995.058,29.005,10380,-0.882
HVRBrain,1.013,47026.146,28.747,10400,nan
HVRBrain,1.010,47057.216,28.843,10380,-0.841
HVRBrain,1.022,47088.301,28.896,10400,nan
HVRBrain,1.034,47119.395,28.566,10380,-0.852
HVRBrain,1.025,47150.475,28.895,10400,nan
HVRBrain,1.033,47182.264,28.802,10380,-0.851
HVRBrain,1.019,47213.177,28.742,10400,nan
HVRBrain,1.041,47244.269,28.835,10380,-0.830
HVRBrain,1.033,47275.305,28.720,10380,-0.832
HVRBrain,1.031,47306.420,28.589,10400,nan
HVRBrain,1.036,47337.493,28.839,10380,-0.849
HVRBrain,1.027,47369.113,28.888,10400,nan
HVRBrain,1.004,47400.167,28.847,10380,-0.824
HVRBrain,1.031,47431.276,28.915,10400,nan
HVRBrain,1.020,47462.379,28.760,10380,-0.821
HVRBrain,1.008,47493.415,28.691,10400,nan
HVRBrain,1.026,47525.047,29.234,10380,-0.840
HVRBrain,1.027,47556.145,28.515,10400,nan
HVRBrain,1.018,47587.193,28.816,10380,-0.827
HVRBrain,1.020,47618.298,28.940,10400,nan
HVRBrain,1.028,47649.376,28.568,10380,-0.886
HVRBrain,1.016,47680.471,28.914,10400,nan
HVRBrain,1.011,47712.062,29.051,10380,-0.808
HVRBrain,0.994,47743.146,28.705,10400,nan
HVRBrain,1.000,47774.205,28.854,10380,-0.805
HVRBrain,1.016,47805.329,28.954,10400,nan
HVRBrain,1.009,47836.402,28.569,10380,-0.782
HVRBrain,1.002,47867.479,28.787,10400,nan
HVRBrain,1.007,47899.077,28.872,10380,-0.792
HVRBrain,1.019,47930.191,28.871,10400,nan
HVRBrain,1.029,47961.237,28.814,10380,-30.274
HVRBrain,1.038,47992.371,28.947,10400,nan
HVRBrain,1.032,48023.428,28.545,10380,-29.775
HVRBrain,1.019,48055.045,29.445,10400,nan
HVRBrain,1.011,48086.112,28.289,10380,-2.283
HVRBrain,1.017,48117.195,28.880,10380,-0.785
HVRBrain,1.028,48148.292,28.885,10400,nan
HVRBrain,1.040,48179.381,28.801,10380,-0.800
HVRBrain,1.037,48210.456,28.633,10400,nan
HVRBrain,1.040,48242.073,29.268,10380,-0.813
HVRBrain,1.036,48273.176,28.463,10400,nan
HVRBrain,1.050,48304.243,28.811,10380,-0.831
HVRBrain,1.044,48335.330,28.901,10400,nan
HVRBrain,1.050,48366.433,28.624,10380,-0.796
HVRBrain,1.035,48397.483,28.787,10400,nan
HVRBrain,1.046,48429.097,29.090,10380,-0.836
HVRBrain,1.043,48460.190,28.589,10400,nan
HVRBrain,1.038,48491.258,28.693,10380,-0.836
HVRBrain,1.051,48522.349,28.879,10400,nan
HVRBrain,1.049,48553.442,28.550,10380,-0.818
HVRBrain,1.053,48584.466,28.820,10400,nan
HVRBrain,1.048,48616.133,28.990,10380,-0.850
HVRBrain,1.037,48647.209,28.751,10400,nan
HVRBrain,1.041,48678.270,28.819,10380,-8.262
HVRBrain,1.046,48709.368,28.888,10400,nan
HVRBrain,1.042,48740.477,28.572,10380,-0.848
HVRBrain,1.055,48772.092,29.398,10400,nan
HVRBrain,1.026,48803.140,28.255,10380,-0.863
HVRBrain,1.044,48834.238,28.908,10400,nan
HVRBrain,1.041,48865.335,28.855,10380,-11.029
HVRBrain,1.030,48896.365,28.829,10380,-0.855
HVRBrain,1.036,48927.480,28.602,10400,nan
HVRBrain,1.024,48959.073,29.330,10380,-0.953
HVRBrain,1.042,48990.170,28.369,10400,nan
HVRBrain,1.018,49021.219,28.818,10380,-0.948
HVRBrain,1.028,49052.318,28.916,10400,nan
HVRBrain,1.026,49083.405,28.594,10380,-4.111
HVRBrain,1.050,49114.520,28.785,10400,nan
HVRBrain,1.044,49146.122,29.162,10380,-0.869
HVRBrain,1.043,49177.194,28.505,10400,nan
HVRBrain,1.030,49208.267,28.851,10380,-0.859
HVRBrain,1.027,49239.345,28.894,10400,nan
HVRBrain,1.035,49270.468,28.582,10380,-0.846
HVRBrain,1.023,49302.048,29.400,10400,nan
HVRBrain,1.022,49333.124,28.514,10380,-0.961
HVRBrain,1.072,49364.251,28.698,10400,nan
HVRBrain,1.027,49395.297,28.946,10380,-0.879
HVRBrain,1.033,49426.375,28.899,10400,nan
HVRBrain,1.023,49457.434,28.544,10380,-0.883
HVRBrain,1.022,49489.073,29.489,10400,nan
HVRBrain,1.020,49520.145,28.337,10380,-3.915
HVRBrain,1.029,49551.239,28.861,10400,nan
HVRBrain,1.022,49582.281,28.806,10380,-9.731
HVRBrain,1.027,49613.414,28.941,10400,nan
HVRBrain,1.034,49644.495,28.564,10380,-0.992
HVRBrain,1.019,49676.067,29.274,10380,-15.506
HVRBrain,1.015,49707.163,28.281,10400,nan
HVRBrain,1.024,49738.234,28.837,10380,-0.905
HVRBrain,1.008,49769.310,28.906,10400,nan
HVRBrain,1.016,49800.414,28.821,10380,-4.902
HVRBrain,1.025,49831.494,28.688,10400,nan
HVRBrain,1.024,49863.120,29.274,10380,-3.094
HVRBrain,1.020,49894.182,28.439,10400,nan
HVRBrain,1.012,49925.238,28.868,10380,-1.021
HVRBrain,1.021,49956.375,28.962,10400,nan
HVRBrain,1.020,49987.453,28.627,10380,-2.307
HVRBrain,1.015,50019.052,29.386,10400,nan
HVRBrain,1.024,50050.128,28.556,10380,-0.923
HVRBrain,1.024,50081.225,28.630,10400,nan
HVRBrain,1.012,50112.263,28.829,10380,-3.194
HVRBrain,1.017,50143.379,28.938,10400,nan
HVRBrain,1.017,50174.460,28.575,10380,-0.988
HVRBrain,1.019,50206.075,29.439,10400,nan
HVRBrain,1.010,50237.149,28.405,10380,-2.252
HVRBrain,1.017,50268.253,28.670,10400,nan
HVRBrain,1.015,50299.283,28.804,10380,-0.918
HVRBrain,1.019,50330.391,28.925,10400,nan
HVRBrain,1.024,50361.510,28.606,10380,-0.959
HVRBrain,1.020,50393.105,29.427,10400,nan
HVRBrain,1.009,50424.165,28.285,10380,-0.943
HVRBrain,1.021,50455.263,28.908,10400,nan
HVRBrain,1.026,50486.350,28.865,10380,-0.885
HVRBrain,1.023,50517.449,28.881,10380,-0.964
HVRBrain,1.019,50549.040,29.116,10400,nan
HVRBrain,1.044,50580.143,28.818,10380,-0.889
HVRBrain,1.017,50611.188,28.347,10400,nan
HVRBrain,1.033,50642.302,28.873,10380,-0.910
HVRBrain,1.032,50673.376,28.880,10400,nan
HVRBrain,1.041,50704.486,28.714,10380,-0.898
HVRBrain,1.036,50736.081,29.279,10400,nan
HVRBrain,1.020,50767.132,28.619,10380,-0.911
HVRBrain,1.026,50798.236,28.585,10400,nan
HVRBrain,1.031,50829.314,28.842,10380,-0.891
HVRBrain,1.020,50860.372,28.880,10400,nan
HVRBrain,1.026,50891.454,28.434,10380,-0.903
HVRBrain,1.022,50923.088,29.436,10400,nan
HVRBrain,1.024,50954.172,28.480,10380,-0.880
HVRBrain,1.021,50985.261,28.734,10400,nan
HVRBrain,1.027,51016.324,28.841,10380,-0.912
HVRBrain,1.032,51047.447,28.937,10400,nan
HVRBrain,1.019,51078.489,28.551,10380,-0.900
HVRBrain,1.012,51110.111,29.447,10400,nan
HVRBrain,1.015,51141.191,28.339,10380,-0.958
HVRBrain,1.011,51172.270,28.887,10400,nan
HVRBrain,1.014,51203.333,28.858,10380,-0.842
HVRBrain,1.032,51234.478,28.957,10400,nan
HVRBrain,1.024,51266.057,29.070,10380,-0.830
HVRBrain,1.022,51297.123,28.881,10380,-0.836
HVRBrain,1.019,51328.204,28.325,10400,nan
HVRBrain,1.017,51359.296,28.874,10380,-0.921
HVRBrain,1.012,51390.349,28.891,10400,nan
HVRBrain,1.010,51421.444,28.806,10380,-0.838
HVRBrain,1.019,51453.075,29.236,10400,nan
HVRBrain,1.016,51484.132,28.560,10380,-0.839
HVRBrain,1.022,51515.251,28.523,10400,nan
HVRBrain,1.019,51546.308,28.851,10380,-0.852
HVRBrain,1.005,51577.386,28.915,10400,nan
HVRBrain,1.013,51608.462,28.618,10380,-0.858
HVRBrain,1.021,51640.095,29.426,10400,nan
HVRBrain,1.017,51671.180,28.550,10380,-0.838
HVRBrain,1.018,51702.265,28.651,10400,nan
HVRBrain,1.013,51733.316,28.855,10380,-0.814
HVRBrain,1.022,51764.438,28.951,10400,nan
HVRBrain,1.019,51795.493,28.544,10380,-0.830
HVRBrain,1.025,51827.135,29.472,10400,nan
HVRBrain,1.019,51858.207,28.387,10380,-0.846
HVRBrain,1.011,51889.285,28.820,10400,nan
HVRBrain,1.017,51920.343,28.830,10380,-0.830
HVRBrain,1.025,51951.465,28.939,10400,nan
HVRBrain,1.013,51983.053,29.116,10380,-0.815
HVRBrain,1.018,52014.136,28.907,10400,nan
HVRBrain,1.011,52045.213,28.299,10380,-0.836
HVRBrain,1.022,52076.271,28.718,10380,-0.786
HVRBrain,1.040,52107.404,28.906,10400,nan
HVRBrain,1.024,52138.475,28.834,10380,-0.854
HVRBrain,1.017,52170.085,29.156,10400,nan
HVRBrain,1.014,52201.156,28.799,10380,-0.793
HVRBrain,1.027,52232.240,28.440,10400,nan
HVRBrain,1.012,52263.298,28.874,10380,-0.813
HVRBrain,1.025,52294.586,28.953,10400,nan
HVRBrain,1.022,52325.496,28.519,10380,-0.810
HVRBrain,1.011,52357.106,29.356,10400,nan
HVRBrain,1.018,52388.176,28.625,10380,-0.813
HVRBrain,1.015,52419.264,28.596,10400,nan
HVRBrain,1.032,52450.365,28.875,10380,-0.809
HVRBrain,1.018,52481.459,28.934,10400,nan
HVRBrain,1.030,52513.055,29.088,10380,-0.772
HVRBrain,1.030,52544.151,28.925,10400,nan
HVRBrain,1.045,52575.247,28.465,10380,-0.826
HVRBrain,1.041,52606.336,28.730,10400,nan
HVRBrain,1.034,52637.374,28.811,10380,-0.836
HVRBrain,1.051,52668.452,28.747,10400,nan
HVRBrain,1.036,52700.089,29.120,10380,-0.797
HVRBrain,1.043,52731.195,28.901,10400,nan
HVRBrain,1.010,52762.238,28.275,10380,-0.822
HVRBrain,1.034,52793.339,28.908,10400,nan
HVRBrain,1.037,52824.405,28.849,10380,-0.817
HVRBrain,1.016,52855.490,28.903,10400,nan
HVRBrain,1.027,52887.106,29.123,10380,-0.805
HVRBrain,1.029,52918.175,28.847,10380,-0.806
HVRBrain,1.021,52949.261,28.344,10400,nan
HVRBrain,1.037,52980.360,28.881,10380,-0.884
HVRBrain,1.046,53011.446,28.876,10400,nan
HVRBrain,1.025,53042.514,28.719,10380,-0.822
HVRBrain,1.021,53074.127,29.272,10400,nan
HVRBrain,1.029,53105.200,28.693,10380,4.668
HVRBrain,1.025,53136.299,28.548,10400,nan
HVRBrain,1.037,53167.388,28.856,10380,-5.622
HVRBrain,1.031,53198.460,28.878,10400,nan
HVRBrain,1.041,53230.081,29.123,10380,-18.214
HVRBrain,1.035,53261.168,28.910,10400,nan
HVRBrain,1.005,53292.209,28.401,10380,-2.065
HVRBrain,1.019,53323.311,28.703,10400,nan
HVRBrain,1.006,53354.366,28.867,10380,-2.568
HVRBrain,1.029,53385.494,28.930,10400,nan
HVRBrain,1.017,53417.083,29.115,10380,-0.835
HVRBrain,1.012,53448.159,28.903,10400,nan
HVRBrain,1.020,53479.249,28.386,10380,-0.790
HVRBrain,1.021,53510.335,28.871,10400,nan
HVRBrain,1.024,53541.431,28.899,10380,-3.549
HVRBrain,1.041,53573.061,29.416,10400,nan
HVRBrain,1.027,53604.123,28.565,10380,-7.828
HVRBrain,1.022,53635.202,28.897,10400,nan
HVRBrain,1.017,53666.279,28.327,10380,-7.026
HVRBrain,1.011,53697.338,28.871,10380,-3.998
HVRBrain,0.994,53728.427,28.922,10400,nan
HVRBrain,1.013,53760.040,29.388,10380,-3.501
HVRBrain,1.008,53791.124,28.688,10400,nan
HVRBrain,1.003,53822.185,28.768,10380,-0.784
HVRBrain,1.018,53853.289,28.469,10400,nan
HVRBrain,1.031,53884.363,28.733,10380,-1.376
HVRBrain,1.021,53915.470,28.940,10400,nan
HVRBrain,1.030,53947.081,29.202,10380,-3.560
HVRBrain,1.032,53978.173,28.841,10400,nan
HVRBrain,1.020,54009.249,28.660,10380,-2.098
HVRBrain,1.019,54040.319,28.603,10400,nan
HVRBrain,1.015,54071.380,28.857,10380,-17.749
HVRBrain,1.017,54102.460,28.920,10400,nan
HVRBrain,1.020,54134.091,29.148,10380,-10.867
HVRBrain,1.019,54165.184,28.910,10400,nan
HVRBrain,1.015,54196.276,28.477,10380,-6.159
HVRBrain,1.017,54227.350,28.763,10400,nan
HVRBrain,1.020,54258.420,28.871,10380,-0.846
HVRBrain,1.016,54290.046,29.454,10400,nan
HVRBrain,1.038,54321.142,28.602,10380,-5.965
HVRBrain,1.036,54352.223,28.898,10400,nan
HVRBrain,1.017,54383.272,28.310,10380,-17.225
HVRBrain,1.018,54414.373,28.933,10400,nan
HVRBrain,1.027,54445.443,28.873,10380,-3.058
HVRBrain,1.041,54477.073,29.325,10380,-11.478
HVRBrain,1.026,54508.150,28.581,10400,nan
HVRBrain,1.037,54539.237,28.847,10380,-6.062
HVRBrain,1.051,54570.341,28.364,10400,nan
HVRBrain,1.044,54601.384,28.827,10380,-1.973
HVRBrain,1.042,54632.476,28.892,10400,nan
HVRBrain,1.037,54664.095,29.265,10380,-3.865
HVRBrain,1.058,54695.202,28.758,10400,nan
HVRBrain,1.068,54726.311,28.663,10380,-0.864
HVRBrain,1.044,54757.338,28.473,10400,nan
HVRBrain,1.048,54788.438,28.877,10380,-2.470
HVRBrain,1.045,54819.512,28.870,10400,nan
HVRBrain,1.050,54851.144,29.120,10380,-11.617
HVRBrain,1.038,54882.213,28.895,10400,nan
HVRBrain,1.060,54913.342,28.538,10380,-10.012
HVRBrain,1.038,54944.357,28.625,10400,nan
HVRBrain,1.052,54975.455,28.871,10380,-10.677
HVRBrain,1.039,55007.081,29.436,10400,nan
HVRBrain,1.041,55038.142,28.560,10380,-2.574
HVRBrain,1.012,55069.203,28.748,10400,nan
HVRBrain,1.037,55100.309,28.346,10380,9.004
HVRBrain,1.036,55131.402,28.876,10400,nan
HVRBrain,1.044,55162.509,28.901,10380,-2.109
HVRBrain,1.036,55194.113,29.410,10400,nan
HVRBrain,1.049,55225.182,28.543,10380,-4.073
HVRBrain,1.061,55256.321,28.930,10400,nan
HVRBrain,1.057,55287.360,28.246,10380,-3.090
HVRBrain,1.048,55318.432,28.863,10380,-4.196
HVRBrain,1.056,55349.519,28.882,10400,nan
HVRBrain,1.041,55381.111,29.303,10380,-2.715
HVRBrain,1.061,55412.225,28.695,10400,nan
HVRBrain,1.059,55443.292,28.710,10380,9.915
HVRBrain,1.057,55474.352,28.413,10400,nan
HVRBrain,1.046,55505.458,28.890,10380,-9.523
HVRBrain,1.032,55537.060,29.418,10400,nan
HVRBrain,1.051,55568.146,28.624,10380,-8.130
HVRBrain,1.037,55599.247,28.863,10400,nan
HVRBrain,1.035,55630.315,28.581,10380,-5.797
HVRBrain,1.033,55661.393,28.605,10400,nan
HVRBrain,1.053,55692.475,28.726,10380,-5.797
HVRBrain,1.045,55724.094,29.433,10400,nan
HVRBrain,1.050,55755.178,28.583,10380,6.778
HVRBrain,1.050,55786.274,28.889,10400,nan
HVRBrain,1.060,55817.350,28.393,10380,14.271
HVRBrain,1.051,55848.427,28.757,10400,nan
HVRBrain,1.048,55879.488,28.852,10380,-5.226
HVRBrain,1.046,55911.127,29.446,10400,nan
HVRBrain,1.063,55942.204,28.562,10380,-4.176
HVRBrain,1.065,55973.302,28.864,10400,nan
HVRBrain,1.051,56004.363,28.274,10380,-2.648
HVRBrain,1.029,56035.414,28.875,10400,nan
HVRBrain,1.041,56066.514,28.887,10380,-5.136
HVRBrain,1.045,56098.122,29.397,10380,2.887
HVRBrain,1.021,56129.200,28.638,10400,nan
HVRBrain,1.020,56160.275,28.829,10380,69.885
HVRBrain,1.026,56191.376,28.398,10400,nan
HVRBrain,1.026,56222.448,28.868,10380,-6.388
HVRBrain,1.024,56254.064,29.428,10400,nan
HVRBrain,1.018,56285.138,28.592,10380,8.436
HVRBrain,1.023,56316.210,28.778,10400,nan
HVRBrain,1.020,56347.305,28.679,10380,-2.069
HVRBrain,1.014,56378.350,28.529,10400,nan
HVRBrain,1.010,56409.435,28.912,10380,-14.452
HVRBrain,1.010,56441.075,29.478,10400,nan
HVRBrain,1.018,56472.136,28.603,10380,8.755
HVRBrain,1.017,56503.244,28.944,10400,nan
HVRBrain,1.024,56534.341,28.522,10380,7.919
HVRBrain,1.019,56565.388,28.696,10400,nan
HVRBrain,1.016,56596.496,28.927,10380,10.949
HVRBrain,1.023,56628.110,29.289,10400,nan
HVRBrain,1.036,56659.195,28.600,10380,0.115
HVRBrain,1.027,56690.286,28.904,10400,nan
HVRBrain,1.026,56721.352,28.299,10380,6.437
HVRBrain,1.016,56752.452,28.917,10400,nan
HVRBrain,1.025,56784.047,29.396,10380,-3.920
HVRBrain,1.019,56815.131,28.921,10400,nan
HVRBrain,1.018,56846.199,28.599,10380,-3.254
HVRBrain,1.033,56877.286,28.762,10380,16.403
HVRBrain,1.022,56908.350,28.308,10400,nan
HVRBrain,1.023,56939.464,28.930,10380,-4.034
HVRBrain,1.022,56971.067,29.435,10400,nan
HVRBrain,1.034,57002.156,28.792,10380,-4.358
HVRBrain,1.031,57033.241,28.716,10400,nan
HVRBrain,1.022,57064.284,28.695,10380,-3.814
HVRBrain,1.014,57095.396,28.533,10400,nan
HVRBrain,1.016,57126.444,28.863,10380,-3.376
HVRBrain,1.034,57158.117,29.479,10400,nan
HVRBrain,1.022,57189.169,28.598,10380,-10.234
HVRBrain,1.036,57220.268,28.880,10400,nan
HVRBrain,1.033,57251.353,28.570,10380,-2.102
HVRBrain,1.026,57282.402,28.626,10400,nan
HVRBrain,1.034,57313.507,28.914,10380,-2.556
HVRBrain,1.028,57345.117,29.424,10400,nan
HVRBrain,1.032,57376.192,28.596,10380,2.296
HVRBrain,1.025,57407.276,28.898,10400,nan
HVRBrain,1.022,57438.352,28.410,10380,-2.049
HVRBrain,1.032,57469.434,28.557,10400,nan
HVRBrain,1.038,57501.072,29.425,10380,-2.555
HVRBrain,1.022,57532.142,28.896,10400,nan
HVRBrain,1.016,57563.209,28.599,10380,-1.581
HVRBrain,1.020,57594.316,28.931,10400,nan
HVRBrain,1.039,57625.375,28.301,10380,-3.593
HVRBrain,1.015,57656.449,28.906,10400,nan
HVRBrain,0.996,57688.057,29.454,10380,-0.837
HVRBrain,1.013,57719.141,28.887,10380,-1.511
HVRBrain,1.026,57750.252,28.681,10400,nan
HVRBrain,1.019,57781.317,28.799,10380,-0.838
HVRBrain,1.027,57812.420,28.427,10400,nan
HVRBrain,1.026,57843.447,28.826,10380,-2.578
HVRBrain,1.030,57875.117,29.476,10400,nan
HVRBrain,1.030,57906.178,28.691,10380,-2.052
HVRBrain,1.016,57937.272,28.832,10400,nan
HVRBrain,1.004,57968.325,28.654,10380,-1.568
HVRBrain,1.039,57999.448,28.608,10400,nan
HVRBrain,1.024,58031.045,29.409,10380,-0.821
HVRBrain,1.011,58062.130,28.908,10400,nan
HVRBrain,1.021,58093.196,28.472,10380,-0.829
HVRBrain,1.014,58124.272,28.907,10400,nan
HVRBrain,1.020,58155.357,28.508,10380,-2.560
HVRBrain,1.016,58186.450,28.771,10400,nan
HVRBrain,1.017,58218.058,29.427,10380,-1.549
HVRBrain,1.009,58249.145,28.928,10400,nan
HVRBrain,1.015,58280.231,28.629,10380,-2.525
HVRBrain,1.022,58311.308,28.893,10400,nan
HVRBrain,1.021,58342.555,28.322,10380,-3.545
HVRBrain,1.025,58373.477,28.742,10400,nan
HVRBrain,1.011,58405.082,29.435,10380,-7.526
HVRBrain,1.012,58436.185,28.929,10400,nan
HVRBrain,1.020,58467.248,28.604,10380,-2.048
HVRBrain,1.018,58498.325,28.887,10380,-0.133
HVRBrain,1.024,58529.417,28.364,10400,nan
HVRBrain,1.014,58560.494,28.901,10380,-0.321
HVRBrain,1.027,58592.119,29.441,10400,nan
HVRBrain,1.024,58623.190,28.761,10380,-3.067
HVRBrain,1.019,58654.277,28.744,10400,nan
HVRBrain,1.026,58685.366,28.582,10380,-2.076
HVRBrain,1.020,58716.442,28.515,10400,nan
HVRBrain,1.011,58748.042,29.421,10380,-0.817
HVRBrain,1.023,58779.133,28.924,10400,nan
HVRBrain,1.018,58810.195,28.616,10380,-2.032
HVRBrain,1.020,58841.310,28.943,10400,nan
HVRBrain,1.020,58872.393,28.559,10380,10.833
HVRBrain,1.029,58903.485,28.692,10400,nan
HVRBrain,1.035,58935.092,29.421,10380,6.352
HVRBrain,1.020,58966.173,28.909,10400,nan
HVRBrain,1.032,58997.271,28.620,10380,-7.564
HVRBrain,1.018,59028.347,28.890,10400,nan
HVRBrain,1.029,59059.434,28.394,10380,-0.826
HVRBrain,1.017,59090.477,28.819,10400,nan
HVRBrain,1.022,59122.098,29.433,10380,-3.987
HVRBrain,1.012,59153.205,28.932,10400,nan
HVRBrain,1.019,59184.255,28.582,10380,-1.537
HVRBrain,1.012,59215.352,28.934,10400,nan
HVRBrain,1.028,59246.456,28.346,10380,-3.081
