%YAML 1.1
%TAG !u! tag:unity3d.com,2011:
--- !u!1045 &1
EditorBuildSettings:
  m_ObjectHideFlags: 0
  serializedVersion: 2
  m_Scenes:
  - enabled: 1
    path: Assets/Scenes/menu.unity
    guid: 742bc1b7ccb71e440a144a4cd53d1669
  - enabled: 1
    path: Assets/Scenes/time/time_race_1.unity
    guid: 202ca20c61a33864087d99df62910192
  - enabled: 1
    path: Assets/Scenes/race/race_1.unity
    guid: f01bbee8c3c13ed479370f725f7d9877
  m_configObjects: {}
